type,person,number,date,charge_1,charge_2,charge_3,charge_4,charge_5,charge_6,charge_7,charge_8,charge_9,charge_10,charge_11,charge_12,charge_13,charge_14,charge_15,charge_16,charge_17,charge_18,charge_19,charge_20,charge_21,charge_22,charge_23,charge_24,charge_25,charge_26,charge_27,charge_28,charge_29,charge_30,charge_31,charge_32,charge_33,charge_34,charge_35
CMD,"COOLEY, SHAWNRELL", 2014 CMD 10513,06/14/2014,Bail Reform Act -Misd,,,,,,,,,,,,,,,,,,,,,,,,,,,,,,,,,,
CMD,"DUVALL, KEITH ALAN", 2014 CMD 10515,06/14/2014,Unlawful Entry,,,,,,,,,,,,,,,,,,,,,,,,,,,,,,,,,,
CMD,"SEID, SEADA", 2014 CMD 10519,06/14/2014,Simple Assault,Threats to Do Bodily Harm -Misd,,,,,,,,,,,,,,,,,,,,,,,,,,,,,,,,,
CMD,"JETER, BREION", 2014 CMD 10520,06/14/2014,Attempted Threats to Do Bodily Harm -Misd,,,,,,,,,,,,,,,,,,,,,,,,,,,,,,,,,,
CMD,"BELL, LEONARD JOSEPH", 2014 CMD 10521,06/14/2014,Bail Reform Act -Misd,,,,,,,,,,,,,,,,,,,,,,,,,,,,,,,,,,
CMD,"DAVIS, SAMUEL R", 2014 CMD 10522,06/14/2014,Poss of a Controlled Substance -Misd,,,,,,,,,,,,,,,,,,,,,,,,,,,,,,,,,,
CMD,"SAMMEY, MICHAEL", 2014 CMD 10523,06/14/2014,Poss of a Controlled Substance -Misd,,,,,,,,,,,,,,,,,,,,,,,,,,,,,,,,,,
CMD,"MITCHELL, MORRIS G", 2014 CMD 10524,06/14/2014,Destruction of Property less than $1000,,,,,,,,,,,,,,,,,,,,,,,,,,,,,,,,,,
CMD,"BARNES, SADIE", 2014 CMD 10525,06/14/2014,Sexual Solicitation,,,,,,,,,,,,,,,,,,,,,,,,,,,,,,,,,,
CMD,"MCDONALD, JOSHUA", 2014 CMD 10526,06/14/2014,Receiving Stolen Property-Misd,,,,,,,,,,,,,,,,,,,,,,,,,,,,,,,,,,
CMD,"NICLEY, DARRELL E", 2014 CMD 10527,06/14/2014,Poss of a Controlled Substance -Misd,,,,,,,,,,,,,,,,,,,,,,,,,,,,,,,,,,
CMD,"MULLEN, RAYSHON EDWARD", 2014 CMD 10528,06/14/2014,Possession of Drug Paraphernalia,,,,,,,,,,,,,,,,,,,,,,,,,,,,,,,,,,
CMD,"MINKS, CHRISTINA L", 2014 CMD 10529,06/14/2014,Poss of a Controlled Substance -Misd,Possession of Drug Paraphernalia,,,,,,,,,,,,,,,,,,,,,,,,,,,,,,,,,
CMD,"WALTHALL, MICHAEL TAWAIN", 2014 CMD 10530,06/14/2014,Unlawful Entry,,,,,,,,,,,,,,,,,,,,,,,,,,,,,,,,,,
CMD,"GORE, KEVIN A", 2014 CMD 10531,06/14/2014,Poss of a Controlled Substance -Misd,Poss of a Controlled Substance -Misd,,,,,,,,,,,,,,,,,,,,,,,,,,,,,,,,,
CMD,"LONG, ANGELO D", 2014 CMD 10532,06/16/2014,Poss of a Controlled Substance -Misd,,,,,,,,,,,,,,,,,,,,,,,,,,,,,,,,,,
CMD,"WILSON, TAMICA", 2014 CMD 10549,06/16/2014,Theft Second Degree,,,,,,,,,,,,,,,,,,,,,,,,,,,,,,,,,,
CMD,"BINGHAM, DWAYNE C", 2014 CMD 10550,06/16/2014,Simple Assault,Simple Assault,,,,,,,,,,,,,,,,,,,,,,,,,,,,,,,,,
CMD,"ELIAS, SETH SALVADO", 2014 CMD 10551,06/16/2014,Poss of a Controlled Substance -Misd,,,,,,,,,,,,,,,,,,,,,,,,,,,,,,,,,,
CMD,"BAKER, ANTHONY L", 2014 CMD 10552,06/16/2014,Poss of a Controlled Substance -Misd,,,,,,,,,,,,,,,,,,,,,,,,,,,,,,,,,,
CMD,"HONESTY, GERALD C", 2014 CMD 10558,06/16/2014,Attempted Tampering With Physical Evidence,,,,,,,,,,,,,,,,,,,,,,,,,,,,,,,,,,
CMD,"WADE, DANETT", 2014 CMD 10559,06/16/2014,Simple Assault,Attempted Poss Prohibited Weapon,,,,,,,,,,,,,,,,,,,,,,,,,,,,,,,,,
CMD,"FELIX, RICHARD A", 2014 CMD 10560,06/16/2014,Simple Assault,,,,,,,,,,,,,,,,,,,,,,,,,,,,,,,,,,
CMD,"SUTTON-LAMB, DEENA K.", 2014 CMD 10561,06/16/2014,Theft Second Degree,,,,,,,,,,,,,,,,,,,,,,,,,,,,,,,,,,
CMD,"HARLEY, GREGORY P", 2014 CMD 10562,06/16/2014,Simple Assault,,,,,,,,,,,,,,,,,,,,,,,,,,,,,,,,,,
CMD,"CARROLL, KRISTINA L", 2014 CMD 10563,06/16/2014,Theft Second Degree,,,,,,,,,,,,,,,,,,,,,,,,,,,,,,,,,,
CMD,"DALEY, FAIZAH N", 2014 CMD 10564,06/16/2014,Assault on a Police Officer (Misdemeanor),,,,,,,,,,,,,,,,,,,,,,,,,,,,,,,,,,
CMD,"JACKSON, KEITH", 2014 CMD 10565,06/16/2014,Sex Abuse- Misd,Simple Assault,Attempted Poss Prohibited Weapon,Sex Abuse- Misd,,,,,,,,,,,,,,,,,,,,,,,,,,,,,,,
CMD,"HALL, DARVELLE K", 2014 CMD 10567,06/16/2014,*Attempted Poss of a Controlled Substance -Misd,,,,,,,,,,,,,,,,,,,,,,,,,,,,,,,,,,
CMD,"BAKER, JOHN R", 2014 CMD 10568,06/16/2014,Unlawful Entry,,,,,,,,,,,,,,,,,,,,,,,,,,,,,,,,,,
CMD,"WEIDMAN, ASHLEY NMN", 2014 CMD 10569,06/16/2014,Assault on a Police Officer (Misdemeanor),Destruction of Property less than $1000,,,,,,,,,,,,,,,,,,,,,,,,,,,,,,,,,
CMD,"WEAVER, RICHARD RYAN", 2014 CMD 10570,06/16/2014,Poss of a Controlled Substance -Misd,,,,,,,,,,,,,,,,,,,,,,,,,,,,,,,,,,
CMD,"PRICE, RICO", 2014 CMD 10571,06/16/2014,Theft Second Degree,,,,,,,,,,,,,,,,,,,,,,,,,,,,,,,,,,
CMD,"BURTON, CARLOS A", 2014 CMD 10574,06/16/2014,Simple Assault,Poss Prohibited Weapon,Attempted Threats to Do Bodily Harm -Misd,Simple Assault,Attempted Theft Second Degree,,,,,,,,,,,,,,,,,,,,,,,,,,,,,,
CMD,"DIAZ, SAUL A", 2014 CMD 10575,06/16/2014,Theft Second Degree,,,,,,,,,,,,,,,,,,,,,,,,,,,,,,,,,,
CMD,"JOHNSON, JOHN W", 2014 CMD 10576,06/16/2014,Theft Second Degree,,,,,,,,,,,,,,,,,,,,,,,,,,,,,,,,,,
CMD,"HINES, KEVIN LAMONT", 2014 CMD 10577,06/16/2014,Unlawful Entry,,,,,,,,,,,,,,,,,,,,,,,,,,,,,,,,,,
CMD,"JOHNSON, JOHN W", 2014 CMD 10578,06/16/2014,Theft Second Degree,,,,,,,,,,,,,,,,,,,,,,,,,,,,,,,,,,
CMD,"RUSSELL, RAFAEL M", 2014 CMD 10579,06/16/2014,Bail Reform Act -Misd,,,,,,,,,,,,,,,,,,,,,,,,,,,,,,,,,,
CMD,"TAYLOR, CHERYL", 2014 CMD 10580,06/16/2014,Simple Assault,,,,,,,,,,,,,,,,,,,,,,,,,,,,,,,,,,
CMD,"LEWIS, THELBERT X", 2014 CMD 10581,06/16/2014,Simple Assault,Attempted Poss Prohibited Weapon,,,,,,,,,,,,,,,,,,,,,,,,,,,,,,,,,
CMD,"JOHNSON, ANDRE M", 2014 CMD 10582,06/16/2014,Bail Reform Act -Misd,,,,,,,,,,,,,,,,,,,,,,,,,,,,,,,,,,
CMD,"MILLER, JULIUS", 2014 CMD 10584,06/16/2014,Unlawful Entry,Assault on a Police Officer (Misdemeanor),Unlawful Entry,Poss of a Controlled Substance -Misd,Possession of Drug Paraphernalia,Attempted Threats to Do Bodily Harm -Misd,,,,,,,,,,,,,,,,,,,,,,,,,,,,,
CMD,"SMITH, DARRELL MARQUET", 2014 CMD 10585,06/16/2014,Threats to Do Bodily Harm -Misd,Threats to Do Bodily Harm -Misd,,,,,,,,,,,,,,,,,,,,,,,,,,,,,,,,,
CMD,"SWANEY, JONATHAN", 2014 CMD 10587,06/16/2014,Destruction of Property less than $1000,,,,,,,,,,,,,,,,,,,,,,,,,,,,,,,,,,
CMD,"HOWARD, CARLTON", 2014 CMD 10588,06/16/2014,Poss of a Controlled Substance -Misd,,,,,,,,,,,,,,,,,,,,,,,,,,,,,,,,,,
CMD,"MERCHANT, CHARLES", 2014 CMD 10589,06/16/2014,Assault on a Police Officer (Misdemeanor),,,,,,,,,,,,,,,,,,,,,,,,,,,,,,,,,,
CMD,"DICKERSON, PATRICK R", 2014 CMD 10591,06/16/2014,Simple Assault,,,,,,,,,,,,,,,,,,,,,,,,,,,,,,,,,,
CMD,"FLOWERS, ABINADAB S", 2014 CMD 10593,06/16/2014,Bail Reform Act -Misd,,,,,,,,,,,,,,,,,,,,,,,,,,,,,,,,,,
CMD,"ROBINSON, JOSEPH", 2014 CMD 10594,06/16/2014,Simple Assault,Simple Assault,Destruction of Property less than $1000,,,,,,,,,,,,,,,,,,,,,,,,,,,,,,,,
CMD,"ROBINSON, JAMES", 2014 CMD 10595,06/16/2014,Poss W/I to Dist Marijuana-Misd,Fail to Obey Officer,,,,,,,,,,,,,,,,,,,,,,,,,,,,,,,,,
CMD,"FREEMAN, MICHAEL M", 2014 CMD 10599,06/16/2014,Theft Second Degree,Destruction of Property less than $1000,Unlawful Entry of a Motor Vehicle,,,,,,,,,,,,,,,,,,,,,,,,,,,,,,,,
CMD,"CHAPMAN, CHAPPELLE", 2014 CMD 10600,06/16/2014,Unlawful Entry,,,,,,,,,,,,,,,,,,,,,,,,,,,,,,,,,,
CMD,"CARTER, MALIK", 2014 CMD 10601,06/16/2014,Failure to Appear for Citation Release,,,,,,,,,,,,,,,,,,,,,,,,,,,,,,,,,,
CMD,"HUNTER, CLEMMIE LEE", 2014 CMD 10602,06/16/2014,Failure to Appear for Citation Release,,,,,,,,,,,,,,,,,,,,,,,,,,,,,,,,,,
CMD,"TURNER, MALCOLM A", 2014 CMD 10603,06/16/2014,Unlawful Entry of a Motor Vehicle,,,,,,,,,,,,,,,,,,,,,,,,,,,,,,,,,,
CMD,"BERMINGHAM, JAMES F", 2014 CMD 10604,06/16/2014,Poss of a Controlled Substance -Misd,Possession of Drug Paraphernalia,No Permit,,,,,,,,,,,,,,,,,,,,,,,,,,,,,,,,
CMD,"FIELDS, DANIEL A", 2014 CMD 10606,06/16/2014,Poss of a Controlled Substance -Misd,Poss of a Controlled Substance -Misd,Poss of Open Container of Alcohol/Public Intoxication,,,,,,,,,,,,,,,,,,,,,,,,,,,,,,,,
CMD,"BARNES, JOSEPH P", 2014 CMD 10607,06/16/2014,Poss of a Controlled Substance -Misd,,,,,,,,,,,,,,,,,,,,,,,,,,,,,,,,,,
CMD,"LEE, TARIQ YUSEF", 2014 CMD 10609,06/17/2014,Destruction of Property less than $1000,,,,,,,,,,,,,,,,,,,,,,,,,,,,,,,,,,
CMD,"JACKSON, CHARLENE DENISE", 2014 CMD 10613,06/17/2014,Simple Assault,,,,,,,,,,,,,,,,,,,,,,,,,,,,,,,,,,
CMD,"BYRD, DEMETRIUS SHAUN", 2014 CMD 10615,06/17/2014,Attempted Poss Prohibited Weapon,Simple Assault,,,,,,,,,,,,,,,,,,,,,,,,,,,,,,,,,
CMD,"RHODES, STANILEY", 2014 CMD 10616,06/17/2014,Theft Second Degree,,,,,,,,,,,,,,,,,,,,,,,,,,,,,,,,,,
CMD,"JACOBS, AARON CHRISTOPHER", 2014 CMD 10617,06/17/2014,Poss W/I to Dist Marijuana-Misd,Poss of a Controlled Substance -Misd,No Permit,Reckless Driving,,,,,,,,,,,,,,,,,,,,,,,,,,,,,,,
CMD,"NICKS, GEORGE M", 2014 CMD 10618,06/17/2014,Theft Second Degree,,,,,,,,,,,,,,,,,,,,,,,,,,,,,,,,,,
CMD,"BUCEY, SAMUEL LEE", 2014 CMD 10619,06/17/2014,Receiving Stolen Property-Misd,Poss Implements of Crime,,,,,,,,,,,,,,,,,,,,,,,,,,,,,,,,,
CMD,"ROMAN, RUBEN O", 2014 CMD 10620,06/17/2014,Simple Assault,,,,,,,,,,,,,,,,,,,,,,,,,,,,,,,,,,
CMD,"REID, TIFFANY", 2014 CMD 10632,06/17/2014,Threats to Do Bodily Harm -Misd,,,,,,,,,,,,,,,,,,,,,,,,,,,,,,,,,,
CMD,"CAMPBELL, WESLEY K", 2014 CMD 10633,06/17/2014,Poss of a Controlled Substance -Misd,Possession of Drug Paraphernalia,,,,,,,,,,,,,,,,,,,,,,,,,,,,,,,,,
CMD,"JOHNSON, ROYDA JILMER", 2014 CMD 10634,06/17/2014,Poss of a Controlled Substance -Misd,,,,,,,,,,,,,,,,,,,,,,,,,,,,,,,,,,
CMD,"GARRETT, WILLIAM G", 2014 CMD 10635,06/17/2014,Tampering with a Detection Device,,,,,,,,,,,,,,,,,,,,,,,,,,,,,,,,,,
CMD,"MCCANTS, DANIEL", 2014 CMD 10636,06/17/2014,Simple Assault,,,,,,,,,,,,,,,,,,,,,,,,,,,,,,,,,,
CMD,"TARDY, JABRIEL", 2014 CMD 10637,06/17/2014,Poss Prohibited Weapon,Simple Assault,,,,,,,,,,,,,,,,,,,,,,,,,,,,,,,,,
CMD,"BURDEN, JOHNATHAN", 2014 CMD 10638,06/17/2014,Unlawful Entry,,,,,,,,,,,,,,,,,,,,,,,,,,,,,,,,,,
CMD,"BRAXTON, TINA", 2014 CMD 10639,06/17/2014,Bail Reform Act -Misd,,,,,,,,,,,,,,,,,,,,,,,,,,,,,,,,,,
CMD,"JOHNS, JAMAL", 2014 CMD 10640,06/17/2014,Theft Second Degree,Receiving Stolen Property-Misd,,,,,,,,,,,,,,,,,,,,,,,,,,,,,,,,,
CMD,"ROMAN, RUBEN O", 2014 CMD 10641,06/17/2014,Bail Reform Act -Misd,,,,,,,,,,,,,,,,,,,,,,,,,,,,,,,,,,
CMD,"MCLENDON, CORNELIUS", 2014 CMD 10642,06/17/2014,Poss of a Controlled Substance -Misd,Possession of Drug Paraphernalia,,,,,,,,,,,,,,,,,,,,,,,,,,,,,,,,,
CMD,"GAINES, ANTHONY", 2014 CMD 10644,06/17/2014,Poss of a Controlled Substance -Misd,Poss of a Controlled Substance -Misd,,,,,,,,,,,,,,,,,,,,,,,,,,,,,,,,,
CMD,"MATHEWS, GREGORY B", 2014 CMD 10646,06/17/2014,Poss of a Controlled Substance -Misd,,,,,,,,,,,,,,,,,,,,,,,,,,,,,,,,,,
CMD,"ANDERSON, WILLIE EDWARD", 2014 CMD 10647,06/17/2014,Shoplifting,,,,,,,,,,,,,,,,,,,,,,,,,,,,,,,,,,
CMD,"ANDERSON, WILLIE EDWARD", 2014 CMD 10648,06/17/2014,Theft Second Degree,,,,,,,,,,,,,,,,,,,,,,,,,,,,,,,,,,
CMD,"CRAVEN, RICHARD", 2014 CMD 10653,06/17/2014,Poss of a Controlled Substance -Misd,,,,,,,,,,,,,,,,,,,,,,,,,,,,,,,,,,
CMD,"SHELTON, CHRISTOPHER L", 2014 CMD 10654,06/17/2014,Theft Second Degree,,,,,,,,,,,,,,,,,,,,,,,,,,,,,,,,,,
CMD,"SAVIDGE, ROBERT TRACY", 2014 CMD 10655,06/17/2014,Unlawful Entry,,,,,,,,,,,,,,,,,,,,,,,,,,,,,,,,,,
CMD,"FLORES, GALDINO", 2014 CMD 10656,06/17/2014,Theft Second Degree,,,,,,,,,,,,,,,,,,,,,,,,,,,,,,,,,,
CMD,"GLENMOORE, ANTHONY", 2014 CMD 10657,06/17/2014,Unlawful Entry,,,,,,,,,,,,,,,,,,,,,,,,,,,,,,,,,,
CMD,"SANDOUKA, MAGED A", 2014 CMD 10658,06/18/2014,Theft Second Degree,,,,,,,,,,,,,,,,,,,,,,,,,,,,,,,,,,
CMD,"HUNTER, ANTHONY", 2014 CMD 10661,06/18/2014,Attempted Threats to Do Bodily Harm -Misd,,,,,,,,,,,,,,,,,,,,,,,,,,,,,,,,,,
CMD,"HUNTER, LAGRETTA Y", 2014 CMD 10665,06/18/2014,Simple Assault,,,,,,,,,,,,,,,,,,,,,,,,,,,,,,,,,,
CMD,"HERBERT, HARRY JAMES", 2014 CMD 10667,06/18/2014,Unlawful Entry,,,,,,,,,,,,,,,,,,,,,,,,,,,,,,,,,,
CMD,"SUTTON, STEPHON D", 2014 CMD 10670,06/18/2014,Simple Assault,Simple Assault,Poss of a Controlled Substance -Misd,,,,,,,,,,,,,,,,,,,,,,,,,,,,,,,,
CMD,"FULLER, ANTHONY A", 2014 CMD 10671,06/18/2014,Unlawful Entry,,,,,,,,,,,,,,,,,,,,,,,,,,,,,,,,,,
CMD,"OCARROLL, BERNARD JOSEPH", 2014 CMD 10672,06/18/2014,Unlawful Entry,,,,,,,,,,,,,,,,,,,,,,,,,,,,,,,,,,
CMD,"NELSON, DEXTER G", 2014 CMD 10673,06/18/2014,Simple Assault,,,,,,,,,,,,,,,,,,,,,,,,,,,,,,,,,,
CMD,"CRAWFORD, TYRONE L", 2014 CMD 10674,06/18/2014,Unlawful Entry,,,,,,,,,,,,,,,,,,,,,,,,,,,,,,,,,,
CMD,"HOUSER, DANIEL", 2014 CMD 10675,06/18/2014,Theft Second Degree,Theft Second Degree,Unlawful Entry of a Motor Vehicle,Unlawful Entry of a Motor Vehicle,,,,,,,,,,,,,,,,,,,,,,,,,,,,,,,
CMD,"SHELLEY, CARLOS", 2014 CMD 10676,06/18/2014,Unlawful Entry,,,,,,,,,,,,,,,,,,,,,,,,,,,,,,,,,,
CMD,"PITTS, TARONTA D", 2014 CMD 10679,06/18/2014,Simple Assault,,,,,,,,,,,,,,,,,,,,,,,,,,,,,,,,,,
CMD,"WALLACE, KEON D", 2014 CMD 10681,06/18/2014,Attempted Threats to Do Bodily Harm -Misd,,,,,,,,,,,,,,,,,,,,,,,,,,,,,,,,,,
CMD,"HICKS, JOHN E", 2014 CMD 10684,06/18/2014,Unlawful Entry,,,,,,,,,,,,,,,,,,,,,,,,,,,,,,,,,,
CMD,"JOHNSON, ANTONIO D", 2014 CMD 10686,06/18/2014,Unlawful Entry,,,,,,,,,,,,,,,,,,,,,,,,,,,,,,,,,,
CMD,"WILSON, TERRELL", 2014 CMD 10687,06/18/2014,Poss of a Controlled Substance -Misd,,,,,,,,,,,,,,,,,,,,,,,,,,,,,,,,,,
CMD,"JOHNSON, MAURIO DLONTE", 2014 CMD 10689,06/18/2014,Simple Assault,,,,,,,,,,,,,,,,,,,,,,,,,,,,,,,,,,
CMD,"MAYO, SAMMIE", 2014 CMD 10690,06/18/2014,Simple Assault,,,,,,,,,,,,,,,,,,,,,,,,,,,,,,,,,,
CMD,"ROBERTSON, KENNETH R", 2014 CMD 10691,06/18/2014,Theft Second Degree,,,,,,,,,,,,,,,,,,,,,,,,,,,,,,,,,,
CMD,"WILSON, DELONDA", 2014 CMD 10692,06/18/2014,Theft Second Degree,,,,,,,,,,,,,,,,,,,,,,,,,,,,,,,,,,
CMD,"SCOTT, DONTRA", 2014 CMD 10693,06/18/2014,Poss of a Controlled Substance -Misd,,,,,,,,,,,,,,,,,,,,,,,,,,,,,,,,,,
CMD,"COLFIELD, DORSEY L", 2014 CMD 10694,06/18/2014,Unlawful Entry,,,,,,,,,,,,,,,,,,,,,,,,,,,,,,,,,,
CMD,"SHANE, AKEEM P", 2014 CMD 10695,06/18/2014,Shoplifting,,,,,,,,,,,,,,,,,,,,,,,,,,,,,,,,,,
CMD,"HAWKINS, EVETTE A", 2014 CMD 10696,06/18/2014,Poss of a Controlled Substance -Misd,No Permit,,,,,,,,,,,,,,,,,,,,,,,,,,,,,,,,,
CMD,"WINSTON, TAVON D", 2014 CMD 10697,06/18/2014,Poss of a Controlled Substance -Misd,,,,,,,,,,,,,,,,,,,,,,,,,,,,,,,,,,
CMD,"JAMES, LAVELLE A", 2014 CMD 10698,06/18/2014,Bail Reform Act -Misd,,,,,,,,,,,,,,,,,,,,,,,,,,,,,,,,,,
CMD,"PAYNE, JESSE", 2014 CMD 10699,06/18/2014,Bail Reform Act -Misd,,,,,,,,,,,,,,,,,,,,,,,,,,,,,,,,,,
CMD,"EARL, KEVIN", 2014 CMD 10700,06/18/2014,Bail Reform Act -Misd,,,,,,,,,,,,,,,,,,,,,,,,,,,,,,,,,,
CMD,"SELLERS, DONALD C", 2014 CMD 10701,06/18/2014,Unlawful Entry,,,,,,,,,,,,,,,,,,,,,,,,,,,,,,,,,,
CMD,"GILBERT, PHILLIP", 2014 CMD 10702,06/18/2014,Poss of a Controlled Substance -Misd,,,,,,,,,,,,,,,,,,,,,,,,,,,,,,,,,,
CMD,"KELLY, FREDDRICK", 2014 CMD 10704,06/18/2014,Threats to Do Bodily Harm -Misd,,,,,,,,,,,,,,,,,,,,,,,,,,,,,,,,,,
CMD,"BENJAMIN, LESTER L", 2014 CMD 10728,06/19/2014,Simple Assault,Threats to Do Bodily Harm -Misd,Attempted Poss Prohibited Weapon,Simple Assault,Threats to Do Bodily Harm -Misd,Attempted Poss Prohibited Weapon,,,,,,,,,,,,,,,,,,,,,,,,,,,,,
CMD,"NEALE, MARQUELL", 2014 CMD 10729,06/19/2014,Assault On A Police Officer,Unlawful Entry,,,,,,,,,,,,,,,,,,,,,,,,,,,,,,,,,
CMD,"BOWENS, GREGG BERNARD", 2014 CMD 10733,06/19/2014,Poss of a Controlled Substance -Misd,,,,,,,,,,,,,,,,,,,,,,,,,,,,,,,,,,
CMD,"MONTERIO, ONDINA", 2014 CMD 10738,06/19/2014,Threats to Do Bodily Harm -Misd,,,,,,,,,,,,,,,,,,,,,,,,,,,,,,,,,,
CMD,"BURKE, TONY", 2014 CMD 10747,06/19/2014,Simple Assault,,,,,,,,,,,,,,,,,,,,,,,,,,,,,,,,,,
CMD,"MILLARD, GARY H", 2014 CMD 10748,06/19/2014,Poss of a Controlled Substance -Misd,,,,,,,,,,,,,,,,,,,,,,,,,,,,,,,,,,
CMD,"JACKSON, MALIQUE", 2014 CMD 10750,06/19/2014,Theft Second Degree,Theft Second Degree,,,,,,,,,,,,,,,,,,,,,,,,,,,,,,,,,
CMD,"STOVER, JONATHAN", 2014 CMD 10751,06/19/2014,Poss of a Controlled Substance -Misd,Possession of Drug Paraphernalia,,,,,,,,,,,,,,,,,,,,,,,,,,,,,,,,,
CMD,"OLIPHANT, CARL", 2014 CMD 10752,06/19/2014,Assault On A Police Officer,Assault On A Police Officer,Poss of a Controlled Substance -Misd,,,,,,,,,,,,,,,,,,,,,,,,,,,,,,,,
CMD,"BOWLER, DENNIS NMN", 2014 CMD 10753,06/19/2014,Simple Assault,Poss Prohibited Weapon,,,,,,,,,,,,,,,,,,,,,,,,,,,,,,,,,
CMD,"FOX, EDGAR NATHANIEL", 2014 CMD 10754,06/19/2014,Bail Reform Act -Misd,,,,,,,,,,,,,,,,,,,,,,,,,,,,,,,,,,
CMD,"MADISON, STEPHEN A", 2014 CMD 10755,06/19/2014,Poss of a Controlled Substance -Misd,Possession of Drug Paraphernalia,,,,,,,,,,,,,,,,,,,,,,,,,,,,,,,,,
CMD,"MONTERIO, ONDINA", 2014 CMD 10757,06/19/2014,Bail Reform Act -Misd,,,,,,,,,,,,,,,,,,,,,,,,,,,,,,,,,,
CMD,"LURIE, CARLTON", 2014 CMD 10759,06/19/2014,Unlawful Entry,,,,,,,,,,,,,,,,,,,,,,,,,,,,,,,,,,
CMD,"WINGARD, LARONDA", 2014 CMD 10765,06/19/2014,Destruction of Property less than $1000,,,,,,,,,,,,,,,,,,,,,,,,,,,,,,,,,,
CMD,"DUNKLIN, JAMES", 2014 CMD 10772,06/19/2014,Sex Abuse- Misd,,,,,,,,,,,,,,,,,,,,,,,,,,,,,,,,,,
CMD,"MARTINEZ, CARLOS ALBERTO", 2014 CMD 10786,06/20/2014,Simple Assault,,,,,,,,,,,,,,,,,,,,,,,,,,,,,,,,,,
CMD,"EVANS, LISA M", 2014 CMD 10788,06/20/2014,Simple Assault,,,,,,,,,,,,,,,,,,,,,,,,,,,,,,,,,,
CMD,"BEASLEY, THAMEKA", 2014 CMD 10790,06/20/2014,Theft Second Degree,,,,,,,,,,,,,,,,,,,,,,,,,,,,,,,,,,
CMD,"BEATY, CLEAVIE", 2014 CMD 10791,06/20/2014,Poss of a Controlled Substance -Misd,Operating After Suspension,,,,,,,,,,,,,,,,,,,,,,,,,,,,,,,,,
CMD,"BONNER, TASHA", 2014 CMD 10792,06/20/2014,Simple Assault,Theft Second Degree,,,,,,,,,,,,,,,,,,,,,,,,,,,,,,,,,
CMD,"DIMAS, AYALA N", 2014 CMD 10794,06/20/2014,Theft Second Degree,,,,,,,,,,,,,,,,,,,,,,,,,,,,,,,,,,
CMD,"GARMON, TROY", 2014 CMD 10795,06/20/2014,Poss of a Controlled Substance -Misd,,,,,,,,,,,,,,,,,,,,,,,,,,,,,,,,,,
CMD,"JULIEN, ANDREW J", 2014 CMD 10796,06/20/2014,Poss of a Controlled Substance -Misd,,,,,,,,,,,,,,,,,,,,,,,,,,,,,,,,,,
CMD,"LANG, HUNTER", 2014 CMD 10797,06/20/2014,Poss of a Controlled Substance -Misd,,,,,,,,,,,,,,,,,,,,,,,,,,,,,,,,,,
CMD,"MAJORS, JIMMY FRANKLIN", 2014 CMD 10799,06/20/2014,Theft Second Degree,,,,,,,,,,,,,,,,,,,,,,,,,,,,,,,,,,
CMD,"MASON, THOMAS N", 2014 CMD 10800,06/20/2014,Poss of a Controlled Substance -Misd,,,,,,,,,,,,,,,,,,,,,,,,,,,,,,,,,,
CMD,"WOLVERTON, DEBORAH", 2014 CMD 10801,06/20/2014,Poss of a Controlled Substance -Misd,,,,,,,,,,,,,,,,,,,,,,,,,,,,,,,,,,
CMD,"MARSHALL, LORNE", 2014 CMD 10811,06/20/2014,Poss of a Controlled Substance -Misd,,,,,,,,,,,,,,,,,,,,,,,,,,,,,,,,,,
CMD,"MCZEAL, SHIQUON", 2014 CMD 10812,06/20/2014,Theft Second Degree,,,,,,,,,,,,,,,,,,,,,,,,,,,,,,,,,,
CMD,"LAWRENCE, JAMMIE DONTE", 2014 CMD 10813,06/20/2014,Receiving Stolen Property-Misd,Poss of a Controlled Substance -Misd,Receiving Stolen Property-Misd,,,,,,,,,,,,,,,,,,,,,,,,,,,,,,,,
CMD,"MORRISON, LATISHA P", 2014 CMD 10814,06/20/2014,Poss of a Controlled Substance -Misd,Possession of Drug Paraphernalia,,,,,,,,,,,,,,,,,,,,,,,,,,,,,,,,,
CMD,"SCHULER, ANTHONY", 2014 CMD 10816,06/20/2014,Unlawful Entry,,,,,,,,,,,,,,,,,,,,,,,,,,,,,,,,,,
CMD,"BARKSDALE, NATHANIEL", 2014 CMD 10817,06/20/2014,Theft Second Degree,,,,,,,,,,,,,,,,,,,,,,,,,,,,,,,,,,
CMD,"SPENSIERI, ADAM", 2014 CMD 10818,06/20/2014,Poss of a Controlled Substance -Misd,,,,,,,,,,,,,,,,,,,,,,,,,,,,,,,,,,
CMD,"ZIMMERMAN, JEROME L", 2014 CMD 10819,06/20/2014,Poss of a Controlled Substance -Misd,,,,,,,,,,,,,,,,,,,,,,,,,,,,,,,,,,
CMD,"DAY, THOMAS J", 2014 CMD 10821,06/20/2014,Simple Assault,Poss Prohibited Weapon,,,,,,,,,,,,,,,,,,,,,,,,,,,,,,,,,
CMD,"HARTSFIELD, CORNELIUS", 2014 CMD 10822,06/20/2014,Simple Assault,,,,,,,,,,,,,,,,,,,,,,,,,,,,,,,,,,
CMD,"HAMMOND, VINCENT STEWART", 2014 CMD 10824,06/20/2014,Unlawful Entry,,,,,,,,,,,,,,,,,,,,,,,,,,,,,,,,,,
CMD,"GOODMAN, THOMAS MARQUIS", 2014 CMD 10825,06/20/2014,Poss of a Controlled Substance -Misd,,,,,,,,,,,,,,,,,,,,,,,,,,,,,,,,,,
CMD,"GAITHER, TIMOTHY A", 2014 CMD 10826,06/20/2014,Theft Second Degree,,,,,,,,,,,,,,,,,,,,,,,,,,,,,,,,,,
CMD,"TINDLEY, KEVIN", 2014 CMD 10827,06/20/2014,Assault On A Police Officer,Threats to Do Bodily Harm -Misd,,,,,,,,,,,,,,,,,,,,,,,,,,,,,,,,,
CMD,"SMITH, MICHAEL", 2014 CMD 10828,06/20/2014,Destruction of Property less than $1000,,,,,,,,,,,,,,,,,,,,,,,,,,,,,,,,,,
CMD,"SMITH, RICHARD NATHANIEL", 2014 CMD 10829,06/20/2014,Unlawful Entry,,,,,,,,,,,,,,,,,,,,,,,,,,,,,,,,,,
CMD,"COX, ANTONIO D", 2014 CMD 10830,06/20/2014,Assault On A Police Officer,Assault On A Police Officer,,,,,,,,,,,,,,,,,,,,,,,,,,,,,,,,,
CMD,"STEVENS, TANISHA", 2014 CMD 10831,06/20/2014,Sexual Solicitation,,,,,,,,,,,,,,,,,,,,,,,,,,,,,,,,,,
CMD,"HUNTER, JU'JUAN", 2014 CMD 10832,06/20/2014,Unlawful Entry,,,,,,,,,,,,,,,,,,,,,,,,,,,,,,,,,,
CMD,"BANICK, ANTHONY", 2014 CMD 10833,06/20/2014,Threats to Do Bodily Harm -Misd,Bail Reform Act -Misd,,,,,,,,,,,,,,,,,,,,,,,,,,,,,,,,,
CMD,"SUGGS, DANNY", 2014 CMD 10834,06/20/2014,Simple Assault,Threats to Do Bodily Harm -Misd,Poss of Open Container of Alcohol/Public Intoxication,,,,,,,,,,,,,,,,,,,,,,,,,,,,,,,,
CMD,"BANGURA, ABRAHAM", 2014 CMD 10838,06/20/2014,Theft Second Degree,,,,,,,,,,,,,,,,,,,,,,,,,,,,,,,,,,
CMD,"WRIGHT, CHESTER", 2014 CMD 10839,06/20/2014,Poss of a Controlled Substance -Misd,,,,,,,,,,,,,,,,,,,,,,,,,,,,,,,,,,
CMD,"TATE, BEATRICE", 2014 CMD 10841,06/20/2014,Poss of a Controlled Substance -Misd,,,,,,,,,,,,,,,,,,,,,,,,,,,,,,,,,,
CMD,"TATE, KHADIJAH", 2014 CMD 10843,06/20/2014,Poss of a Controlled Substance -Misd,,,,,,,,,,,,,,,,,,,,,,,,,,,,,,,,,,
CMD,"RIOUS, COREY", 2014 CMD 10844,06/20/2014,Poss of a Controlled Substance -Misd,Poss of an Open Container of Alcohol in a Vehicle,,,,,,,,,,,,,,,,,,,,,,,,,,,,,,,,,
CMD,"PARKER, GREGORY", 2014 CMD 10845,06/20/2014,Theft Second Degree,,,,,,,,,,,,,,,,,,,,,,,,,,,,,,,,,,
CMD,"COLLINS, KHYREE AMIR", 2014 CMD 10846,06/20/2014,Theft Second Degree,,,,,,,,,,,,,,,,,,,,,,,,,,,,,,,,,,
CMD,"PEAK, MILDRED D", 2014 CMD 10847,06/20/2014,Shoplifting,,,,,,,,,,,,,,,,,,,,,,,,,,,,,,,,,,
CMD,"ROSE, ANNA", 2014 CMD 10848,06/20/2014,Shoplifting,,,,,,,,,,,,,,,,,,,,,,,,,,,,,,,,,,
CMD,"JOSHUA, JARRELLE", 2014 CMD 10849,06/20/2014,Bail Reform Act -Misd,,,,,,,,,,,,,,,,,,,,,,,,,,,,,,,,,,
CMD,"ANDERSON, GENNELLE R", 2014 CMD 10851,06/20/2014,Bail Reform Act -Misd,,,,,,,,,,,,,,,,,,,,,,,,,,,,,,,,,,
CMD,"DANIELS, OLAUNDA REGGIE", 2014 CMD 10852,06/20/2014,Bail Reform Act -Misd,,,,,,,,,,,,,,,,,,,,,,,,,,,,,,,,,,
CMD,"PARKER, GREGORY", 2014 CMD 10853,06/20/2014,Bail Reform Act -Misd,,,,,,,,,,,,,,,,,,,,,,,,,,,,,,,,,,
CMD,"MAXEY, SIRETA N", 2014 CMD 10855,06/20/2014,Poss of a Controlled Substance -Misd,,,,,,,,,,,,,,,,,,,,,,,,,,,,,,,,,,
CMD,"BELTON, DARNELL MARQUISE", 2014 CMD 10856,06/20/2014,*Attempted Poss of a Controlled Substance -Misd,,,,,,,,,,,,,,,,,,,,,,,,,,,,,,,,,,
CMD,"MATHIS, CARL E", 2014 CMD 10857,06/20/2014,Poss of a Controlled Substance -Misd,Poss of a Controlled Substance -Misd,,,,,,,,,,,,,,,,,,,,,,,,,,,,,,,,,
CMD,"ROSS, LASHONDA", 2014 CMD 10858,06/20/2014,Poss of a Controlled Substance -Misd,,,,,,,,,,,,,,,,,,,,,,,,,,,,,,,,,,
CMD,"HICKMAN, ALONTAE", 2014 CMD 10859,06/20/2014,,,,,,,,,,,,,,,,,,,,,,,,,,,,,,,,,,,
CMD,"THOMPSON, CHARVINA RARSHA", 2014 CMD 10860,06/20/2014,Simple Assault,Threats to Do Bodily Harm -Misd,,,,,,,,,,,,,,,,,,,,,,,,,,,,,,,,,
CMD,"JOHNSON, ERNEST L", 2014 CMD 10862,06/20/2014,Poss of a Controlled Substance -Misd,Poss of an Open Container of Alcohol in a Vehicle,Possession of Drug Paraphernalia,,,,,,,,,,,,,,,,,,,,,,,,,,,,,,,,
CMD,"ROJAS, LASHANTE", 2014 CMD 10863,06/20/2014,Poss of a Controlled Substance -Misd,Poss of an Open Container of Alcohol in a Vehicle,Possession of Drug Paraphernalia,,,,,,,,,,,,,,,,,,,,,,,,,,,,,,,,
CMD,"PARKER, GREGORY", 2014 CMD 10864,06/20/2014,Theft Second Degree,,,,,,,,,,,,,,,,,,,,,,,,,,,,,,,,,,
CMD,"MCRAE, JASMINE W", 2014 CMD 10865,06/20/2014,Poss of a Controlled Substance -Misd,,,,,,,,,,,,,,,,,,,,,,,,,,,,,,,,,,
CMD,"UZZELL, MICHAEL ANTHONY", 2014 CMD 10867,06/20/2014,Bail Reform Act -Misd,,,,,,,,,,,,,,,,,,,,,,,,,,,,,,,,,,
CMD,"LEE, KEISHA", 2014 CMD 10868,06/20/2014,Theft Second Degree,,,,,,,,,,,,,,,,,,,,,,,,,,,,,,,,,,
CMD,"TEMPLEMAN, DEREK K", 2014 CMD 10869,06/21/2014,Poss of a Controlled Substance -Misd,Possession of Drug Paraphernalia,,,,,,,,,,,,,,,,,,,,,,,,,,,,,,,,,
CMD,"DASH, TRAVIS", 2014 CMD 10870,06/21/2014,Assault On A Police Officer,Assault On A Police Officer,Poss of a Controlled Substance -Misd,,,,,,,,,,,,,,,,,,,,,,,,,,,,,,,,
CMD,"BRIDGES, OTIS M", 2014 CMD 10872,06/21/2014,Theft Second Degree,,,,,,,,,,,,,,,,,,,,,,,,,,,,,,,,,,
CMD,"TYLER, DOMINICK J", 2014 CMD 10873,06/21/2014,Shoplifting,,,,,,,,,,,,,,,,,,,,,,,,,,,,,,,,,,
CMD,"KINNEY, NATHANIEL", 2014 CMD 10874,06/21/2014,Contempt - Condition of Release Violation,Unlawful Entry,,,,,,,,,,,,,,,,,,,,,,,,,,,,,,,,,
CMD,"ROBINSON, ROBERT L", 2014 CMD 10876,06/21/2014,Assault On A Police Officer,Attempted Threats to Do Bodily Harm -Misd,,,,,,,,,,,,,,,,,,,,,,,,,,,,,,,,,
CMD,"RIVERS, HENRY", 2014 CMD 10877,06/21/2014,Assault On A Police Officer,,,,,,,,,,,,,,,,,,,,,,,,,,,,,,,,,,
CMD,"COUNTS, DOMINIC C", 2014 CMD 10880,06/21/2014,Attempted Poss Prohibited Weapon,*Attempted Poss of a Controlled Substance -Misd,,,,,,,,,,,,,,,,,,,,,,,,,,,,,,,,,
CMD,"WOODWARD, SHAQUAN", 2014 CMD 10881,06/21/2014,Poss of a Controlled Substance -Misd,,,,,,,,,,,,,,,,,,,,,,,,,,,,,,,,,,
CMD,"WHITE, RICHARD E", 2014 CMD 10890,06/21/2014,Poss Prohibited Weapon,Unlawful Poss Ammunition,Poss Prohibited Weapon,,,,,,,,,,,,,,,,,,,,,,,,,,,,,,,,
CMD,"CROWDER, KHALIAH R", 2014 CMD 10891,06/21/2014,Simple Assault,Poss of Open Container of Alcohol/Public Intoxication,No Permit,Reckless Driving,Simple Assault,Poss Prohibited Weapon,,,,,,,,,,,,,,,,,,,,,,,,,,,,,
CMD,"LEWIS, JULIETTE", 2014 CMD 10892,06/21/2014,Bail Reform Act -Misd,,,,,,,,,,,,,,,,,,,,,,,,,,,,,,,,,,
CMD,"STACKHOUSE, MARCUS DWAYNE", 2014 CMD 10893,06/21/2014,Poss of a Controlled Substance -Misd,Poss of a Controlled Substance -Misd,,,,,,,,,,,,,,,,,,,,,,,,,,,,,,,,,
CMD,"RILEY, STACCARDO", 2014 CMD 10894,06/21/2014,Attempted Threats to Do Bodily Harm -Misd,,,,,,,,,,,,,,,,,,,,,,,,,,,,,,,,,,
CMD,"RILEY, SHARMALITTA", 2014 CMD 10895,06/21/2014,Attempted Threats to Do Bodily Harm -Misd,Simple Assault,Destruction of Property less than $1000,(NEW),,,,,,,,,,,,,,,,,,,,,,,,,,,,,,,
CMD,"CHARLES, DEMETRI", 2014 CMD 10896,06/21/2014,Bail Reform Act -Misd,,,,,,,,,,,,,,,,,,,,,,,,,,,,,,,,,,
CMD,"JAMES, DEANGELO", 2014 CMD 10905,06/21/2014,Poss of a Controlled Substance -Misd,,,,,,,,,,,,,,,,,,,,,,,,,,,,,,,,,,
CMD,"EADES, GERALD A", 2014 CMD 10906,06/21/2014,Destruction of Property less than $1000,,,,,,,,,,,,,,,,,,,,,,,,,,,,,,,,,,
CMD,"JENKINS, BONNIE J", 2014 CMD 10915,06/21/2014,Poss of a Controlled Substance -Misd,,,,,,,,,,,,,,,,,,,,,,,,,,,,,,,,,,
CMD,"ROSS, LEONARD B", 2014 CMD 10917,06/21/2014,Shoplifting,Unlawful Entry,,,,,,,,,,,,,,,,,,,,,,,,,,,,,,,,,
CMD,"HENDERSON, LEE F", 2014 CMD 10919,06/21/2014,Simple Assault,Destruction of Property less than $1000,,,,,,,,,,,,,,,,,,,,,,,,,,,,,,,,,
CMD,"WALKO, JONATHAN M", 2014 CMD 10922,06/21/2014,Unlawful Entry,,,,,,,,,,,,,,,,,,,,,,,,,,,,,,,,,,
CMD,"WALKO, STEPHEN J", 2014 CMD 10923,06/21/2014,Unlawful Entry,No Permit,Reckless Driving,,,,,,,,,,,,,,,,,,,,,,,,,,,,,,,,
CMD,"SILBERMANN, JOEL A", 2014 CMD 10926,06/23/2014,Assault On A Police Officer,Assault On A Police Officer,Deface Private/Public Property,Deface Private/Public Property,Deface Private/Public Property,,,,,,,,,,,,,,,,,,,,,,,,,,,,,,
CMD,"CAMPION, GREGG", 2014 CMD 10927,06/23/2014,Unlawful Entry,Theft Second Degree,,,,,,,,,,,,,,,,,,,,,,,,,,,,,,,,,
CMD,"TUCKER, RONALD A", 2014 CMD 10928,06/23/2014,Simple Assault,Attempted Threats to Do Bodily Harm -Misd,Attempted Poss Prohibited Weapon,,,,,,,,,,,,,,,,,,,,,,,,,,,,,,,,
CMD,"WILLIS, ERNEST L", 2014 CMD 10935,06/23/2014,Simple Assault,,,,,,,,,,,,,,,,,,,,,,,,,,,,,,,,,,
CMD,"MUKENDI, MUKUNA M", 2014 CMD 10936,06/23/2014,Assault On A Police Officer,Threats to Do Bodily Harm -Misd,,,,,,,,,,,,,,,,,,,,,,,,,,,,,,,,,
CMD,"BUTLER, BRENDA", 2014 CMD 10938,06/23/2014,Theft Second Degree,,,,,,,,,,,,,,,,,,,,,,,,,,,,,,,,,,
CMD,"WILSON, DELONDA", 2014 CMD 10939,06/23/2014,Simple Assault,Attempted Poss Prohibited Weapon,,,,,,,,,,,,,,,,,,,,,,,,,,,,,,,,,
CMD,"CHAPMAN, DANIEL", 2014 CMD 10940,06/23/2014,Simple Assault,Unlawful Entry,Destruction of Property less than $1000,Simple Assault,,,,,,,,,,,,,,,,,,,,,,,,,,,,,,,
CMD,"WOOD, DEVIN DUPREE", 2014 CMD 10944,06/23/2014,Unlawful Entry,,,,,,,,,,,,,,,,,,,,,,,,,,,,,,,,,,
CMD,"STEVENS, DAVID L", 2014 CMD 10945,06/23/2014,Theft Second Degree,,,,,,,,,,,,,,,,,,,,,,,,,,,,,,,,,,
CMD,, 2014 CMD 10946,06/23/2014,Simple Assault,,,,,,,,,,,,,,,,,,,,,,,,,,,,,,,,,,
CMD,"BAILEY, DAVID", 2014 CMD 10948,06/23/2014,Simple Assault,,,,,,,,,,,,,,,,,,,,,,,,,,,,,,,,,,
CMD,"BAILEY, JUAN TYRONE", 2014 CMD 10949,06/23/2014,Simple Assault,,,,,,,,,,,,,,,,,,,,,,,,,,,,,,,,,,
CMD,"FLETCHER, GREGORY ALLEN", 2014 CMD 10950,06/23/2014,Poss of a Controlled Substance -Misd,Possession of Drug Paraphernalia,,,,,,,,,,,,,,,,,,,,,,,,,,,,,,,,,
CMD,"WRIGHT, JVARES ISDORE", 2014 CMD 10953,06/23/2014,Simple Assault,Attempted Poss Prohibited Weapon,,,,,,,,,,,,,,,,,,,,,,,,,,,,,,,,,
CMD,"GUZMAN, JOSE", 2014 CMD 10954,06/23/2014,Simple Assault,Simple Assault,Attempted Poss Prohibited Weapon,,,,,,,,,,,,,,,,,,,,,,,,,,,,,,,,
CMD,"FORD, DEONTE", 2014 CMD 10955,06/23/2014,Distribution of Marijuana-Misd,Poss W/I to Dist Marijuana-Misd,,,,,,,,,,,,,,,,,,,,,,,,,,,,,,,,,
CMD,"TAYLOR, DONTE L", 2014 CMD 10956,06/23/2014,Poss of a Controlled Substance -Misd,,,,,,,,,,,,,,,,,,,,,,,,,,,,,,,,,,
CMD,"PARKER, CHRIS RICHARD", 2014 CMD 10957,06/23/2014,Poss of a Controlled Substance -Misd,Possession of Drug Paraphernalia,Poss of an Open Container of Alcohol in a Vehicle,,,,,,,,,,,,,,,,,,,,,,,,,,,,,,,,
CMD,"GALLEGOS, CONNOR V", 2014 CMD 10958,06/23/2014,Simple Assault,,,,,,,,,,,,,,,,,,,,,,,,,,,,,,,,,,
CMD,"JACKSON, RONALD", 2014 CMD 10961,06/23/2014,Simple Assault,,,,,,,,,,,,,,,,,,,,,,,,,,,,,,,,,,
CMD,"JENKINS, KEVIN", 2014 CMD 10962,06/23/2014,Poss of a Controlled Substance -Misd,,,,,,,,,,,,,,,,,,,,,,,,,,,,,,,,,,
CMD,"LIGHTBOURN, RICARDO", 2014 CMD 10963,06/23/2014,Poss of a Controlled Substance -Misd,,,,,,,,,,,,,,,,,,,,,,,,,,,,,,,,,,
CMD,"WILLIAMS, RORY SINCLAIR", 2014 CMD 10964,06/23/2014,Poss of a Controlled Substance -Misd,,,,,,,,,,,,,,,,,,,,,,,,,,,,,,,,,,
CMD,"MCZEAL, SHIQUON", 2014 CMD 10965,06/23/2014,Unlawful Entry,,,,,,,,,,,,,,,,,,,,,,,,,,,,,,,,,,
CMD,"BUSHROD, MICHELLE", 2014 CMD 10966,06/23/2014,Bail Reform Act -Misd,,,,,,,,,,,,,,,,,,,,,,,,,,,,,,,,,,
CMD,"ASHE, WESTLEY", 2014 CMD 10967,06/23/2014,Failure to Appear for Citation Release,,,,,,,,,,,,,,,,,,,,,,,,,,,,,,,,,,
CMD,"LEE, BRADLEY", 2014 CMD 10972,06/23/2014,Poss of a Controlled Substance -Misd,,,,,,,,,,,,,,,,,,,,,,,,,,,,,,,,,,
CMD,"DOLFORD, GLEN D", 2014 CMD 10973,06/23/2014,Poss of a Controlled Substance -Misd,,,,,,,,,,,,,,,,,,,,,,,,,,,,,,,,,,
CMD,"SEIFE, JANU", 2014 CMD 10974,06/23/2014,Attempted Second Degree Cruelty to Children,,,,,,,,,,,,,,,,,,,,,,,,,,,,,,,,,,
CMD,"YOUNG, CHARLES", 2014 CMD 10976,06/23/2014,Threats to Do Bodily Harm -Misd,,,,,,,,,,,,,,,,,,,,,,,,,,,,,,,,,,
CMD,"PLUMMER, ANTHONY", 2014 CMD 10977,06/23/2014,Bail Reform Act -Misd,,,,,,,,,,,,,,,,,,,,,,,,,,,,,,,,,,
CMD,"GREEN, KELLY", 2014 CMD 10978,06/23/2014,Theft Second Degree,,,,,,,,,,,,,,,,,,,,,,,,,,,,,,,,,,
CMD,"MISSOURI, JERICHO", 2014 CMD 10980,06/23/2014,Poss of a Controlled Substance -Misd,,,,,,,,,,,,,,,,,,,,,,,,,,,,,,,,,,
CMD,"COOPER, BJARNI", 2014 CMD 10981,06/23/2014,Theft Second Degree,,,,,,,,,,,,,,,,,,,,,,,,,,,,,,,,,,
CMD,"DORSEY, KEVIN A", 2014 CMD 10987,06/23/2014,Poss of a Controlled Substance -Misd,Poss of a Controlled Substance -Misd,,,,,,,,,,,,,,,,,,,,,,,,,,,,,,,,,
CMD,"PLUMMER, ANTHONY", 2014 CMD 10990,06/23/2014,Theft Second Degree,Unlawful Entry,,,,,,,,,,,,,,,,,,,,,,,,,,,,,,,,,
CMD,"HOUSER, DANIEL", 2014 CMD 10995,06/23/2014,Theft Second Degree,Unlawful Entry of a Motor Vehicle,Receiving Stolen Property-Misd,,,,,,,,,,,,,,,,,,,,,,,,,,,,,,,,
CMD,"HARDING, RYAN", 2014 CMD 10997,06/23/2014,Unlawful Entry of a Motor Vehicle,,,,,,,,,,,,,,,,,,,,,,,,,,,,,,,,,,
CMD,"MCGRIER, MAKEL", 2014 CMD 10998,06/23/2014,Unlawful Entry of a Motor Vehicle,,,,,,,,,,,,,,,,,,,,,,,,,,,,,,,,,,
CMD,"PLATER, ROBIN THERESA", 2014 CMD 11000,06/23/2014,Poss of a Controlled Substance -Misd,Possession of Drug Paraphernalia,,,,,,,,,,,,,,,,,,,,,,,,,,,,,,,,,
CMD,"DAWKINS, DERWOOD TROY", 2014 CMD 11001,06/23/2014,Poss of a Controlled Substance -Misd,,,,,,,,,,,,,,,,,,,,,,,,,,,,,,,,,,
CMD,"JACKSON, KATRINA", 2014 CMD 11003,06/24/2014,Poss of a Controlled Substance -Misd,,,,,,,,,,,,,,,,,,,,,,,,,,,,,,,,,,
CMD,"DAVIS, DEBBIE", 2014 CMD 11004,06/24/2014,Theft Second Degree,,,,,,,,,,,,,,,,,,,,,,,,,,,,,,,,,,
CMD,"FANIZZI, ITALIA M", 2014 CMD 11006,06/24/2014,Shoplifting,,,,,,,,,,,,,,,,,,,,,,,,,,,,,,,,,,
CMD,"YOUNG, VINCENT EUGENE", 2014 CMD 11009,06/24/2014,Poss of a Controlled Substance -Misd,,,,,,,,,,,,,,,,,,,,,,,,,,,,,,,,,,
CMD,"WILSON, JOHN T", 2014 CMD 11013,06/24/2014,Poss of a Controlled Substance -Misd,Poss of Open Container of Alcohol/Public Intoxication,,,,,,,,,,,,,,,,,,,,,,,,,,,,,,,,,
CMD,"WALKO, STEPHEN J", 2014 CMD 11018,06/24/2014,Unlawful Entry,,,,,,,,,,,,,,,,,,,,,,,,,,,,,,,,,,
CMD,"WALKO, JONATHAN M", 2014 CMD 11020,06/24/2014,Unlawful Entry,,,,,,,,,,,,,,,,,,,,,,,,,,,,,,,,,,
CMD,"CHEEKS, MICHELLE", 2014 CMD 11032,06/24/2014,Bail Reform Act -Misd,,,,,,,,,,,,,,,,,,,,,,,,,,,,,,,,,,
CMD,"RAMOTAR, LEOANA", 2014 CMD 11033,06/24/2014,Simple Assault,Threats to Do Bodily Harm -Misd,Poss Prohibited Weapon,,,,,,,,,,,,,,,,,,,,,,,,,,,,,,,,
CMD,"WILSON, MARY", 2014 CMD 11034,06/24/2014,Simple Assault,,,,,,,,,,,,,,,,,,,,,,,,,,,,,,,,,,
CMD,"WASHINGTON, MUHAMMAD", 2014 CMD 11035,06/24/2014,Unlawful Entry,Tampering with a Detection Device,,,,,,,,,,,,,,,,,,,,,,,,,,,,,,,,,
CMD,"TOLAZA, JOSE", 2014 CMD 11036,06/24/2014,Bail Reform Act -Misd,,,,,,,,,,,,,,,,,,,,,,,,,,,,,,,,,,
CMD,"TOLAZA, JOSE", 2014 CMD 11042,06/24/2014,Simple Assault,,,,,,,,,,,,,,,,,,,,,,,,,,,,,,,,,,
CMD,, 2014 CMD 11044,06/24/2014,Failure to Appear for Citation Release,,,,,,,,,,,,,,,,,,,,,,,,,,,,,,,,,,
CMD,"DAVIS, MICHELLE", 2014 CMD 11056,06/24/2014,Poss of a Controlled Substance -Misd,,,,,,,,,,,,,,,,,,,,,,,,,,,,,,,,,,
CMD,"JACKSON, ALFONZO A", 2014 CMD 11058,06/24/2014,Unlawful Entry,,,,,,,,,,,,,,,,,,,,,,,,,,,,,,,,,,
CMD,"WILLIAMS, JESSICA C", 2014 CMD 11062,06/24/2014,Bail Reform Act -Misd,,,,,,,,,,,,,,,,,,,,,,,,,,,,,,,,,,
CMD,"CARROLL, CORNEAL L", 2014 CMD 11066,06/24/2014,Theft Second Degree,Receiving Stolen Property-Misd,Simple Assault,Attempted Poss Prohibited Weapon,,,,,,,,,,,,,,,,,,,,,,,,,,,,,,,
CMD,"HUNTLEY, JUWON EDDIE", 2014 CMD 11076,06/25/2014,Theft Second Degree,,,,,,,,,,,,,,,,,,,,,,,,,,,,,,,,,,
CMD,"FREY, JACQUELINE", 2014 CMD 11078,06/25/2014,Unlawful Entry,Theft Second Degree,,,,,,,,,,,,,,,,,,,,,,,,,,,,,,,,,
CMD,"VON GREENBRIER, ERRICHE ANTON", 2014 CMD 11079,06/25/2014,Contempt - Condition of Release Violation,,,,,,,,,,,,,,,,,,,,,,,,,,,,,,,,,,
CMD,"HOLMES, MARK JOHN", 2014 CMD 11080,06/25/2014,Simple Assault,Panhandling,,,,,,,,,,,,,,,,,,,,,,,,,,,,,,,,,
CMD,"FEASTER, JAMES T", 2014 CMD 11081,06/25/2014,Assault On A Police Officer,,,,,,,,,,,,,,,,,,,,,,,,,,,,,,,,,,
CMD,"DIGGINS, MARCUS", 2014 CMD 11085,06/25/2014,Theft Second Degree,,,,,,,,,,,,,,,,,,,,,,,,,,,,,,,,,,
CMD,"HAGER, BILLY", 2014 CMD 11091,06/25/2014,Simple Assault,Attempted Second Degree Cruelty to Children,Attempted Second Degree Cruelty to Children,Attempted Threats to Do Bodily Harm -Misd,,,,,,,,,,,,,,,,,,,,,,,,,,,,,,,
CMD,"WASHINGTON, JERMONE", 2014 CMD 11093,06/25/2014,Poss of a Controlled Substance -Misd,Possession of Drug Paraphernalia,Disorderly-Urinating,,,,,,,,,,,,,,,,,,,,,,,,,,,,,,,,
CMD,"LYLES, RICKY", 2014 CMD 11094,06/25/2014,Poss of a Controlled Substance -Misd,Poss of a Controlled Substance -Misd,Possession of Drug Paraphernalia,,,,,,,,,,,,,,,,,,,,,,,,,,,,,,,,
CMD,"SMITH, RAYMOND J", 2014 CMD 11098,06/25/2014,Poss of a Controlled Substance -Misd,,,,,,,,,,,,,,,,,,,,,,,,,,,,,,,,,,
CMD,"HARRIS, CYNTHIA M", 2014 CMD 11100,06/25/2014,Bail Reform Act -Misd,,,,,,,,,,,,,,,,,,,,,,,,,,,,,,,,,,
CMD,"BATES, ANTHONY", 2014 CMD 11101,06/25/2014,Poss Drug Paraphernalia W/I to Deliver &amp; Sell,Possession of Drug Paraphernalia,,,,,,,,,,,,,,,,,,,,,,,,,,,,,,,,,
CMD,"DICKERSON, AUBREY R", 2014 CMD 11102,06/25/2014,Poss of a Controlled Substance -Misd,Poss of a Controlled Substance -Misd,,,,,,,,,,,,,,,,,,,,,,,,,,,,,,,,,
CMD,"TONKINS, BRIAN M", 2014 CMD 11105,06/25/2014,Assault On A Police Officer,Assault On A Police Officer,,,,,,,,,,,,,,,,,,,,,,,,,,,,,,,,,
CMD,"WHITE, CARLED", 2014 CMD 11107,06/25/2014,Poss of a Controlled Substance -Misd,,,,,,,,,,,,,,,,,,,,,,,,,,,,,,,,,,
CMD,"WOODS, VICTORIA", 2014 CMD 11110,06/25/2014,Bail Reform Act -Misd,,,,,,,,,,,,,,,,,,,,,,,,,,,,,,,,,,
CMD,"GUZMAN, JUAN C", 2014 CMD 11114,06/25/2014,Contempt - Condition of Release Violation,,,,,,,,,,,,,,,,,,,,,,,,,,,,,,,,,,
CMD,"EPPS, GEORGE", 2014 CMD 11116,06/25/2014,Unlawful Entry,,,,,,,,,,,,,,,,,,,,,,,,,,,,,,,,,,
CMD,"HUSSEIN, OMARA", 2014 CMD 11117,06/25/2014,Contempt - Condition of Release Violation,,,,,,,,,,,,,,,,,,,,,,,,,,,,,,,,,,
CMD,"ANDERSON, EUGENE R", 2014 CMD 11124,06/25/2014,Poss of a Controlled Substance -Misd,,,,,,,,,,,,,,,,,,,,,,,,,,,,,,,,,,
CMD,"CHEPPELL, DEVIERRE", 2014 CMD 11125,06/25/2014,Simple Assault,,,,,,,,,,,,,,,,,,,,,,,,,,,,,,,,,,
CMD,"HALL, LIONEL WILLIAM", 2014 CMD 11127,06/25/2014,Poss of a Controlled Substance -Misd,,,,,,,,,,,,,,,,,,,,,,,,,,,,,,,,,,
CMD,"SPRIGGS, JERRY", 2014 CMD 11129,06/25/2014,Theft Second Degree,Fraud 2nd Degree (Misd),Theft Second Degree,Fraud 2nd Degree (Misd),,,,,,,,,,,,,,,,,,,,,,,,,,,,,,,
CMD,"GADDIS, DOMINIQUE", 2014 CMD 11130,06/25/2014,Theft Second Degree,Fraud 2nd Degree (Misd),Theft Second Degree,Fraud 2nd Degree (Misd),,,,,,,,,,,,,,,,,,,,,,,,,,,,,,,
CMD,"BROOKS, BYRON N", 2014 CMD 11132,06/25/2014,Bail Reform Act -Misd,,,,,,,,,,,,,,,,,,,,,,,,,,,,,,,,,,
CMD,"INGRAM, LARRY", 2014 CMD 11133,06/25/2014,Poss of a Controlled Substance -Misd,,,,,,,,,,,,,,,,,,,,,,,,,,,,,,,,,,
CMD,"JOHNSON, ALLEN", 2014 CMD 11134,06/25/2014,Unlawful Entry,,,,,,,,,,,,,,,,,,,,,,,,,,,,,,,,,,
CMD,"MASTER, DEEP R", 2014 CMD 11135,06/25/2014,Shoplifting,,,,,,,,,,,,,,,,,,,,,,,,,,,,,,,,,,
CMD,"PAGE, TANISHA", 2014 CMD 11136,06/25/2014,Shoplifting,,,,,,,,,,,,,,,,,,,,,,,,,,,,,,,,,,
CMD,"SNYDER, THEODORE E", 2014 CMD 11137,06/25/2014,Unlawful Entry,,,,,,,,,,,,,,,,,,,,,,,,,,,,,,,,,,
CMD,"TAYLOR, MARLON", 2014 CMD 11138,06/25/2014,Unlawful Entry,,,,,,,,,,,,,,,,,,,,,,,,,,,,,,,,,,
CMD,"SENN, KEVIN K", 2014 CMD 11139,06/25/2014,Poss of a Controlled Substance -Misd,Possession of Drug Paraphernalia,,,,,,,,,,,,,,,,,,,,,,,,,,,,,,,,,
CMD,"LOWERY, SHERMAIN", 2014 CMD 11140,06/25/2014,Poss of a Controlled Substance -Misd,Operating After Suspension,,,,,,,,,,,,,,,,,,,,,,,,,,,,,,,,,
CMD,"STANDIFORD, SEAN W", 2014 CMD 11141,06/25/2014,Poss of a Controlled Substance -Misd,Possession of Drug Paraphernalia,,,,,,,,,,,,,,,,,,,,,,,,,,,,,,,,,
CMD,"REYNOLDS, BRYANT A", 2014 CMD 11142,06/25/2014,Poss of a Controlled Substance -Misd,,,,,,,,,,,,,,,,,,,,,,,,,,,,,,,,,,
CMD,"THOMAS, CHARLES E", 2014 CMD 11143,06/25/2014,Poss of a Controlled Substance -Misd,,,,,,,,,,,,,,,,,,,,,,,,,,,,,,,,,,
CMD,"DENT, ANTHONY", 2014 CMD 11146,06/26/2014,Poss of a Controlled Substance -Misd,,,,,,,,,,,,,,,,,,,,,,,,,,,,,,,,,,
CMD,"LUNDELL, ROBERT G", 2014 CMD 11147,06/26/2014,Poss of a Controlled Substance -Misd,,,,,,,,,,,,,,,,,,,,,,,,,,,,,,,,,,
CMD,"DIXON, SHAWN", 2014 CMD 11148,06/26/2014,Poss of a Controlled Substance -Misd,,,,,,,,,,,,,,,,,,,,,,,,,,,,,,,,,,
CMD,"JONES, DONTA", 2014 CMD 11149,06/26/2014,Assault On A Police Officer,Assault On A Police Officer,Assault On A Police Officer,Threats to Do Bodily Harm -Misd,,,,,,,,,,,,,,,,,,,,,,,,,,,,,,,
CMD,"EDWARDS, RICKY R", 2014 CMD 11150,06/26/2014,Simple Assault,,,,,,,,,,,,,,,,,,,,,,,,,,,,,,,,,,
CMD,"MCCUTCHEON, SHANNAN", 2014 CMD 11151,06/26/2014,Poss of a Controlled Substance -Misd,,,,,,,,,,,,,,,,,,,,,,,,,,,,,,,,,,
CMD,"PETERSON, DEVIN NMN", 2014 CMD 11156,06/26/2014,Theft Second Degree,Destruction of Property less than $1000,Unlawful Entry of a Motor Vehicle,,,,,,,,,,,,,,,,,,,,,,,,,,,,,,,,
CMD,"BARNES, SADIE", 2014 CMD 11158,06/26/2014,Poss of a Controlled Substance -Misd,Contempt - Condition of Release Violation,,,,,,,,,,,,,,,,,,,,,,,,,,,,,,,,,
CMD,"WHITE, GREGORY", 2014 CMD 11163,06/26/2014,Bail Reform Act -Misd,,,,,,,,,,,,,,,,,,,,,,,,,,,,,,,,,,
CMD,"PENNY, ANTHONY", 2014 CMD 11165,06/26/2014,Bail Reform Act -Misd,,,,,,,,,,,,,,,,,,,,,,,,,,,,,,,,,,
CMD,"GRAY, MARYNETTIE", 2014 CMD 11168,06/26/2014,Bail Reform Act -Misd,,,,,,,,,,,,,,,,,,,,,,,,,,,,,,,,,,
CMD,"ADAMS, JOCK KENNAN", 2014 CMD 11171,06/26/2014,Poss of a Controlled Substance -Misd,,,,,,,,,,,,,,,,,,,,,,,,,,,,,,,,,,
CMD,"PURDIE, VICTOR", 2014 CMD 11173,06/26/2014,Simple Assault,Theft Second Degree,,,,,,,,,,,,,,,,,,,,,,,,,,,,,,,,,
CMD,"MURRAY, ANDRE C", 2014 CMD 11175,06/26/2014,Simple Assault Poss,Poss Prohibited Weapon,,,,,,,,,,,,,,,,,,,,,,,,,,,,,,,,,
CMD,"DUNN, NATHANIEL N", 2014 CMD 11176,06/26/2014,Poss of a Controlled Substance -Misd,,,,,,,,,,,,,,,,,,,,,,,,,,,,,,,,,,
CMD,"DURRANT, DANNETTE", 2014 CMD 11177,06/26/2014,Shoplifting,,,,,,,,,,,,,,,,,,,,,,,,,,,,,,,,,,
CMD,"FERSNER, KEVIN L", 2014 CMD 11178,06/26/2014,Unlawful Entry,,,,,,,,,,,,,,,,,,,,,,,,,,,,,,,,,,
CMD,"BOYD, TYKWON", 2014 CMD 11181,06/26/2014,Poss W/I to Dist Marijuana-Misd,,,,,,,,,,,,,,,,,,,,,,,,,,,,,,,,,,
CMD,"DAWKINS, KARL ERIC", 2014 CMD 11182,06/26/2014,Theft Second Degree,,,,,,,,,,,,,,,,,,,,,,,,,,,,,,,,,,
CMD,"HOLLOWAY, GERMAINE A", 2014 CMD 11183,06/26/2014,Poss of a Controlled Substance -Misd,,,,,,,,,,,,,,,,,,,,,,,,,,,,,,,,,,
CMD,"KNIGGE, DOROTHEA", 2014 CMD 11185,06/26/2014,Poss of a Controlled Substance -Misd,,,,,,,,,,,,,,,,,,,,,,,,,,,,,,,,,,
CMD,"HOLLY, STEPHON D", 2014 CMD 11186,06/26/2014,Simple Assault,,,,,,,,,,,,,,,,,,,,,,,,,,,,,,,,,,
CMD,"KIETT, TYLER", 2014 CMD 11187,06/26/2014,Theft Second Degree,,,,,,,,,,,,,,,,,,,,,,,,,,,,,,,,,,
CMD,"LAWRENCE, JAICEE", 2014 CMD 11188,06/26/2014,Theft Second Degree,,,,,,,,,,,,,,,,,,,,,,,,,,,,,,,,,,
CMD,"OWENS, HENRY D", 2014 CMD 11190,06/26/2014,Simple Assault,,,,,,,,,,,,,,,,,,,,,,,,,,,,,,,,,,
CMD,"REED, TROY VINCENT", 2014 CMD 11191,06/26/2014,Poss of a Controlled Substance -Misd,Possession of Drug Paraphernalia,Poss of Open Container of Alcohol/Public Intoxication,,,,,,,,,,,,,,,,,,,,,,,,,,,,,,,,
CMD,"ROBERTS, DEON ELTON", 2014 CMD 11192,06/26/2014,Poss of a Controlled Substance -Misd,Poss of a Controlled Substance -Misd,,,,,,,,,,,,,,,,,,,,,,,,,,,,,,,,,
CMD,"REID, BOBBY R", 2014 CMD 11193,06/26/2014,Unlawful Entry,,,,,,,,,,,,,,,,,,,,,,,,,,,,,,,,,,
CMD,"HAWKINS, ANTHONY W", 2014 CMD 11194,06/26/2014,Bail Reform Act -Misd,,,,,,,,,,,,,,,,,,,,,,,,,,,,,,,,,,
CMD,"SILBERMANN, JOEL A", 2014 CMD 11195,06/26/2014,Deface Private/Public Property,Deface Private/Public Property,,,,,,,,,,,,,,,,,,,,,,,,,,,,,,,,,
CMD,"MCKOY, LUCIUS FRANK", 2014 CMD 11198,06/26/2014,Poss of a Controlled Substance -Misd,Poss of a Controlled Substance -Misd,,,,,,,,,,,,,,,,,,,,,,,,,,,,,,,,,
CMD,"KEATON, DEMETRIUS ARTURO", 2014 CMD 11199,06/26/2014,Unlawful Entry,,,,,,,,,,,,,,,,,,,,,,,,,,,,,,,,,,
CMD,"MERCER, MONIQUE", 2014 CMD 11210,06/26/2014,Threats to Do Bodily Harm -Misd,Destruction of Property less than $1000,,,,,,,,,,,,,,,,,,,,,,,,,,,,,,,,,
CMD,"HALL, QIONA NICOLE", 2014 CMD 11212,06/26/2014,Theft Second Degree,,,,,,,,,,,,,,,,,,,,,,,,,,,,,,,,,,
CMD,"HOWARD, DWAYNE", 2014 CMD 11221,06/27/2014,Assault On A Police Officer,Disorderly Conduct,,,,,,,,,,,,,,,,,,,,,,,,,,,,,,,,,
CMD,"TEMPLEMAN, DEREK K", 2014 CMD 11222,06/27/2014,Contempt - Condition of Release Violation,Unlawful Entry,,,,,,,,,,,,,,,,,,,,,,,,,,,,,,,,,
CMD,"NELSON, KEVIN", 2014 CMD 11225,06/27/2014,Poss of a Controlled Substance -Misd,,,,,,,,,,,,,,,,,,,,,,,,,,,,,,,,,,
CMD,"FARROW, TIM", 2014 CMD 11226,06/27/2014,Assault On A Police Officer,Unlawful Entry,,,,,,,,,,,,,,,,,,,,,,,,,,,,,,,,,
CMD,"SUTTON-LAMB, DEENA K.", 2014 CMD 11227,06/27/2014,Theft Second Degree,,,,,,,,,,,,,,,,,,,,,,,,,,,,,,,,,,
CMD,"TREJO, ARNOLD", 2014 CMD 11228,06/27/2014,Unlawful Entry of a Motor Vehicle,,,,,,,,,,,,,,,,,,,,,,,,,,,,,,,,,,
CMD,"WILLIS, KELVIN J", 2014 CMD 11230,06/27/2014,Simple Assault,Poss Prohibited Weapon,Simple Assault,Threats to Do Bodily Harm -Misd,,,,,,,,,,,,,,,,,,,,,,,,,,,,,,,
CMD,"LATHERN, ROGER S", 2014 CMD 11231,06/27/2014,Sexual Solicitation,,,,,,,,,,,,,,,,,,,,,,,,,,,,,,,,,,
CMD,"ARTIS, SANDRA", 2014 CMD 11243,06/27/2014,Simple Assault,,,,,,,,,,,,,,,,,,,,,,,,,,,,,,,,,,
CMD,"BARBOUR, SCOTT", 2014 CMD 11245,06/27/2014,Unlawful Entry,,,,,,,,,,,,,,,,,,,,,,,,,,,,,,,,,,
CMD,"BREVARD, KENNETH", 2014 CMD 11247,06/27/2014,Simple Assault,Panhandling,,,,,,,,,,,,,,,,,,,,,,,,,,,,,,,,,
CMD,"DAVIS, DONELL", 2014 CMD 11248,06/27/2014,Bail Reform Act -Misd,,,,,,,,,,,,,,,,,,,,,,,,,,,,,,,,,,
CMD,"FLORES, OMAR", 2014 CMD 11249,06/27/2014,Poss of a Controlled Substance -Misd,,,,,,,,,,,,,,,,,,,,,,,,,,,,,,,,,,
CMD,"NELSON, BRYAN DELONTE", 2014 CMD 11250,06/27/2014,Poss of a Controlled Substance -Misd,,,,,,,,,,,,,,,,,,,,,,,,,,,,,,,,,,
CMD,"NOLAN, LEWIS EUGENE", 2014 CMD 11251,06/27/2014,Simple Assault,Theft Second Degree,Attempted Poss Prohibited Weapon,,,,,,,,,,,,,,,,,,,,,,,,,,,,,,,,
CMD,"FORTE, LINWOOD E", 2014 CMD 11252,06/27/2014,Unlawful Entry,Theft Second Degree,,,,,,,,,,,,,,,,,,,,,,,,,,,,,,,,,
CMD,"GHATRI, NAVID", 2014 CMD 11254,06/27/2014,Simple Assault,,,,,,,,,,,,,,,,,,,,,,,,,,,,,,,,,,
CMD,"CARY, MICHAEL", 2014 CMD 11255,06/27/2014,Reckless Driving,Operating Unregistered Motor Vehicle,Fleeing - Misdemeanor,Reckless Driving,,,,,,,,,,,,,,,,,,,,,,,,,,,,,,,
CMD,"JOHNSON, ALLEN", 2014 CMD 11256,06/27/2014,Unlawful Entry,,,,,,,,,,,,,,,,,,,,,,,,,,,,,,,,,,
CMD,"CORBIN, DONOVAN G", 2014 CMD 11257,06/27/2014,Bail Reform Act -Misd,,,,,,,,,,,,,,,,,,,,,,,,,,,,,,,,,,
CMD,"KHOSRAVI, BOBBAK", 2014 CMD 11258,06/27/2014,Simple Assault,Simple Assault,Simple Assault,,,,,,,,,,,,,,,,,,,,,,,,,,,,,,,,
CMD,"CONWAY, EZEKEIL", 2014 CMD 11259,06/27/2014,Simple Assault,Poss Prohibited Weapon,,,,,,,,,,,,,,,,,,,,,,,,,,,,,,,,,
CMD,"TREJO, ADAM N", 2014 CMD 11260,06/27/2014,Simple Assault,,,,,,,,,,,,,,,,,,,,,,,,,,,,,,,,,,
CMD,"TREJO, EDWARD", 2014 CMD 11261,06/27/2014,Simple Assault,Attempted Poss Prohibited Weapon,,,,,,,,,,,,,,,,,,,,,,,,,,,,,,,,,
CMD,"CHAPPELLE III, EDWARD HENRY", 2014 CMD 11262,06/27/2014,Poss of a Controlled Substance -Misd,Poss of a Controlled Substance -Misd,Possession of Drug Paraphernalia,,,,,,,,,,,,,,,,,,,,,,,,,,,,,,,,
CMD,"CORBIN, DONOVAN G", 2014 CMD 11263,06/27/2014,Simple Assault,,,,,,,,,,,,,,,,,,,,,,,,,,,,,,,,,,
CMD,"MAGRUDER, ANDREWS E", 2014 CMD 11264,06/27/2014,Poss of a Controlled Substance -Misd,,,,,,,,,,,,,,,,,,,,,,,,,,,,,,,,,,
CMD,"MAGRUDER, EUGENE", 2014 CMD 11265,06/27/2014,Poss of a Controlled Substance -Misd,Poss of Open Container of Alcohol/Public Intoxication,,,,,,,,,,,,,,,,,,,,,,,,,,,,,,,,,
CMD,"MANZANO-MORA, OSCAR D", 2014 CMD 11266,06/27/2014,Theft Second Degree,,,,,,,,,,,,,,,,,,,,,,,,,,,,,,,,,,
CMD,"TIMBERS, DWAYNE", 2014 CMD 11267,06/27/2014,Theft Second Degree,Unlawful Entry,,,,,,,,,,,,,,,,,,,,,,,,,,,,,,,,,
CMD,"MAXWELL, DAVON", 2014 CMD 11268,06/27/2014,Simple Assault,,,,,,,,,,,,,,,,,,,,,,,,,,,,,,,,,,
CMD,"NGARUKIYE, BLAISE NDASHIMA", 2014 CMD 11269,06/27/2014,Theft Second Degree,,,,,,,,,,,,,,,,,,,,,,,,,,,,,,,,,,
CMD,"OLDEN, GREGORY", 2014 CMD 11271,06/27/2014,Unlawful Entry,Theft Second Degree,,,,,,,,,,,,,,,,,,,,,,,,,,,,,,,,,
CMD,"PARKER, TAMEKA", 2014 CMD 11272,06/27/2014,Simple Assault,,,,,,,,,,,,,,,,,,,,,,,,,,,,,,,,,,
CMD,"RAY, ALTON CLIFTON", 2014 CMD 11273,06/27/2014,Poss of a Controlled Substance -Misd,,,,,,,,,,,,,,,,,,,,,,,,,,,,,,,,,,
CMD,"RETTA, ERMIAS ABRAHAM", 2014 CMD 11276,06/27/2014,Theft Second Degree,,,,,,,,,,,,,,,,,,,,,,,,,,,,,,,,,,
CMD,"ROBINSON, CORAY", 2014 CMD 11277,06/27/2014,Unlawful Entry,Contempt - Condition of Release Violation,,,,,,,,,,,,,,,,,,,,,,,,,,,,,,,,,
CMD,"ROBINSON, DEON L", 2014 CMD 11278,06/27/2014,Simple Assault,,,,,,,,,,,,,,,,,,,,,,,,,,,,,,,,,,
CMD,"SCARFO, RICHARD M", 2014 CMD 11280,06/27/2014,Simple Assault,,,,,,,,,,,,,,,,,,,,,,,,,,,,,,,,,,
CMD,"VALAREZO, STEPHAINE", 2014 CMD 11282,06/27/2014,Theft Second Degree,,,,,,,,,,,,,,,,,,,,,,,,,,,,,,,,,,
CMD,"DECHTER, SAMUEL A", 2014 CMD 11283,06/27/2014,Theft Second Degree,,,,,,,,,,,,,,,,,,,,,,,,,,,,,,,,,,
CMD,"WOODS, ANTHONY", 2014 CMD 11284,06/27/2014,Bail Reform Act -Misd,,,,,,,,,,,,,,,,,,,,,,,,,,,,,,,,,,
CMD,"BUTLER-ROSS, JOSE E", 2014 CMD 11286,06/27/2014,Poss of a Controlled Substance -Misd,Possession of Drug Paraphernalia,,,,,,,,,,,,,,,,,,,,,,,,,,,,,,,,,
CMD,"JACKSON, CHAKEATIA", 2014 CMD 11292,06/27/2014,Fraud 2nd Degree (Misd),,,,,,,,,,,,,,,,,,,,,,,,,,,,,,,,,,
CMD,"WRIGHT, JASON", 2014 CMD 11296,06/27/2014,Poss W/I to Dist Marijuana-Misd,Possession of Drug Paraphernalia,,,,,,,,,,,,,,,,,,,,,,,,,,,,,,,,,
CMD,"THOMAS, TERRANCE", 2014 CMD 11297,06/27/2014,Poss Prohibited Weapon,,,,,,,,,,,,,,,,,,,,,,,,,,,,,,,,,,
CMD,"BARNES, SADIE", 2014 CMD 11299,06/27/2014,Contempt - Condition of Release Violation,Sexual Solicitation,,,,,,,,,,,,,,,,,,,,,,,,,,,,,,,,,
CMD,"MATHIS, JAMAL HYKEEM", 2014 CMD 11315,06/27/2014,Unlawful Entry,,,,,,,,,,,,,,,,,,,,,,,,,,,,,,,,,,
CMD,"SERRANO ARROYO, CARLOS", 2014 CMD 11320,06/27/2014,Bail Reform Act -Misd,,,,,,,,,,,,,,,,,,,,,,,,,,,,,,,,,,
CMD,"SERRANO ARROYO, CARLOS", 2014 CMD 11323,06/27/2014,Threats to Do Bodily Harm -Misd,,,,,,,,,,,,,,,,,,,,,,,,,,,,,,,,,,
CMD,"JONES, SHAWNA", 2014 CMD 11325,06/28/2014,Assault On A Police Officer,Metro - Fail to Pay Fare,,,,,,,,,,,,,,,,,,,,,,,,,,,,,,,,,
CMD,"MCRAE, CHANITHA RENAE", 2014 CMD 11326,06/28/2014,Poss of a Controlled Substance -Misd,,,,,,,,,,,,,,,,,,,,,,,,,,,,,,,,,,
CMD,"COUNTS, DOMINIC C", 2014 CMD 11328,06/28/2014,Assault On A Police Officer,Unlawful Entry,Assault On A Police Officer,,,,,,,,,,,,,,,,,,,,,,,,,,,,,,,,
CMD,"JACKSON, ALFONZO A", 2014 CMD 11329,06/28/2014,Contempt - Condition of Release Violation,,,,,,,,,,,,,,,,,,,,,,,,,,,,,,,,,,
CMD,"ELDER, ERIC", 2014 CMD 11331,06/28/2014,Poss of a Controlled Substance -Misd,,,,,,,,,,,,,,,,,,,,,,,,,,,,,,,,,,
CMD,"BURROUGHS, LAWRENCE W", 2014 CMD 11332,06/28/2014,Poss of a Controlled Substance -Misd,,,,,,,,,,,,,,,,,,,,,,,,,,,,,,,,,,
CMD,"HARRISON, ALVIN", 2014 CMD 11335,06/28/2014,Poss of a Controlled Substance -Misd,,,,,,,,,,,,,,,,,,,,,,,,,,,,,,,,,,
CMD,"AMANUEL, ASHEDO", 2014 CMD 11336,06/28/2014,Theft Second Degree,,,,,,,,,,,,,,,,,,,,,,,,,,,,,,,,,,
CMD,"RUSSELL, WESTIA ISHEBA", 2014 CMD 11337,06/28/2014,Simple Assault,,,,,,,,,,,,,,,,,,,,,,,,,,,,,,,,,,
CMD,"CARR, CEDRIC", 2014 CMD 11338,06/28/2014,Theft Second Degree,,,,,,,,,,,,,,,,,,,,,,,,,,,,,,,,,,
CMD,"PITT, ANTONIO MONTREAL", 2014 CMD 11339,06/28/2014,Poss of a Controlled Substance -Misd,,,,,,,,,,,,,,,,,,,,,,,,,,,,,,,,,,
CMD,"SANDERS, JAMES A", 2014 CMD 11341,06/28/2014,Attempted Poss Prohibited Weapon,,,,,,,,,,,,,,,,,,,,,,,,,,,,,,,,,,
CMD,"BAILEY, LAWRENCE", 2014 CMD 11348,06/28/2014,Assault On A Police Officer,Attempted Threats to Do Bodily Harm -Misd,Unlawful Entry,Attempted Threats to Do Bodily Harm -Misd,Assault On A Police Officer,,,,,,,,,,,,,,,,,,,,,,,,,,,,,,
CMD,"JUAREZ-VENTURA, RAFAEL", 2014 CMD 11352,06/28/2014,Simple Assault,Attempted Poss Prohibited Weapon,,,,,,,,,,,,,,,,,,,,,,,,,,,,,,,,,
CMD,"MONGO, REGINALD", 2014 CMD 11353,06/28/2014,Receiving Stolen Property-Misd,,,,,,,,,,,,,,,,,,,,,,,,,,,,,,,,,,
CMD,"TYSON, TIFFANY M", 2014 CMD 11364,06/28/2014,Destruction of Property less than $1000,Fail to Obey Officer,,,,,,,,,,,,,,,,,,,,,,,,,,,,,,,,,
CMD,"JACKSON, WILLIAM", 2014 CMD 11368,06/28/2014,Assault On A Police Officer,Poss of an Open Container of Alcohol in a Vehicle,,,,,,,,,,,,,,,,,,,,,,,,,,,,,,,,,
CMD,"THOMAS, TAIYON", 2014 CMD 11369,06/28/2014,Threats to Do Bodily Harm -Misd,Disorderly Conduct,,,,,,,,,,,,,,,,,,,,,,,,,,,,,,,,,
CMD,"LOWERY, GARY T", 2014 CMD 11371,06/28/2014,Assault On A Police Officer,Shoplifting,,,,,,,,,,,,,,,,,,,,,,,,,,,,,,,,,
CMD,"JACKSON, CHARLES VINCENT", 2014 CMD 11373,06/28/2014,Assault On A Police Officer,,,,,,,,,,,,,,,,,,,,,,,,,,,,,,,,,,
CMD,"PLAYER, FERMADO K", 2014 CMD 11374,06/28/2014,Theft Second Degree,Receiving Stolen Property-Misd,,,,,,,,,,,,,,,,,,,,,,,,,,,,,,,,,
CMD,"WILSON, LEON L", 2014 CMD 11377,06/28/2014,Theft Second Degree,,,,,,,,,,,,,,,,,,,,,,,,,,,,,,,,,,
CMD,"MOHAMED, SUDI", 2014 CMD 11389,06/30/2014,Attempted Threats to Do Bodily Harm -Misd,,,,,,,,,,,,,,,,,,,,,,,,,,,,,,,,,,
CMD,"HOLMES, LINDA", 2014 CMD 11390,06/30/2014,Simple Assault,Poss Prohibited Weapon,Threats to Do Bodily Harm -Misd,Deface Private/Public Property,,,,,,,,,,,,,,,,,,,,,,,,,,,,,,,
CMD,"HENDERSON, RONALD DAVON", 2014 CMD 11392,06/30/2014,Poss of a Controlled Substance -Misd,,,,,,,,,,,,,,,,,,,,,,,,,,,,,,,,,,
CMD,"ALEXANDER, TERRY", 2014 CMD 11394,06/30/2014,Cruelty to Animals,,,,,,,,,,,,,,,,,,,,,,,,,,,,,,,,,,
CMD,"PAZ, KIMBERLY", 2014 CMD 11395,06/30/2014,Assault On A Police Officer,Simple Assault,,,,,,,,,,,,,,,,,,,,,,,,,,,,,,,,,
CMD,"GUZMAN, CARLOS HUMBERTO", 2014 CMD 11396,06/30/2014,Simple Assault,,,,,,,,,,,,,,,,,,,,,,,,,,,,,,,,,,
CMD,"DUFFY, DEVONTE", 2014 CMD 11398,06/30/2014,Theft Second Degree,,,,,,,,,,,,,,,,,,,,,,,,,,,,,,,,,,
CMD,"FREEMAN, NICHOLAS JARRELL", 2014 CMD 11399,06/30/2014,Theft Second Degree,,,,,,,,,,,,,,,,,,,,,,,,,,,,,,,,,,
CMD,"SCOTT, CASSANDRA JEANELL", 2014 CMD 11406,06/30/2014,Threats to Do Bodily Harm -Misd,,,,,,,,,,,,,,,,,,,,,,,,,,,,,,,,,,
CMD,"WALKER, ANTHONY", 2014 CMD 11409,06/30/2014,Simple Assault,Attempted Poss Prohibited Weapon,,,,,,,,,,,,,,,,,,,,,,,,,,,,,,,,,
CMD,"GUNBY, TIMOTHY D", 2014 CMD 11412,06/30/2014,Theft Second Degree,,,,,,,,,,,,,,,,,,,,,,,,,,,,,,,,,,
CMD,"COATES, JAMES DORSEY", 2014 CMD 11415,06/30/2014,Unlawful Entry,,,,,,,,,,,,,,,,,,,,,,,,,,,,,,,,,,
CMD,"CHAPMAN, ERIC", 2014 CMD 11416,06/30/2014,Assault On A Police Officer,Attempted Theft Second Degree,Unlawful Entry of a Motor Vehicle,Poss Implements of Crime,,,,,,,,,,,,,,,,,,,,,,,,,,,,,,,
CMD,"JACKSON, DERRICK WILLIAM", 2014 CMD 11418,06/30/2014,Unlawful Entry,,,,,,,,,,,,,,,,,,,,,,,,,,,,,,,,,,
CMD,"SELLERS, ANDRE J", 2014 CMD 11419,06/30/2014,Threats to Do Bodily Harm -Misd,,,,,,,,,,,,,,,,,,,,,,,,,,,,,,,,,,
CMD,"HATTON, VONNELL", 2014 CMD 11420,06/30/2014,Assault On A Police Officer,Poss of a Controlled Substance -Misd,Assault On A Police Officer,,,,,,,,,,,,,,,,,,,,,,,,,,,,,,,,
CMD,"TYER, DOMINICK J", 2014 CMD 11421,06/30/2014,Theft Second Degree,,,,,,,,,,,,,,,,,,,,,,,,,,,,,,,,,,
CMD,"OWENS, RICKY K", 2014 CMD 11422,06/30/2014,Poss Prohibited Weapon,Poss of a Controlled Substance -Misd,,,,,,,,,,,,,,,,,,,,,,,,,,,,,,,,,
CMD,"HUNGERFORD, TAVON", 2014 CMD 11423,06/30/2014,Failure to Appear for Citation Release,,,,,,,,,,,,,,,,,,,,,,,,,,,,,,,,,,
CMD,"HUNGERFORD, TAVON", 2014 CMD 11424,06/30/2014,Unlawful Entry,,,,,,,,,,,,,,,,,,,,,,,,,,,,,,,,,,
CMD,"BUESO, MAYRA A", 2014 CMD 11426,06/30/2014,Shoplifting,,,,,,,,,,,,,,,,,,,,,,,,,,,,,,,,,,
CMD,"RAMIREZ DE LEON, SANTIAGO A", 2014 CMD 11427,06/30/2014,Shoplifting,,,,,,,,,,,,,,,,,,,,,,,,,,,,,,,,,,
CMD,"JAMMES, CECILE A", 2014 CMD 11428,06/30/2014,Possession of Drug Paraphernalia,,,,,,,,,,,,,,,,,,,,,,,,,,,,,,,,,,
CMD,"KINCHEN, DANE ALEXANDER", 2014 CMD 11429,06/30/2014,Poss of a Controlled Substance -Misd,Possession of Drug Paraphernalia,,,,,,,,,,,,,,,,,,,,,,,,,,,,,,,,,
CMD,"BRYANT, AVELON", 2014 CMD 11430,06/30/2014,Theft Second Degree,,,,,,,,,,,,,,,,,,,,,,,,,,,,,,,,,,
CMD,"RUSSELL, CHARLES E", 2014 CMD 11431,06/30/2014,Theft Second Degree,,,,,,,,,,,,,,,,,,,,,,,,,,,,,,,,,,
CMD,"JOHNSON, KEITH J", 2014 CMD 11432,06/30/2014,Simple Assault,Simple Assault,,,,,,,,,,,,,,,,,,,,,,,,,,,,,,,,,
CMD,"FLOOD, CHRISTOPHER R", 2014 CMD 11433,06/30/2014,Theft Second Degree,,,,,,,,,,,,,,,,,,,,,,,,,,,,,,,,,,
CMD,"JENNINGS, DENISE", 2014 CMD 11434,06/30/2014,Sexual Solicitation,,,,,,,,,,,,,,,,,,,,,,,,,,,,,,,,,,
CMD,"TAYLOR, MARC", 2014 CMD 11435,06/30/2014,Assault On A Police Officer,Fleeing - Misdemeanor,,,,,,,,,,,,,,,,,,,,,,,,,,,,,,,,,
CMD,"PAYTON, PASTEL M", 2014 CMD 11436,06/30/2014,Poss of a Controlled Substance -Misd,Poss of a Controlled Substance -Misd,Poss of Open Container of Alcohol/Public Intoxication,,,,,,,,,,,,,,,,,,,,,,,,,,,,,,,,
CMD,"SHACKS, VINCENT C", 2014 CMD 11437,06/30/2014,Simple Assault,Unlawful Entry,Unlawful Entry of a Motor Vehicle,Destruction of Property less than $1000,,,,,,,,,,,,,,,,,,,,,,,,,,,,,,,
CMD,"SALES, MINOR", 2014 CMD 11439,06/30/2014,Unlawful Entry,,,,,,,,,,,,,,,,,,,,,,,,,,,,,,,,,,
CMD,"KOROS, ADAM", 2014 CMD 11440,06/30/2014,Sex Abuse- Misd,Sex Abuse- Misd,,,,,,,,,,,,,,,,,,,,,,,,,,,,,,,,,
CMD,"BROWN, THEODORE A", 2014 CMD 11442,06/30/2014,Unlawful Entry,,,,,,,,,,,,,,,,,,,,,,,,,,,,,,,,,,
CMD,"WRIGHT, ANTHONY", 2014 CMD 11447,06/30/2014,Poss of a Controlled Substance -Misd,Poss Prohibited Weapon,,,,,,,,,,,,,,,,,,,,,,,,,,,,,,,,,
CMD,"EVANS, SHARMAIN", 2014 CMD 11449,06/30/2014,Failure to Appear for Citation Release,,,,,,,,,,,,,,,,,,,,,,,,,,,,,,,,,,
CMD,"DAMMONS, LENARD MARSHAL", 2014 CMD 11450,06/30/2014,Poss of a Controlled Substance -Misd,Poss Prohibited Weapon,,,,,,,,,,,,,,,,,,,,,,,,,,,,,,,,,
CMD,"WASHINGTON, RACHEL", 2014 CMD 11451,06/30/2014,Poss of a Controlled Substance -Misd,,,,,,,,,,,,,,,,,,,,,,,,,,,,,,,,,,
CMD,"CURTIM, SEAN", 2014 CMD 11452,06/30/2014,Poss of a Controlled Substance -Misd,Poss of a Controlled Substance -Misd,Possession of Drug Paraphernalia,,,,,,,,,,,,,,,,,,,,,,,,,,,,,,,,
CMD,"TUCKER, KENNETH A", 2014 CMD 11453,06/30/2014,Unlawful Entry,Unlawful Entry,,,,,,,,,,,,,,,,,,,,,,,,,,,,,,,,,
CMD,"COLES, EDWARD L", 2014 CMD 11454,06/30/2014,Poss of a Controlled Substance -Misd,,,,,,,,,,,,,,,,,,,,,,,,,,,,,,,,,,
CMD,"PETERSON, RANDY", 2014 CMD 11457,06/30/2014,Attempted Uttering,,,,,,,,,,,,,,,,,,,,,,,,,,,,,,,,,,
CMD,"TAYLOR, PHILLIP", 2014 CMD 11458,06/30/2014,Poss of a Controlled Substance -Misd,Receiving Stolen Property-Misd,,,,,,,,,,,,,,,,,,,,,,,,,,,,,,,,,
CMD,"THOMAS, COURTNEY", 2014 CMD 11459,06/30/2014,Receiving Stolen Property-Misd,,,,,,,,,,,,,,,,,,,,,,,,,,,,,,,,,,
CMD,"LAMBERT, JONAATHON A", 2014 CMD 11464,07/01/2014,Assault On A Police Officer,Threats to Do Bodily Harm -Misd,Assault On A Police Officer,,,,,,,,,,,,,,,,,,,,,,,,,,,,,,,,
CMD,"ERIKU, HIWOT B", 2014 CMD 11466,07/01/2014,Unlawful Entry,,,,,,,,,,,,,,,,,,,,,,,,,,,,,,,,,,
CMD,"BROWN, VICTOR", 2014 CMD 11467,07/01/2014,Destruction of Property less than $1000,,,,,,,,,,,,,,,,,,,,,,,,,,,,,,,,,,
CMD,"MCKNIGHT, JASAAD", 2014 CMD 11468,07/01/2014,Simple Assault,,,,,,,,,,,,,,,,,,,,,,,,,,,,,,,,,,
CMD,"MOORE, ABDUL D", 2014 CMD 11471,07/01/2014,Poss W/I to Dist Marijuana-Misd,Poss of Open Container of Alcohol/Public Intoxication,,,,,,,,,,,,,,,,,,,,,,,,,,,,,,,,,
CMD,"SKRZYPIEC, KATELYN P", 2014 CMD 11473,07/01/2014,Assault On A Police Officer,Simple Assault,,,,,,,,,,,,,,,,,,,,,,,,,,,,,,,,,
CMD,"SAWYER, DAVID", 2014 CMD 11479,07/01/2014,Unlawful Entry,,,,,,,,,,,,,,,,,,,,,,,,,,,,,,,,,,
CMD,"SAWYER, DAVID", 2014 CMD 11480,07/01/2014,Bail Reform Act -Misd,,,,,,,,,,,,,,,,,,,,,,,,,,,,,,,,,,
CMD,"ERIKU, HIWOT B", 2014 CMD 11487,07/01/2014,Failure to Appear for Citation Release,,,,,,,,,,,,,,,,,,,,,,,,,,,,,,,,,,
CMD,"FRATUS, JASON E", 2014 CMD 11489,07/01/2014,Attempted Threats to Do Bodily Harm -Misd,,,,,,,,,,,,,,,,,,,,,,,,,,,,,,,,,,
CMD,"MYRDAL, DANIEL", 2014 CMD 11490,07/01/2014,Simple Assault,Threats to Do Bodily Harm -Misd,Attempted Poss Prohibited Weapon,Simple Assault,,,,,,,,,,,,,,,,,,,,,,,,,,,,,,,
CMD,"BARBER, PATRICIA D", 2014 CMD 11491,07/01/2014,Attempted Uttering,,,,,,,,,,,,,,,,,,,,,,,,,,,,,,,,,,
CMD,"GUILLON, EMMANUEL", 2014 CMD 11495,07/01/2014,Theft Second Degree,Possession of Drug Paraphernalia,,,,,,,,,,,,,,,,,,,,,,,,,,,,,,,,,
CMD,"GIACCHETTI, DANIELLE", 2014 CMD 11496,07/01/2014,Theft Second Degree,Possession of Drug Paraphernalia,,,,,,,,,,,,,,,,,,,,,,,,,,,,,,,,,
CMD,"FISH, WILLIAM", 2014 CMD 11498,07/01/2014,Theft Second Degree,Poss of a Controlled Substance -Misd,Poss of a Controlled Substance -Misd,Possession of Drug Paraphernalia,,,,,,,,,,,,,,,,,,,,,,,,,,,,,,,
CMD,"LAWRENCE, JAICEE", 2014 CMD 11519,07/01/2014,Shoplifting,,,,,,,,,,,,,,,,,,,,,,,,,,,,,,,,,,
CMD,, 2014 CMD 11538,07/02/2014,Assault On A Police Officer,Panhandling,,,,,,,,,,,,,,,,,,,,,,,,,,,,,,,,,
CMD,"BINGHAM, DWAYNE C", 2014 CMD 11539,07/02/2014,Poss of a Controlled Substance -Misd,,,,,,,,,,,,,,,,,,,,,,,,,,,,,,,,,,
CMD,"ANDERSON, DEXTER", 2014 CMD 11541,07/02/2014,Theft Second Degree,Receiving Stolen Property-Misd,Unlawful Entry of a Motor Vehicle,,,,,,,,,,,,,,,,,,,,,,,,,,,,,,,,
CMD,"GAINZA, ANGEL LUIS", 2014 CMD 11542,07/02/2014,Contempt - Condition of Release Violation,Unlawful Entry,,,,,,,,,,,,,,,,,,,,,,,,,,,,,,,,,
CMD,"WOOD, ROY", 2014 CMD 11543,07/02/2014,Poss of a Controlled Substance -Misd,,,,,,,,,,,,,,,,,,,,,,,,,,,,,,,,,,
CMD,"CARTER, JOSHUA R", 2014 CMD 11544,07/02/2014,Theft Second Degree,Destruction of Property less than $1000,,,,,,,,,,,,,,,,,,,,,,,,,,,,,,,,,
CMD,"WILLIAMS, RONALD", 2014 CMD 11545,07/02/2014,Theft Second Degree,,,,,,,,,,,,,,,,,,,,,,,,,,,,,,,,,,
CMD,"WALKER, ANTONIO", 2014 CMD 11546,07/02/2014,Theft Second Degree,,,,,,,,,,,,,,,,,,,,,,,,,,,,,,,,,,
CMD,"DICKEY, MICHAEL L", 2014 CMD 11550,07/02/2014,Bail Reform Act -Misd,,,,,,,,,,,,,,,,,,,,,,,,,,,,,,,,,,
CMD,"WILSON, NORMAN C", 2014 CMD 11551,07/02/2014,Bail Reform Act -Misd,,,,,,,,,,,,,,,,,,,,,,,,,,,,,,,,,,
CMD,"MCMILLAN, JANAE", 2014 CMD 11553,07/02/2014,Shoplifting,Unlawful Entry,,,,,,,,,,,,,,,,,,,,,,,,,,,,,,,,,
CMD,"MASON, WILLIAM H", 2014 CMD 11554,07/02/2014,Theft Second Degree,,,,,,,,,,,,,,,,,,,,,,,,,,,,,,,,,,
CMD,"ONEAL, STEPHEN P", 2014 CMD 11562,07/02/2014,Theft Second Degree,,,,,,,,,,,,,,,,,,,,,,,,,,,,,,,,,,
CMD,"GREEN, DATWAIN", 2014 CMD 11563,07/02/2014,Failure to Appear for Citation Release,,,,,,,,,,,,,,,,,,,,,,,,,,,,,,,,,,
CMD,"IRVING, LEONITE", 2014 CMD 11564,07/02/2014,Unlawful Entry,,,,,,,,,,,,,,,,,,,,,,,,,,,,,,,,,,
CMD,"DOWNING, HELEN P", 2014 CMD 11565,07/02/2014,Simple Assault,Poss Prohibited Weapon,Threats to Do Bodily Harm -Misd,,,,,,,,,,,,,,,,,,,,,,,,,,,,,,,,
CMD,"PRINCE, MARCUS", 2014 CMD 11566,07/02/2014,Tampering with a Detection Device,,,,,,,,,,,,,,,,,,,,,,,,,,,,,,,,,,
CMD,"MILER, AVERY", 2014 CMD 11567,07/02/2014,Theft Second Degree,,,,,,,,,,,,,,,,,,,,,,,,,,,,,,,,,,
CMD,"PROCTOR, CHRISTOPHER", 2014 CMD 11568,07/02/2014,Receiving Stolen Property-Misd,,,,,,,,,,,,,,,,,,,,,,,,,,,,,,,,,,
CMD,"MACK, MCKEEVER", 2014 CMD 11575,07/02/2014,Threats to Do Bodily Harm -Misd,,,,,,,,,,,,,,,,,,,,,,,,,,,,,,,,,,
CMD,"ATCHISON, DEREK E", 2014 CMD 11576,07/02/2014,Unlawful Entry,,,,,,,,,,,,,,,,,,,,,,,,,,,,,,,,,,
CMD,"JARRETT, JOHN T", 2014 CMD 11578,07/02/2014,Poss of a Controlled Substance -Misd,,,,,,,,,,,,,,,,,,,,,,,,,,,,,,,,,,
CMD,"MORRIS, KAREEM", 2014 CMD 11584,07/02/2014,Sexual Solicitation,,,,,,,,,,,,,,,,,,,,,,,,,,,,,,,,,,
CMD,"FIELDS, BRITTANY", 2014 CMD 11588,07/02/2014,Poss of a Controlled Substance -Misd,,,,,,,,,,,,,,,,,,,,,,,,,,,,,,,,,,
CMD,"ALLEN, BERNADETTE", 2014 CMD 11602,07/02/2014,Poss of a Controlled Substance -Misd,,,,,,,,,,,,,,,,,,,,,,,,,,,,,,,,,,
CMD,"BRUC, ABAL", 2014 CMD 11604,07/02/2014,Theft Second Degree,,,,,,,,,,,,,,,,,,,,,,,,,,,,,,,,,,
CMD,"EDWARDS, MARC W", 2014 CMD 11606,07/02/2014,Poss of a Controlled Substance -Misd,,,,,,,,,,,,,,,,,,,,,,,,,,,,,,,,,,
CMD,"FOXX, STEPHANIE", 2014 CMD 11607,07/02/2014,Simple Assault,,,,,,,,,,,,,,,,,,,,,,,,,,,,,,,,,,
CMD,"HUNTER, RICARDO S", 2014 CMD 11608,07/02/2014,Poss of a Controlled Substance -Misd,Poss of an Open Container of Alcohol in a Vehicle,,,,,,,,,,,,,,,,,,,,,,,,,,,,,,,,,
CMD,"LABOARD, QUANIKA LASHWN", 2014 CMD 11610,07/02/2014,Theft Second Degree,,,,,,,,,,,,,,,,,,,,,,,,,,,,,,,,,,
CMD,"PLATT, ELISHEBA", 2014 CMD 11612,07/02/2014,Sexual Solicitation,,,,,,,,,,,,,,,,,,,,,,,,,,,,,,,,,,
CMD,"RATLIFF, SUZETTE", 2014 CMD 11613,07/02/2014,Poss W/I to Dist Marijuana-Misd,,,,,,,,,,,,,,,,,,,,,,,,,,,,,,,,,,
CMD,"ROBINSON, RODERICK A", 2014 CMD 11614,07/02/2014,Sexual Solicitation,,,,,,,,,,,,,,,,,,,,,,,,,,,,,,,,,,
CMD,"ROSS, JUSTIN E", 2014 CMD 11615,07/02/2014,Theft Second Degree,,,,,,,,,,,,,,,,,,,,,,,,,,,,,,,,,,
CMD,"AGUILAR, GERARDO", 2014 CMD 11616,07/02/2014,Theft Second Degree,,,,,,,,,,,,,,,,,,,,,,,,,,,,,,,,,,
CMD,"ANDRADE, ROBERTO", 2014 CMD 11617,07/02/2014,Unlawful Entry,,,,,,,,,,,,,,,,,,,,,,,,,,,,,,,,,,
CMD,"BENATI, JASON M", 2014 CMD 11618,07/02/2014,Simple Assault,,,,,,,,,,,,,,,,,,,,,,,,,,,,,,,,,,
CMD,"CARR, JERRY LEE", 2014 CMD 11619,07/02/2014,Poss of a Controlled Substance -Misd,,,,,,,,,,,,,,,,,,,,,,,,,,,,,,,,,,
CMD,"FROST, MALCOM Y", 2014 CMD 11620,07/02/2014,Poss of a Controlled Substance -Misd,Possession of Drug Paraphernalia (NO GERNSTEIN),,,,,,,,,,,,,,,,,,,,,,,,,,,,,,,,,
CMD,"SMITH, CARLOS MORRIS", 2014 CMD 11621,07/02/2014,Simple Assault,,,,,,,,,,,,,,,,,,,,,,,,,,,,,,,,,,
CMD,"SMITH, TAREY", 2014 CMD 11622,07/02/2014,Shoplifting,,,,,,,,,,,,,,,,,,,,,,,,,,,,,,,,,,
CMD,"WINFIELD, OMAR", 2014 CMD 11623,07/02/2014,Receiving Stolen Property-Misd,,,,,,,,,,,,,,,,,,,,,,,,,,,,,,,,,,
CMD,"VERA-SANCHEZ, CARLOS", 2014 CMD 11624,07/02/2014,Poss of a Controlled Substance -Misd,,,,,,,,,,,,,,,,,,,,,,,,,,,,,,,,,,
CMD,"FREE, ROY", 2014 CMD 11625,07/02/2014,Sexual Solicitation,,,,,,,,,,,,,,,,,,,,,,,,,,,,,,,,,,
CMD,"OWENS, JOSEPH E", 2014 CMD 11626,07/02/2014,Destruction of Property less than $1000,,,,,,,,,,,,,,,,,,,,,,,,,,,,,,,,,,
CMD,"FREE, ROY", 2014 CMD 11627,07/02/2014,Failure to Appear for Citation Release,,,,,,,,,,,,,,,,,,,,,,,,,,,,,,,,,,
CMD,"PARKS, RASHARD", 2014 CMD 11628,07/02/2014,Poss of a Controlled Substance -Misd,,,,,,,,,,,,,,,,,,,,,,,,,,,,,,,,,,
CMD,"OVERTON, JEFFERY", 2014 CMD 11630,07/02/2014,Theft Second Degree,Receiving Stolen Property-Misd,,,,,,,,,,,,,,,,,,,,,,,,,,,,,,,,,
CMD,"ORELLANA, LORRIE S", 2014 CMD 11631,07/02/2014,Poss of a Controlled Substance -Misd,Possession of Drug Paraphernalia (NO GERNSTEIN),,,,,,,,,,,,,,,,,,,,,,,,,,,,,,,,,
CMD,"BARCLIFT, REYSHAD S", 2014 CMD 11632,07/02/2014,Poss of a Controlled Substance -Misd,Possession of Drug Paraphernalia,,,,,,,,,,,,,,,,,,,,,,,,,,,,,,,,,
CMD,"MOORE, JULIO", 2014 CMD 11633,07/02/2014,*Attempted Poss of a Controlled Substance -Misd,,,,,,,,,,,,,,,,,,,,,,,,,,,,,,,,,,
CMD,"MOMINZADA, KAZAM Z", 2014 CMD 11634,07/02/2014,Simple Assault (NO GERNSTEIN),,,,,,,,,,,,,,,,,,,,,,,,,,,,,,,,,,
CMD,"LEWIS, SHAWN", 2014 CMD 11635,07/02/2014,Poss of a Controlled Substance -Misd,,,,,,,,,,,,,,,,,,,,,,,,,,,,,,,,,,
CMD,"LEWIS, ROBBIE LORENZO", 2014 CMD 11636,07/02/2014,Poss of a Controlled Substance -Misd,,,,,,,,,,,,,,,,,,,,,,,,,,,,,,,,,,
CMD,"GRIMES, CRYSTAL", 2014 CMD 11637,07/02/2014,Simple Assault (NO GERNSTEIN),,,,,,,,,,,,,,,,,,,,,,,,,,,,,,,,,,
CMD,"GLASKO, STEVEN", 2014 CMD 11638,07/02/2014,Poss of a Controlled Substance -Misd,,,,,,,,,,,,,,,,,,,,,,,,,,,,,,,,,,
CMD,"GLENN, DARLENE", 2014 CMD 11639,07/02/2014,Unlawful Entry,,,,,,,,,,,,,,,,,,,,,,,,,,,,,,,,,,
CMD,"DAWSON, PATRICK", 2014 CMD 11640,07/02/2014,Theft Second Degree,Destruction of Property less than $1000,Theft Second Degree,Theft Second Degree,,,,,,,,,,,,,,,,,,,,,,,,,,,,,,,
CMD,"FLEET, EUGENE", 2014 CMD 11647,07/03/2014,Unlawful Entry of a Motor Vehicle,Poss of a Controlled Substance -Misd,,,,,,,,,,,,,,,,,,,,,,,,,,,,,,,,,
CMD,"HAWKINS, LEONARD", 2014 CMD 11649,07/03/2014,Attempted Theft Second Degree,Poss Implements of Crime,,,,,,,,,,,,,,,,,,,,,,,,,,,,,,,,,
CMD,"MARCHIONE, CHRISTOPHER A", 2014 CMD 11650,07/03/2014,Contempt - Condition of Release Violation,,,,,,,,,,,,,,,,,,,,,,,,,,,,,,,,,,
CMD,"NEWELL, KEISHA S", 2014 CMD 11651,07/03/2014,Simple Assault,Attempted Poss Prohibited Weapon,,,,,,,,,,,,,,,,,,,,,,,,,,,,,,,,,
CMD,"MCCULLOUGH, DAVID", 2014 CMD 11652,07/03/2014,Poss Prohibited Weapon,,,,,,,,,,,,,,,,,,,,,,,,,,,,,,,,,,
CMD,"JONES, DUAN", 2014 CMD 11654,07/03/2014,Poss of a Controlled Substance -Misd,No Permit,,,,,,,,,,,,,,,,,,,,,,,,,,,,,,,,,
CMD,"MCCULLOUGH, DAVID", 2014 CMD 11657,07/03/2014,Bail Reform Act -Misd,,,,,,,,,,,,,,,,,,,,,,,,,,,,,,,,,,
CMD,"HAWKINS, LEONARD", 2014 CMD 11676,07/03/2014,Bail Reform Act -Misd,,,,,,,,,,,,,,,,,,,,,,,,,,,,,,,,,,
CMD,"WRIGHT, STEVEN", 2014 CMD 11678,07/03/2014,Poss of a Controlled Substance -Misd,Tampering With Physical Evidence,,,,,,,,,,,,,,,,,,,,,,,,,,,,,,,,,
CMD,"JONES, JENIE D", 2014 CMD 11679,07/03/2014,Poss of a Controlled Substance -Misd,No Permit,,,,,,,,,,,,,,,,,,,,,,,,,,,,,,,,,
CMD,"BANGURA, ABRAHAM", 2014 CMD 11700,07/03/2014,Simple Assault,,,,,,,,,,,,,,,,,,,,,,,,,,,,,,,,,,
CMD,"ENAMORADO, MANUEL", 2014 CMD 11701,07/03/2014,Unlawful Entry,,,,,,,,,,,,,,,,,,,,,,,,,,,,,,,,,,
CMD,"WILLIAMS, BARRINGTON N", 2014 CMD 11702,07/03/2014,Poss of a Controlled Substance -Misd,Operating After Suspension,,,,,,,,,,,,,,,,,,,,,,,,,,,,,,,,,
CMD,"VALASQUES, EDGAR", 2014 CMD 11704,07/03/2014,Unlawful Entry,,,,,,,,,,,,,,,,,,,,,,,,,,,,,,,,,,
CMD,"BOWYER, JAMIE", 2014 CMD 11705,07/03/2014,Poss of a Controlled Substance -Misd,Possession of Drug Paraphernalia,,,,,,,,,,,,,,,,,,,,,,,,,,,,,,,,,
CMD,"BROWN, BRIAN", 2014 CMD 11707,07/03/2014,Theft Second Degree,,,,,,,,,,,,,,,,,,,,,,,,,,,,,,,,,,
CMD,"CRUZ, JOSE", 2014 CMD 11708,07/03/2014,Unlawful Entry,,,,,,,,,,,,,,,,,,,,,,,,,,,,,,,,,,
CMD,"BUCHANAN, JOSEPH", 2014 CMD 11709,07/03/2014,Poss of a Controlled Substance -Misd,No Permit,,,,,,,,,,,,,,,,,,,,,,,,,,,,,,,,,
CMD,"MANCIA, WALTER", 2014 CMD 11711,07/03/2014,Unlawful Entry,,,,,,,,,,,,,,,,,,,,,,,,,,,,,,,,,,
CMD,"MANCIA, WALTER", 2014 CMD 11715,07/03/2014,Bail Reform Act -Misd,,,,,,,,,,,,,,,,,,,,,,,,,,,,,,,,,,
CMD,"CHILDERS, CHRISTOPHER N", 2014 CMD 11716,07/03/2014,Theft Second Degree,,,,,,,,,,,,,,,,,,,,,,,,,,,,,,,,,,
CMD,"CONNALLY, THOMAS", 2014 CMD 11717,07/03/2014,Theft Second Degree,Fraud 2nd Degree (Misd),Theft Second Degree,Fraud 2nd Degree (Misd),Theft Second Degree,Fraud 2nd Degree (Misd),Theft Second Degree,Fraud 2nd Degree (Misd),Theft Second Degree,Fraud 2nd Degree (Misd),,,,,,,,,,,,,,,,,,,,,,,,,
CMD,"EUGENE, STANLEY PARNELL", 2014 CMD 11720,07/03/2014,Destruction of Property less than $1000,Poss of a Controlled Substance -Misd,,,,,,,,,,,,,,,,,,,,,,,,,,,,,,,,,
CMD,"DAVIES, JORDAN", 2014 CMD 11722,07/03/2014,Simple Assault,,,,,,,,,,,,,,,,,,,,,,,,,,,,,,,,,,
CMD,"DOCTEUR, ANGELO", 2014 CMD 11724,07/03/2014,Simple Assault,,,,,,,,,,,,,,,,,,,,,,,,,,,,,,,,,,
CMD,"FOX, CHRISTOPHER S", 2014 CMD 11726,07/03/2014,Poss of a Controlled Substance -Misd,,,,,,,,,,,,,,,,,,,,,,,,,,,,,,,,,,
CMD,"HOLMES, MICHELLE A", 2014 CMD 11729,07/03/2014,Theft Second Degree,Theft Second Degree,,,,,,,,,,,,,,,,,,,,,,,,,,,,,,,,,
CMD,"JULIA, JOHNATHAN", 2014 CMD 11730,07/03/2014,Simple Assault,,,,,,,,,,,,,,,,,,,,,,,,,,,,,,,,,,
CMD,"MUMANZADA, ZOMAI", 2014 CMD 11732,07/03/2014,Threats to Do Bodily Harm -Misd,,,,,,,,,,,,,,,,,,,,,,,,,,,,,,,,,,
CMD,"PETERSON, ALEX R", 2014 CMD 11733,07/03/2014,Theft Second Degree,,,,,,,,,,,,,,,,,,,,,,,,,,,,,,,,,,
CMD,"QUINN, LUCIUS", 2014 CMD 11735,07/03/2014,Simple Assault,Threats to Do Bodily Harm -Misd,,,,,,,,,,,,,,,,,,,,,,,,,,,,,,,,,
CMD,"WASHINGTON, GAYLON", 2014 CMD 11737,07/03/2014,Poss of a Controlled Substance -Misd,Possession of Drug Paraphernalia,LV After Collid Damage,Destruction of Property less than $1000,Destruction of Property less than $1000,Destruction of Property less than $1000,,,,,,,,,,,,,,,,,,,,,,,,,,,,,
CMD,"DAVIS, ARNESIA K", 2014 CMD 11738,07/03/2014,Simple Assault,,,,,,,,,,,,,,,,,,,,,,,,,,,,,,,,,,
CMD,"KEY, ANTHONY", 2014 CMD 11742,07/04/2014,Poss of a Controlled Substance -Misd,,,,,,,,,,,,,,,,,,,,,,,,,,,,,,,,,,
CMD,"GAITHER, TIMOTHY A", 2014 CMD 11743,07/04/2014,Failure to Appear for Citation Release,,,,,,,,,,,,,,,,,,,,,,,,,,,,,,,,,,
CMD,"GAITHER, TIMOTHY A", 2014 CMD 11744,07/04/2014,Theft Second Degree,,,,,,,,,,,,,,,,,,,,,,,,,,,,,,,,,,
CMD,"SPORE, GRETCHEN S", 2014 CMD 11745,07/04/2014,Assault On A Police Officer,,,,,,,,,,,,,,,,,,,,,,,,,,,,,,,,,,
CMD,"TROEN, DANIEL", 2014 CMD 11748,07/04/2014,Simple Assault,Poss of a Controlled Substance -Misd,,,,,,,,,,,,,,,,,,,,,,,,,,,,,,,,,
CMD,"QUINN, MARCUS WILLIAM", 2014 CMD 11749,07/04/2014,Destruction of Property less than $1000,Destruction of Property less than $1000,,,,,,,,,,,,,,,,,,,,,,,,,,,,,,,,,
CMD,"HARSHAW, GERALD", 2014 CMD 11750,07/04/2014,Poss Prohibited Weapon -Other,Simple Assault,Attempted Threats to Do Bodily Harm -Misd,,,,,,,,,,,,,,,,,,,,,,,,,,,,,,,,
CMD,"PINKLETON, DANIEL", 2014 CMD 11751,07/04/2014,Poss Prohibited Weapon,Poss of Open Container of Alcohol/Public Intoxication,,,,,,,,,,,,,,,,,,,,,,,,,,,,,,,,,
CMD,"BENBOW, ROBERT L", 2014 CMD 11752,07/04/2014,Simple Assault,,,,,,,,,,,,,,,,,,,,,,,,,,,,,,,,,,
CMD,"BAKER, JOSE", 2014 CMD 11753,07/04/2014,Poss of a Controlled Substance -Misd,,,,,,,,,,,,,,,,,,,,,,,,,,,,,,,,,,
CMD,"CLAROS, HENRY", 2014 CMD 11754,07/04/2014,Assault On A Police Officer,Poss of a Controlled Substance -Misd,Disorderly Conduct,,,,,,,,,,,,,,,,,,,,,,,,,,,,,,,,
CMD,"LEWIS, MARK", 2014 CMD 11757,07/04/2014,*Attempted Poss of a Controlled Substance -Misd,,,,,,,,,,,,,,,,,,,,,,,,,,,,,,,,,,
CMD,"DONOHUE, KRISTINA", 2014 CMD 11761,07/04/2014,Bail Reform Act -Misd,,,,,,,,,,,,,,,,,,,,,,,,,,,,,,,,,,
CMD,"CUFFEY, LACHE", 2014 CMD 11762,07/04/2014,Poss of a Controlled Substance -Misd,,,,,,,,,,,,,,,,,,,,,,,,,,,,,,,,,,
CMD,"JENKINS, KEITH D", 2014 CMD 11764,07/04/2014,Assault On A Police Officer,,,,,,,,,,,,,,,,,,,,,,,,,,,,,,,,,,
CMD,"MORSON, DELANO", 2014 CMD 11776,07/04/2014,Credit Card Fraud-Misd,,,,,,,,,,,,,,,,,,,,,,,,,,,,,,,,,,
CMD,"DAVIS, VACHELL", 2014 CMD 11777,07/04/2014,Theft Second Degree,,,,,,,,,,,,,,,,,,,,,,,,,,,,,,,,,,
CMD,"FITZGERALD, SHAQUAN", 2014 CMD 11778,07/04/2014,Bail Reform Act -Misd,,,,,,,,,,,,,,,,,,,,,,,,,,,,,,,,,,
CMD,"WEEKS, LARRY W", 2014 CMD 11779,07/04/2014,Poss of a Controlled Substance -Misd,Poss of an Open Container of Alcohol in a Vehicle,,,,,,,,,,,,,,,,,,,,,,,,,,,,,,,,,
CMD,"WELDON, SHAWN ANTION", 2014 CMD 11781,07/04/2014,Poss of a Controlled Substance -Misd,,,,,,,,,,,,,,,,,,,,,,,,,,,,,,,,,,
CMD,"JACKSON, KERI L", 2014 CMD 11782,07/04/2014,Simple Assault,Attempted Threats to Do Bodily Harm -Misd,Attempted Poss Prohibited Weapon,Destruction of Property less than $1000,,,,,,,,,,,,,,,,,,,,,,,,,,,,,,,
CMD,"MCRAE, STEPHANIE D", 2014 CMD 11788,07/05/2014,Theft Second Degree,,,,,,,,,,,,,,,,,,,,,,,,,,,,,,,,,,
CMD,"TURAT, AMMAND", 2014 CMD 11789,07/05/2014,Unlawful Entry,,,,,,,,,,,,,,,,,,,,,,,,,,,,,,,,,,
CMD,"MAHAN, MONTIQUE S", 2014 CMD 11790,07/05/2014,Simple Assault,,,,,,,,,,,,,,,,,,,,,,,,,,,,,,,,,,
CMD,"GREENE, ROBERT", 2014 CMD 11792,07/05/2014,Poss of a Controlled Substance -Misd,,,,,,,,,,,,,,,,,,,,,,,,,,,,,,,,,,
CMD,"MITCHELL, MARQUIS", 2014 CMD 11796,07/05/2014,Threats to Do Bodily Harm -Misd,,,,,,,,,,,,,,,,,,,,,,,,,,,,,,,,,,
CMD,"BOYCE, MACEO", 2014 CMD 11797,07/05/2014,Poss of a Controlled Substance -Misd,,,,,,,,,,,,,,,,,,,,,,,,,,,,,,,,,,
CMD,"LOVE, WENDELL", 2014 CMD 11798,07/05/2014,Simple Assault,Theft Second Degree,Simple Assault,,,,,,,,,,,,,,,,,,,,,,,,,,,,,,,,
CMD,"CARUTH, DAVID DARREN", 2014 CMD 11800,07/05/2014,Simple Assault,Attempted Poss Prohibited Weapon,,,,,,,,,,,,,,,,,,,,,,,,,,,,,,,,,
CMD,"MANAGO, JAMES HAI-NAH", 2014 CMD 11801,07/05/2014,Simple Assault,Attempted Poss Prohibited Weapon,Attempted Poss Prohibited Weapon,Threats to Do Bodily Harm -Misd,,,,,,,,,,,,,,,,,,,,,,,,,,,,,,,
CMD,"MCRAE, STEPHANIE D", 2014 CMD 11804,07/05/2014,Failure to Appear for Citation Release,,,,,,,,,,,,,,,,,,,,,,,,,,,,,,,,,,
CMD,"SHELTON, CHRISTOPHER L", 2014 CMD 11807,07/05/2014,Failure to Appear for Citation Release,,,,,,,,,,,,,,,,,,,,,,,,,,,,,,,,,,
CMD,"MCGOVERN, CASSANDRA A", 2014 CMD 11809,07/05/2014,Sexual Solicitation,,,,,,,,,,,,,,,,,,,,,,,,,,,,,,,,,,
CMD,"HARRIS, BRIDGETTE", 2014 CMD 11810,07/05/2014,Simple Assault,,,,,,,,,,,,,,,,,,,,,,,,,,,,,,,,,,
CMD,"CLYBURN, DEDRICA", 2014 CMD 11814,07/05/2014,Simple Assault,Simple Assault,Attempted Poss Prohibited Weapon,,,,,,,,,,,,,,,,,,,,,,,,,,,,,,,,
CMD,"CHLOE, STEPHANIE", 2014 CMD 11815,07/05/2014,Simple Assault,Attempted Threats to Do Bodily Harm -Misd,Simple Assault,Attempted Poss Prohibited Weapon,,,,,,,,,,,,,,,,,,,,,,,,,,,,,,,
CMD,"WILLIAMS, JABIOUS", 2014 CMD 11817,07/05/2014,Theft Second Degree,Threats to Do Bodily Harm -Misd,Possession of BB Gun,,,,,,,,,,,,,,,,,,,,,,,,,,,,,,,,
CMD,"SQUIREWELL, MATTHEW D", 2014 CMD 11819,07/07/2014,Assault On A Police Officer,Threats to Do Bodily Harm -Misd,Poss Prohibited Weapon,,,,,,,,,,,,,,,,,,,,,,,,,,,,,,,,
CMD,"ASHFORD, CEDRIC", 2014 CMD 11827,07/07/2014,Theft Second Degree,,,,,,,,,,,,,,,,,,,,,,,,,,,,,,,,,,
CMD,"BLAIR, KENNY O", 2014 CMD 11830,07/07/2014,Unlawful Entry,Disorderly Conduct,,,,,,,,,,,,,,,,,,,,,,,,,,,,,,,,,
CMD,"BRIDGES, DELONTE W", 2014 CMD 11831,07/07/2014,Poss W/I to Dist Marijuana-Misd,Unlawful Entry,,,,,,,,,,,,,,,,,,,,,,,,,,,,,,,,,
CMD,"BURRIS, GREGORY", 2014 CMD 11832,07/07/2014,Poss of a Controlled Substance -Misd (NO GERNSTEIN),,,,,,,,,,,,,,,,,,,,,,,,,,,,,,,,,,
CMD,"DICKSON, DAVID", 2014 CMD 11833,07/07/2014,Unlawful Entry,,,,,,,,,,,,,,,,,,,,,,,,,,,,,,,,,,
CMD,"DOWERY, THOMAS", 2014 CMD 11834,07/07/2014,Theft Second Degree,,,,,,,,,,,,,,,,,,,,,,,,,,,,,,,,,,
CMD,"HALMON, ARTHUR NMN", 2014 CMD 11835,07/07/2014,Shoplifting,,,,,,,,,,,,,,,,,,,,,,,,,,,,,,,,,,
CMD,"IAZ, MOKHTAR", 2014 CMD 11836,07/07/2014,Simple Assault,Disorderly Conduct,,,,,,,,,,,,,,,,,,,,,,,,,,,,,,,,,
CMD,"MOORE, JOSHUA", 2014 CMD 11837,07/07/2014,Poss of a Controlled Substance -Misd,Poss of Open Container of Alcohol/Public Intoxication,,,,,,,,,,,,,,,,,,,,,,,,,,,,,,,,,
CMD,"WINSKILL, JONATHAN", 2014 CMD 11838,07/07/2014,Poss of a Controlled Substance -Misd,,,,,,,,,,,,,,,,,,,,,,,,,,,,,,,,,,
CMD,"FLEMING, MICHAEL C", 2014 CMD 11839,07/07/2014,Unlawful Entry,,,,,,,,,,,,,,,,,,,,,,,,,,,,,,,,,,
CMD,"FUENTES, KEVIN ROMERO", 2014 CMD 11847,07/07/2014,Poss of a Controlled Substance -Misd,Possession of Drug Paraphernalia,Poss of an Open Container of Alcohol in a Vehicle,,,,,,,,,,,,,,,,,,,,,,,,,,,,,,,,
CMD,"PENN, TERRELL", 2014 CMD 11850,07/07/2014,Possession of Drug Paraphernalia,Poss of a Controlled Substance -Misd,,,,,,,,,,,,,,,,,,,,,,,,,,,,,,,,,
CMD,"MOORE, DANIEL A", 2014 CMD 11852,07/07/2014,Assault On A Police Officer,,,,,,,,,,,,,,,,,,,,,,,,,,,,,,,,,,
CMD,"WICKS, KEITH ANTONIO", 2014 CMD 11855,07/07/2014,Assault On A Police Officer,,,,,,,,,,,,,,,,,,,,,,,,,,,,,,,,,,
CMD,"CARRINGTON, AQUIL", 2014 CMD 11858,07/07/2014,Shoplifting,,,,,,,,,,,,,,,,,,,,,,,,,,,,,,,,,,
CMD,"WALTON, JAMES ALTON", 2014 CMD 11859,07/07/2014,Poss of a Controlled Substance -Misd,,,,,,,,,,,,,,,,,,,,,,,,,,,,,,,,,,
CMD,"SCOPELITIS, GREGORY", 2014 CMD 11860,07/07/2014,Destruction of Property less than $1000,,,,,,,,,,,,,,,,,,,,,,,,,,,,,,,,,,
CMD,"WHITAKER, KEISHA N", 2014 CMD 11862,07/07/2014,Simple Assault,Attempted Poss Prohibited Weapon,Attempted Threats to Do Bodily Harm -Misd,,,,,,,,,,,,,,,,,,,,,,,,,,,,,,,,
CMD,"JONES, MARQUELL R", 2014 CMD 11864,07/07/2014,Simple Assault,,,,,,,,,,,,,,,,,,,,,,,,,,,,,,,,,,
CMD,"DEWS, IVORY", 2014 CMD 11868,07/07/2014,Theft Second Degree,,,,,,,,,,,,,,,,,,,,,,,,,,,,,,,,,,
CMD,"STEVENSON, JEREMY LORENZO", 2014 CMD 11869,07/07/2014,Assault On A Police Officer,Assault On A Police Officer,Assault On A Police Officer,,,,,,,,,,,,,,,,,,,,,,,,,,,,,,,,
CMD,"BUTLER, KENYATTA", 2014 CMD 11872,07/07/2014,Threats to Do Bodily Harm -Misd,Threats to Do Bodily Harm -Misd,,,,,,,,,,,,,,,,,,,,,,,,,,,,,,,,,
CMD,"MALLOY, DAJON", 2014 CMD 11873,07/07/2014,Receiving Stolen Property-Misd,Simple Assault,,,,,,,,,,,,,,,,,,,,,,,,,,,,,,,,,
CMD,"GROOMS, MALCOLM D", 2014 CMD 11874,07/07/2014,Simple Assault,,,,,,,,,,,,,,,,,,,,,,,,,,,,,,,,,,
CMD,"FOSTER, CRYSTAL MONIQUE", 2014 CMD 11875,07/07/2014,Simple Assault,Destruction of Property less than $1000,Contempt - Condition of Release Violation,Destruction of Property less than $1000,Attempted Poss Prohibited Weapon,Simple Assault,Simple Assault,Poss Prohibited Weapon,,,,,,,,,,,,,,,,,,,,,,,,,,,
CMD,"MARTIN, DERIC A", 2014 CMD 11876,07/07/2014,Attempted Threats to Do Bodily Harm -Misd,Unlawful Entry,,,,,,,,,,,,,,,,,,,,,,,,,,,,,,,,,
CMD,"DOBBINS, WILLIAM JAY", 2014 CMD 11879,07/07/2014,Simple Assault,,,,,,,,,,,,,,,,,,,,,,,,,,,,,,,,,,
CMD,"MCDONNELL, VERNON", 2014 CMD 11882,07/07/2014,Theft Second Degree,,,,,,,,,,,,,,,,,,,,,,,,,,,,,,,,,,
CMD,"STATON, SHON R", 2014 CMD 11885,07/07/2014,Fleeing - Misdemeanor,,,,,,,,,,,,,,,,,,,,,,,,,,,,,,,,,,
CMD,"POMPER, JUNIOR", 2014 CMD 11886,07/07/2014,Destruction of Property less than $1000,,,,,,,,,,,,,,,,,,,,,,,,,,,,,,,,,,
CMD,"BORUM, DEANDRE", 2014 CMD 11887,07/07/2014,Attempted Taking Property W/O Right,,,,,,,,,,,,,,,,,,,,,,,,,,,,,,,,,,
CMD,"WILLIAMS, JAMES L", 2014 CMD 11888,07/07/2014,Attempted Deceptive Labeling - Felony,,,,,,,,,,,,,,,,,,,,,,,,,,,,,,,,,,
CMD,"UGWUZO, IKECHI", 2014 CMD 11903,07/08/2014,Receiving Stolen Property-Misd,,,,,,,,,,,,,,,,,,,,,,,,,,,,,,,,,,
CMD,"RIDDICK, KENNETH", 2014 CMD 11906,07/08/2014,Destruction of Property less than $1000,,,,,,,,,,,,,,,,,,,,,,,,,,,,,,,,,,
CMD,"JOYNER, COREY", 2014 CMD 11914,07/08/2014,Attempted Threats to Do Bodily Harm -Misd,Unlawful Entry,Attempted Threats to Do Bodily Harm -Misd,Attempted Threats to Do Bodily Harm -Misd,,,,,,,,,,,,,,,,,,,,,,,,,,,,,,,
CMD,"LIRINO, WILSON", 2014 CMD 11922,07/08/2014,Theft Second Degree,,,,,,,,,,,,,,,,,,,,,,,,,,,,,,,,,,
CMD,"GLOVER, KATRINA B", 2014 CMD 11924,07/08/2014,Threats to Do Bodily Harm -Misd,,,,,,,,,,,,,,,,,,,,,,,,,,,,,,,,,,
CMD,"CARTER, TAMIKA", 2014 CMD 11926,07/08/2014,Simple Assault,Poss Prohibited Weapon,,,,,,,,,,,,,,,,,,,,,,,,,,,,,,,,,
CMD,"CARROLL, ANTONIO DELMAR", 2014 CMD 11927,07/08/2014,Bail Reform Act -Misd,,,,,,,,,,,,,,,,,,,,,,,,,,,,,,,,,,
CMD,"CAGLE, HOWARD EVERETT", 2014 CMD 11929,07/08/2014,Poss of a Controlled Substance -Misd,,,,,,,,,,,,,,,,,,,,,,,,,,,,,,,,,,
CMD,"GLOVER, ANTWOINE ANTONIO", 2014 CMD 11930,07/08/2014,Tampering with a Detection Device,,,,,,,,,,,,,,,,,,,,,,,,,,,,,,,,,,
CMD,"BENTON, CARLOS N", 2014 CMD 11931,07/08/2014,Unlawful Entry,,,,,,,,,,,,,,,,,,,,,,,,,,,,,,,,,,
CMD,"BRAGG, EDWARD J", 2014 CMD 11933,07/08/2014,Threats to Do Bodily Harm -Misd,,,,,,,,,,,,,,,,,,,,,,,,,,,,,,,,,,
CMD,"BENDER, HERBERT LAKEM", 2014 CMD 11934,07/08/2014,Destruction of Property less than $1000,Unlawful Entry of a Motor Vehicle,Theft Second Degree,,,,,,,,,,,,,,,,,,,,,,,,,,,,,,,,
CMD,"TWEEDY, STEPHEN", 2014 CMD 11951,07/08/2014,Simple Assault,,,,,,,,,,,,,,,,,,,,,,,,,,,,,,,,,,
CMD,"ROBINSON, DOVEY", 2014 CMD 11952,07/08/2014,Destruction of Property less than $1000,,,,,,,,,,,,,,,,,,,,,,,,,,,,,,,,,,
CMD,"JEWELL, DANNY", 2014 CMD 11957,07/09/2014,Unlawful Entry,,,,,,,,,,,,,,,,,,,,,,,,,,,,,,,,,,
CMD,"BATTLE, TINA", 2014 CMD 11963,07/09/2014,Theft Second Degree,,,,,,,,,,,,,,,,,,,,,,,,,,,,,,,,,,
CMD,"BURNS, MATTHEW", 2014 CMD 11964,07/09/2014,Attempted Threats to Do Bodily Harm -Misd Bias-Related (Hate) Crime,Attempted Threats to Do Bodily Harm -Misd,Attempted Threats to Do Bodily Harm -Misd,,,,,,,,,,,,,,,,,,,,,,,,,,,,,,,,
CMD,"PERRY, REGINALD", 2014 CMD 11965,07/09/2014,Attempted Poss Prohibited Weapon,Gambling,,,,,,,,,,,,,,,,,,,,,,,,,,,,,,,,,
CMD,"WILKINSON, ANTHONY J", 2014 CMD 11966,07/09/2014,Simple Assault,Threats to Do Bodily Harm -Misd,Attempted Poss Prohibited Weapon,,,,,,,,,,,,,,,,,,,,,,,,,,,,,,,,
CMD,"FANIZZI, ITALIA M", 2014 CMD 11968,07/09/2014,Sexual Solicitation,,,,,,,,,,,,,,,,,,,,,,,,,,,,,,,,,,
CMD,"VAUGHN, ANDRE TYRONE", 2014 CMD 11969,07/09/2014,Poss of a Controlled Substance -Misd,Poss of Open Container of Alcohol/Public Intoxication,,,,,,,,,,,,,,,,,,,,,,,,,,,,,,,,,
CMD,"FELDER, HERMAN", 2014 CMD 11970,07/09/2014,Unlawful Entry,,,,,,,,,,,,,,,,,,,,,,,,,,,,,,,,,,
CMD,"BOYD, LAKIA M", 2014 CMD 11972,07/09/2014,Destruction of Property less than $1000,,,,,,,,,,,,,,,,,,,,,,,,,,,,,,,,,,
CMD,"SINGLETON, MICHAEL LLOYD", 2014 CMD 11973,07/09/2014,Bail Reform Act -Misd,,,,,,,,,,,,,,,,,,,,,,,,,,,,,,,,,,
CMD,"WASHINGTON, ANTHONY LAMONT", 2014 CMD 11974,07/09/2014,Poss of a Controlled Substance -Misd,Poss of a Controlled Substance -Misd,Unlawful Poss Ammunition,Possession of Unregistered Firearm/Unlawful Possession of a Firearm or Destructive Device,Possession of Drug Paraphernalia,,,,,,,,,,,,,,,,,,,,,,,,,,,,,,
CMD,"PARKER, KEVIN D", 2014 CMD 11977,07/09/2014,Theft Second Degree,,,,,,,,,,,,,,,,,,,,,,,,,,,,,,,,,,
CMD,"KELLY, TERELL A", 2014 CMD 11978,07/09/2014,Tampering with a Detection Device,(NO GERNSTEIN),,,,,,,,,,,,,,,,,,,,,,,,,,,,,,,,,
CMD,"KELLY, DONTE ANTONIO", 2014 CMD 11979,07/09/2014,Simple Assault,,,,,,,,,,,,,,,,,,,,,,,,,,,,,,,,,,
CMD,"BYNUM, ROBERT", 2014 CMD 11986,07/09/2014,Poss of a Controlled Substance -Misd,,,,,,,,,,,,,,,,,,,,,,,,,,,,,,,,,,
CMD,"MCCANTS, DANIEL", 2014 CMD 11989,07/09/2014,Sex Abuse- Misd,,,,,,,,,,,,,,,,,,,,,,,,,,,,,,,,,,
CMD,"BAKER, MICHAEL ANTONIO", 2014 CMD 11990,07/09/2014,Bail Reform Act -Misd,,,,,,,,,,,,,,,,,,,,,,,,,,,,,,,,,,
CMD,"WALTON-ROGERS, ERICA", 2014 CMD 11991,07/09/2014,Bail Reform Act -Misd,,,,,,,,,,,,,,,,,,,,,,,,,,,,,,,,,,
CMD,"WALTON-ROGERS, ERICA NMN", 2014 CMD 11992,07/09/2014,Assault On A Police Officer,Assault On A Police Officer,Assault On A Police Officer,Assault On A Police Officer,Assault On A Police Officer,Destruction of Property less than $1000,Assault On A Police Officer,,,,,,,,,,,,,,,,,,,,,,,,,,,,
CMD,"WALKER, TATAYANA", 2014 CMD 11993,07/09/2014,Bail Reform Act -Misd,,,,,,,,,,,,,,,,,,,,,,,,,,,,,,,,,,
CMD,"SALGUERO, MEJIA", 2014 CMD 11996,07/09/2014,Simple Assault,Poss Prohibited Weapon,,,,,,,,,,,,,,,,,,,,,,,,,,,,,,,,,
CMD,"JENKINS, ANTOINETTE", 2014 CMD 11997,07/09/2014,Bail Reform Act -Misd,,,,,,,,,,,,,,,,,,,,,,,,,,,,,,,,,,
CMD,"CONVINGTON, MICHAEL D", 2014 CMD 11998,07/09/2014,Failure to Appear for Citation Release,,,,,,,,,,,,,,,,,,,,,,,,,,,,,,,,,,
CMD,"JONES, TONY", 2014 CMD 12005,07/09/2014,Failure to Appear for Citation Release,,,,,,,,,,,,,,,,,,,,,,,,,,,,,,,,,,
CMD,"ROACH, DOCK", 2014 CMD 12008,07/09/2014,Bail Reform Act -Misd,,,,,,,,,,,,,,,,,,,,,,,,,,,,,,,,,,
CMD,"ALVAREZ, BRIANA ROSE", 2014 CMD 12026,07/10/2014,Poss of a Controlled Substance -Misd,,,,,,,,,,,,,,,,,,,,,,,,,,,,,,,,,,
CMD,"BAKER, DONNELL A", 2014 CMD 12027,07/10/2014,Poss of a Controlled Substance -Misd,,,,,,,,,,,,,,,,,,,,,,,,,,,,,,,,,,
CMD,"HILL, CARLOS W", 2014 CMD 12028,07/10/2014,Theft Second Degree,,,,,,,,,,,,,,,,,,,,,,,,,,,,,,,,,,
CMD,"SHELTON, CRAIG A", 2014 CMD 12030,07/10/2014,Threats to Do Bodily Harm -Misd,,,,,,,,,,,,,,,,,,,,,,,,,,,,,,,,,,
CMD,"MONDESIRE, LAMOY", 2014 CMD 12031,07/10/2014,Receiving Stolen Property-Misd,,,,,,,,,,,,,,,,,,,,,,,,,,,,,,,,,,
CMD,"DARLINGTON, LIN A", 2014 CMD 12032,07/10/2014,Simple Assault,,,,,,,,,,,,,,,,,,,,,,,,,,,,,,,,,,
CMD,"BANKS, JUJUAN", 2014 CMD 12033,07/10/2014,Poss of a Controlled Substance -Misd,,,,,,,,,,,,,,,,,,,,,,,,,,,,,,,,,,
CMD,"MOWER, WHITTNEY Q", 2014 CMD 12034,07/10/2014,Sexual Solicitation,,,,,,,,,,,,,,,,,,,,,,,,,,,,,,,,,,
CMD,"EDWARDS, RICKY R", 2014 CMD 12035,07/10/2014,Bail Reform Act -Misd,,,,,,,,,,,,,,,,,,,,,,,,,,,,,,,,,,
CMD,"EDWARDS, RICKY R", 2014 CMD 12036,07/10/2014,Contempt - Condition of Release Violation,,,,,,,,,,,,,,,,,,,,,,,,,,,,,,,,,,
CMD,"WINSTON, ERIK F", 2014 CMD 12037,07/10/2014,Assault On A Police Officer,Fleeing - Misdemeanor,,,,,,,,,,,,,,,,,,,,,,,,,,,,,,,,,
CMD,"BARNES, NELSON B", 2014 CMD 12038,07/10/2014,Threats to Do Bodily Harm -Misd,Poss Prohibited Weapon,,,,,,,,,,,,,,,,,,,,,,,,,,,,,,,,,
CMD,"BINION, MASON", 2014 CMD 12039,07/10/2014,Poss of a Controlled Substance -Misd,,,,,,,,,,,,,,,,,,,,,,,,,,,,,,,,,,
CMD,"DUDLEY, NAAMAN ANDREW", 2014 CMD 12040,07/10/2014,Unlawful Entry,,,,,,,,,,,,,,,,,,,,,,,,,,,,,,,,,,
CMD,"WILLIAMS, LYNN", 2014 CMD 12042,07/10/2014,Fleeing - Misdemeanor,Poss of a Controlled Substance -Misd,Poss of an Open Container of Alcohol in a Vehicle,No Permit,Operating Unregistered Motor Vehicle,,,,,,,,,,,,,,,,,,,,,,,,,,,,,,
CMD,"IRVING, LEONITE", 2014 CMD 12043,07/10/2014,Contempt - Condition of Release Violation,,,,,,,,,,,,,,,,,,,,,,,,,,,,,,,,,,
CMD,"FLEMING, MICHELLE", 2014 CMD 12044,07/10/2014,Simple Assault,Poss Prohibited Weapon,,,,,,,,,,,,,,,,,,,,,,,,,,,,,,,,,
CMD,"COOK, KEYONNAH", 2014 CMD 12046,07/10/2014,Theft Second Degree,,,,,,,,,,,,,,,,,,,,,,,,,,,,,,,,,,
CMD,"JOHNSON, MICHAEL K", 2014 CMD 12048,07/10/2014,Theft Second Degree,,,,,,,,,,,,,,,,,,,,,,,,,,,,,,,,,,
CMD,"BOYKINS, RICHARD", 2014 CMD 12050,07/10/2014,Poss of a Controlled Substance -Misd,Poss of a Controlled Substance -Misd,Poss of a Controlled Substance -Misd,,,,,,,,,,,,,,,,,,,,,,,,,,,,,,,,
CMD,"BELL, MARTI", 2014 CMD 12052,07/10/2014,Assault On A Police Officer,,,,,,,,,,,,,,,,,,,,,,,,,,,,,,,,,,
CMD,"MOORE, JOANNE", 2014 CMD 12054,07/10/2014,Poss of a Controlled Substance -Misd,Disorderly-Urinating,,,,,,,,,,,,,,,,,,,,,,,,,,,,,,,,,
CMD,"CLOYD, GREGORY", 2014 CMD 12057,07/10/2014,Poss of a Controlled Substance -Misd,,,,,,,,,,,,,,,,,,,,,,,,,,,,,,,,,,
CMD,"CONEY, OLONZIE", 2014 CMD 12059,07/10/2014,Bail Reform Act -Misd,,,,,,,,,,,,,,,,,,,,,,,,,,,,,,,,,,
CMD,"CRAWFORD, TYRONE L", 2014 CMD 12060,07/10/2014,Unlawful Entry of a Motor Vehicle,Unlawful Entry of a Motor Vehicle,Theft Second Degree,,,,,,,,,,,,,,,,,,,,,,,,,,,,,,,,
CMD,"EASTER, DEMETRI", 2014 CMD 12061,07/10/2014,Attempted Poss W/I to Dist Marijuana-Misd,Poss Drug Paraphernalia W/I to Deliver &amp; Sell,,,,,,,,,,,,,,,,,,,,,,,,,,,,,,,,,
CMD,"PLIEGO, FRANCISCO", 2014 CMD 12065,07/10/2014,Bail Reform Act -Misd,,,,,,,,,,,,,,,,,,,,,,,,,,,,,,,,,,
CMD,"SIMMONS, CLIFTON M", 2014 CMD 12066,07/10/2014,Threats to Do Bodily Harm -Misd,,,,,,,,,,,,,,,,,,,,,,,,,,,,,,,,,,
CMD,"WALLS, JESSICA", 2014 CMD 12067,07/10/2014,Bail Reform Act -Misd,,,,,,,,,,,,,,,,,,,,,,,,,,,,,,,,,,
CMD,"HOUSER, RAMON", 2014 CMD 12068,07/10/2014,Bail Reform Act -Misd,,,,,,,,,,,,,,,,,,,,,,,,,,,,,,,,,,
CMD,"GASKINS, SEAN D", 2014 CMD 12069,07/10/2014,Unlawful Entry,,,,,,,,,,,,,,,,,,,,,,,,,,,,,,,,,,
CMD,"SHANE, MICHAEL GREGORY", 2014 CMD 12070,07/10/2014,Bail Reform Act -Misd,,,,,,,,,,,,,,,,,,,,,,,,,,,,,,,,,,
CMD,"O'BRIEN, ALLEN", 2014 CMD 12072,07/10/2014,Assault On A Police Officer,Assault On A Police Officer,,,,,,,,,,,,,,,,,,,,,,,,,,,,,,,,,
CMD,"MATTAMMAD, JAMI NMN", 2014 CMD 12073,07/10/2014,Attempted Poss Prohibited Weapon,Poss of an Open Container of Alcohol in a Vehicle,,,,,,,,,,,,,,,,,,,,,,,,,,,,,,,,,
CMD,"MACK, DELONTE JAMES", 2014 CMD 12074,07/10/2014,Attempted Unauthorized Use of A Vehicle,No Permit,,,,,,,,,,,,,,,,,,,,,,,,,,,,,,,,,
CMD,"DAVIS, DEBBIE", 2014 CMD 12083,07/11/2014,Theft Second Degree,,,,,,,,,,,,,,,,,,,,,,,,,,,,,,,,,,
CMD,"DODDS, GREGORY", 2014 CMD 12084,07/11/2014,Sexual Solicitation,,,,,,,,,,,,,,,,,,,,,,,,,,,,,,,,,,
CMD,"JONES, CHRISTOPHER", 2014 CMD 12087,07/11/2014,Poss of a Controlled Substance -Misd,,,,,,,,,,,,,,,,,,,,,,,,,,,,,,,,,,
CMD,"JONES, DESHAY", 2014 CMD 12088,07/11/2014,Simple Assault,,,,,,,,,,,,,,,,,,,,,,,,,,,,,,,,,,
CMD,"JONES, PATRICIA", 2014 CMD 12089,07/11/2014,Sexual Solicitation,,,,,,,,,,,,,,,,,,,,,,,,,,,,,,,,,,
CMD,"LEMUS, JOSE CARLOS", 2014 CMD 12090,07/11/2014,Shoplifting,,,,,,,,,,,,,,,,,,,,,,,,,,,,,,,,,,
CMD,"LEWIS, GENEVA V", 2014 CMD 12091,07/11/2014,Poss of a Controlled Substance -Misd,,,,,,,,,,,,,,,,,,,,,,,,,,,,,,,,,,
CMD,"OWENS, OREN", 2014 CMD 12092,07/11/2014,Simple Assault,,,,,,,,,,,,,,,,,,,,,,,,,,,,,,,,,,
CMD,"REDMAN, ANTIONE M", 2014 CMD 12094,07/11/2014,Poss of a Controlled Substance -Misd,,,,,,,,,,,,,,,,,,,,,,,,,,,,,,,,,,
CMD,"WRIGHT, WILLIE", 2014 CMD 12095,07/11/2014,Unlawful Entry,,,,,,,,,,,,,,,,,,,,,,,,,,,,,,,,,,
CMD,"ROBINSON, MARTAN", 2014 CMD 12096,07/11/2014,Theft Second Degree,,,,,,,,,,,,,,,,,,,,,,,,,,,,,,,,,,
CMD,"WOOD, MARCUS D", 2014 CMD 12097,07/11/2014,Theft Second Degree,,,,,,,,,,,,,,,,,,,,,,,,,,,,,,,,,,
CMD,"THOMAS, AHKMADU", 2014 CMD 12098,07/11/2014,Poss of a Controlled Substance -Misd,,,,,,,,,,,,,,,,,,,,,,,,,,,,,,,,,,
CMD,"WILLIAMS, MARC C", 2014 CMD 12099,07/11/2014,Poss of a Controlled Substance -Misd,Possession of Drug Paraphernalia,,,,,,,,,,,,,,,,,,,,,,,,,,,,,,,,,
CMD,"ANDERSON, MICHAEL E", 2014 CMD 12100,07/11/2014,Poss of a Controlled Substance -Misd,Poss of Open Container of Alcohol/Public Intoxication,,,,,,,,,,,,,,,,,,,,,,,,,,,,,,,,,
CMD,"BOWMAN, SAMMY", 2014 CMD 12101,07/11/2014,Unlawful Entry,,,,,,,,,,,,,,,,,,,,,,,,,,,,,,,,,,
CMD,"VILLALTA CARHUAPO, EDGARDO FRAN", 2014 CMD 12102,07/11/2014,Theft Second Degree,,,,,,,,,,,,,,,,,,,,,,,,,,,,,,,,,,
CMD,"CUMMINGS, JASON", 2014 CMD 12103,07/11/2014,Sexual Solicitation,,,,,,,,,,,,,,,,,,,,,,,,,,,,,,,,,,
CMD,"CUNNINGHAM, STEPHANY M", 2014 CMD 12104,07/11/2014,Poss of a Controlled Substance -Misd,,,,,,,,,,,,,,,,,,,,,,,,,,,,,,,,,,
CMD,"FLOYD, MARQUIS", 2014 CMD 12105,07/11/2014,Poss of a Controlled Substance -Misd,,,,,,,,,,,,,,,,,,,,,,,,,,,,,,,,,,
CMD,"WADE, CLEMENT EDWARD", 2014 CMD 12106,07/11/2014,Simple Assault,,,,,,,,,,,,,,,,,,,,,,,,,,,,,,,,,,
CMD,"GEORGE, NEMIAH", 2014 CMD 12107,07/11/2014,Poss of a Controlled Substance -Misd,Possession of Drug Paraphernalia,,,,,,,,,,,,,,,,,,,,,,,,,,,,,,,,,
CMD,"HARRISON, DAVELYN", 2014 CMD 12109,07/11/2014,Poss of a Controlled Substance -Misd,,,,,,,,,,,,,,,,,,,,,,,,,,,,,,,,,,
CMD,"TRAN, VIET H", 2014 CMD 12110,07/11/2014,Theft Second Degree,,,,,,,,,,,,,,,,,,,,,,,,,,,,,,,,,,
CMD,"THOMAS, MARK D", 2014 CMD 12111,07/11/2014,Sexual Solicitation,,,,,,,,,,,,,,,,,,,,,,,,,,,,,,,,,,
CMD,"THOMAS, IRVING N", 2014 CMD 12112,07/11/2014,Theft Second Degree,,,,,,,,,,,,,,,,,,,,,,,,,,,,,,,,,,
CMD,"PETERS, GREGORY M", 2014 CMD 12113,07/11/2014,Poss of a Controlled Substance -Misd,Poss of a Controlled Substance -Misd,,,,,,,,,,,,,,,,,,,,,,,,,,,,,,,,,
CMD,"MOORE, ELIZABETH", 2014 CMD 12114,07/11/2014,Simple Assault,,,,,,,,,,,,,,,,,,,,,,,,,,,,,,,,,,
CMD,"FORD, QUINTIN", 2014 CMD 12115,07/11/2014,Simple Assault,,,,,,,,,,,,,,,,,,,,,,,,,,,,,,,,,,
CMD,"TERRY, GRADY", 2014 CMD 12116,07/11/2014,Sexual Solicitation,,,,,,,,,,,,,,,,,,,,,,,,,,,,,,,,,,
CMD,"WOODARD, RYAN T", 2014 CMD 12117,07/11/2014,Simple Assault,,,,,,,,,,,,,,,,,,,,,,,,,,,,,,,,,,
CMD,"MCKNIGHT, SHERRY J", 2014 CMD 12118,07/11/2014,Theft Second Degree,,,,,,,,,,,,,,,,,,,,,,,,,,,,,,,,,,
CMD,"ANTHONY, ISAAC", 2014 CMD 12119,07/11/2014,Poss of a Controlled Substance -Misd,,,,,,,,,,,,,,,,,,,,,,,,,,,,,,,,,,
CMD,"DAVIS, ANTHONY", 2014 CMD 12120,07/11/2014,Poss of a Controlled Substance -Misd,,,,,,,,,,,,,,,,,,,,,,,,,,,,,,,,,,
CMD,"DERVIN, CRYSTAL S", 2014 CMD 12121,07/11/2014,Simple Assault,Threats to Do Bodily Harm -Misd,,,,,,,,,,,,,,,,,,,,,,,,,,,,,,,,,
CMD,"GRAY, TONIA", 2014 CMD 12122,07/11/2014,Theft Second Degree,,,,,,,,,,,,,,,,,,,,,,,,,,,,,,,,,,
