type,person,number,date,charge_1,charge_2,charge_3,charge_4,charge_5,charge_6,charge_7,charge_8,charge_9,charge_10,charge_11,charge_12,charge_13,charge_14,charge_15,charge_16,charge_17,charge_18,charge_19,charge_20,charge_21,charge_22,charge_23,charge_24,charge_25,charge_26,charge_27,charge_28,charge_29,charge_30,charge_31,charge_32,charge_33,charge_34,charge_35
CDC,"MURPHY, ANTHONY", 2004 CDC 1,01/01/2004,,,,,,,,,,,,,,,,,,,,,,,,,,,,,,,,,,,
CDC,"WILLIAMS, JOSEPH T", 2004 CDC 2,01/01/2004,,,,,,,,,,,,,,,,,,,,,,,,,,,,,,,,,,,
CDC,"MALLOY, ERICA", 2004 CDC 3,01/01/2004,,,,,,,,,,,,,,,,,,,,,,,,,,,,,,,,,,,
CDC,"SMITH, DERRICK", 2004 CDC 4,01/01/2004,,,,,,,,,,,,,,,,,,,,,,,,,,,,,,,,,,,
CDC,"GRUNWALD, KURT Z", 2004 CDC 6,01/02/2004,,,,,,,,,,,,,,,,,,,,,,,,,,,,,,,,,,,
CDC,"WINGATE, SAMUEL", 2004 CDC 7,01/02/2004,,,,,,,,,,,,,,,,,,,,,,,,,,,,,,,,,,,
CDC,"LYNCH, SAMSON", 2004 CDC 8,01/02/2004,,,,,,,,,,,,,,,,,,,,,,,,,,,,,,,,,,,
CDC,"FOBBS, LINWOOD", 2004 CDC 10,01/02/2004,,,,,,,,,,,,,,,,,,,,,,,,,,,,,,,,,,,
CDC,"BURTON, ANDREW", 2004 CDC 11,01/02/2004,,,,,,,,,,,,,,,,,,,,,,,,,,,,,,,,,,,
CDC,"CLARK, PAUL R", 2004 CDC 12,01/03/2004,,,,,,,,,,,,,,,,,,,,,,,,,,,,,,,,,,,
CDC,"ROSS, ADRIENNE R", 2004 CDC 13,01/03/2004,,,,,,,,,,,,,,,,,,,,,,,,,,,,,,,,,,,
CDC,"KARALES, SUZANNE", 2004 CDC 14,01/02/2004,,,,,,,,,,,,,,,,,,,,,,,,,,,,,,,,,,,
CDC,"SMITH, BRANDON A", 2004 CDC 15,01/03/2004,,,,,,,,,,,,,,,,,,,,,,,,,,,,,,,,,,,
CDC,"MENALDINO, JEANEANE R", 2004 CDC 16,01/02/2004,,,,,,,,,,,,,,,,,,,,,,,,,,,,,,,,,,,
CDC,"KIM, JUNG H", 2004 CDC 17,01/02/2004,,,,,,,,,,,,,,,,,,,,,,,,,,,,,,,,,,,
CDC,"CHOI, KYUNG C", 2004 CDC 18,01/02/2004,,,,,,,,,,,,,,,,,,,,,,,,,,,,,,,,,,,
CDC,"FERRARI, SEAN C", 2004 CDC 20,01/02/2004,,,,,,,,,,,,,,,,,,,,,,,,,,,,,,,,,,,
CDC,"MORGAN, GRANT J", 2004 CDC 21,01/02/2004,,,,,,,,,,,,,,,,,,,,,,,,,,,,,,,,,,,
