type,person,number,date,charge_1,charge_2,charge_3,charge_4,charge_5,charge_6,charge_7,charge_8,charge_9,charge_10,charge_11,charge_12,charge_13,charge_14,charge_15,charge_16,charge_17,charge_18,charge_19,charge_20,charge_21,charge_22,charge_23,charge_24,charge_25,charge_26,charge_27,charge_28,charge_29,charge_30,charge_31,charge_32,charge_33,charge_34,charge_35
CDC,"GARCIA, CARLOS", 2007 CDC 26,01/01/2007,Tampering With an Automobile,,,,,,,,,,,,,,,,,,,,,,,,,,,,,,,,,,
CDC,"PROCTOR Jr, JEROME DESMOND", 2007 CDC 31,01/01/2007,Poss of Open Container of Alcohol,,,,,,,,,,,,,,,,,,,,,,,,,,,,,,,,,,
CDC,"PENDERGRASS, REGINALD", 2007 CDC 43,01/01/2007,Panhandling,,,,,,,,,,,,,,,,,,,,,,,,,,,,,,,,,,
CDC,"MOBLEY, CHARLES", 2007 CDC 44,01/01/2007,,Disorderly Conduct,,,,,,,,,,,,,,,,,,,,,,,,,,,,,,,,,
CDC,"GREENE, ROBERT", 2007 CDC 51,01/01/2007,Panhandling,,,,,,,,,,,,,,,,,,,,,,,,,,,,,,,,,,
CDC,"HEARST, CHERYL DENISE", 2007 CDC 52,01/01/2007,Panhandling,,,,,,,,,,,,,,,,,,,,,,,,,,,,,,,,,,
CDC,"EATON, YVONNE", 2007 CDC 70,01/01/2007,Poss of Open Container of Alcohol,,,,,,,,,,,,,,,,,,,,,,,,,,,,,,,,,,
CDC,"CRAWLEY, JAMAL J", 2007 CDC 86,01/01/2007,Poss of Open Container of Alcohol,,,,,,,,,,,,,,,,,,,,,,,,,,,,,,,,,,
CDC,"DAVIS, GEORGE", 2007 CDC 87,01/01/2007,Poss of Open Container of Alcohol,,,,,,,,,,,,,,,,,,,,,,,,,,,,,,,,,,
CDC,"SMITH, DUSTIN WAYNE", 2007 CDC 90,01/01/2007,Poss of Open Container of Alcohol,Disorderly Conduct,,,,,,,,,,,,,,,,,,,,,,,,,,,,,,,,,
CDC,"GASKINS, JOHN N", 2007 CDC 94,01/01/2007,Poss of Open Container of Alcohol,,,,,,,,,,,,,,,,,,,,,,,,,,,,,,,,,,
CDC,"PETTY, GREGORY", 2007 CDC 97,01/01/2007,Poss of Open Container of Alcohol,,,,,,,,,,,,,,,,,,,,,,,,,,,,,,,,,,
CDC,"WALL, GERALD D", 2007 CDC 124,01/02/2007,Poss of Open Container of Alcohol,,,,,,,,,,,,,,,,,,,,,,,,,,,,,,,,,,
CDC,"WASHINGTON, DONTE", 2007 CDC 171,01/02/2007,Fail to Obey Officer,,,,,,,,,,,,,,,,,,,,,,,,,,,,,,,,,,
CDC,"BLAKE, BARRINGTON", 2007 CDC 176,01/02/2007,Panhandling,,,,,,,,,,,,,,,,,,,,,,,,,,,,,,,,,,
CDC,"STEVENSON, SHAROD", 2007 CDC 181,01/02/2007,Poss of Open Container of Alcohol,,,,,,,,,,,,,,,,,,,,,,,,,,,,,,,,,,
CDC,"QUATTLEBAUM, BRIAN WAYNE", 2007 CDC 184,01/02/2007,Poss of Open Container of Alcohol,,,,,,,,,,,,,,,,,,,,,,,,,,,,,,,,,,
CDC,"THOMAS, ROBERT S", 2007 CDC 203,01/02/2007,Poss of Open Container of Alcohol,,,,,,,,,,,,,,,,,,,,,,,,,,,,,,,,,,
CDC,"LOVEJOY, KENNETH E", 2007 CDC 216,01/03/2007,Disorderly-Urinating,,,,,,,,,,,,,,,,,,,,,,,,,,,,,,,,,,
CDC,"TSEHAYE, NEGASI H", 2007 CDC 222,01/03/2007,Sale of Alcohol to Minor,,,,,,,,,,,,,,,,,,,,,,,,,,,,,,,,,,
CDC,"STARKS, ANTHONY B", 2007 CDC 227,01/03/2007,Disorderly Conduct,,,,,,,,,,,,,,,,,,,,,,,,,,,,,,,,,,
CDC,"BOYD, PATRICE LASHAWN", 2007 CDC 228,01/03/2007,Disorderly Conduct,Disorderly Conduct,,,,,,,,,,,,,,,,,,,,,,,,,,,,,,,,,
CDC,"PARKS, MARKITA ROSETTA", 2007 CDC 230,01/03/2007,Disorderly Conduct,,,,,,,,,,,,,,,,,,,,,,,,,,,,,,,,,,
CDC,"JONES, ALICIA MONIQUE", 2007 CDC 232,01/03/2007,Disorderly Conduct,,,,,,,,,,,,,,,,,,,,,,,,,,,,,,,,,,
CDC,"KILGORE, MICHAEL JEROME", 2007 CDC 239,01/03/2007,Poss of Open Container of Alcohol,,,,,,,,,,,,,,,,,,,,,,,,,,,,,,,,,,
CDC,"YANEZ ESCOBAR, JUAN PABLO", 2007 CDC 253,01/03/2007,MISREPRESENT AGE TO ENTER ABC ESTABLISHMENT,,,,,,,,,,,,,,,,,,,,,,,,,,,,,,,,,,
CDC,"POWELL, TIMOTHY B", 2007 CDC 263,01/03/2007,Poss of Open Container of Alcohol,,,,,,,,,,,,,,,,,,,,,,,,,,,,,,,,,,
CDC,"BELL, ALLEN L", 2007 CDC 266,01/03/2007,Poss of Open Container of Alcohol,,,,,,,,,,,,,,,,,,,,,,,,,,,,,,,,,,
CDC,"BROWN, MICHAEL", 2007 CDC 271,01/03/2007,Poss of Open Container of Alcohol,,,,,,,,,,,,,,,,,,,,,,,,,,,,,,,,,,
CDC,"MOORE, ASHLEY M", 2007 CDC 275,01/03/2007,Poss of Open Container of Alcohol,,,,,,,,,,,,,,,,,,,,,,,,,,,,,,,,,,
CDC,"HIGGS, ROBIN", 2007 CDC 276,01/03/2007,Poss of Open Container of Alcohol,,,,,,,,,,,,,,,,,,,,,,,,,,,,,,,,,,
CDC,"GONZALEZ, JAIME", 2007 CDC 308,01/04/2007,Indecent Sexual Proposal,,,,,,,,,,,,,,,,,,,,,,,,,,,,,,,,,,
CDC,"ROSE, ANITA", 2007 CDC 323,01/04/2007,Poss of Open Container of Alcohol,,,,,,,,,,,,,,,,,,,,,,,,,,,,,,,,,,
CDC,"SIMENTAL, MORENO A", 2007 CDC 325,01/04/2007,Disorderly-Urinating,,,,,,,,,,,,,,,,,,,,,,,,,,,,,,,,,,
CDC,"COLEMAN, ANTHONY", 2007 CDC 326,01/04/2007,Panhandling,Disorderly Conduct,,,,,,,,,,,,,,,,,,,,,,,,,,,,,,,,,
CDC,"GONZALES, JUAN CARLOS", 2007 CDC 350,01/04/2007,Poss of Open Container of Alcohol,,,,,,,,,,,,,,,,,,,,,,,,,,,,,,,,,,
CDC,"ADDISON, JAMES DEAL", 2007 CDC 353,01/04/2007,Disorderly Conduct,Poss of Open Container of Alcohol,,,,,,,,,,,,,,,,,,,,,,,,,,,,,,,,,
CDC,"PICKETT, LARRY T", 2007 CDC 359,01/04/2007,Disorderly Conduct,,,,,,,,,,,,,,,,,,,,,,,,,,,,,,,,,,
CDC,"TART, ALBERT SIDNEY", 2007 CDC 363,01/04/2007,Disorderly Conduct,,,,,,,,,,,,,,,,,,,,,,,,,,,,,,,,,,
CDC,"RYANS, ANTHONY NMN", 2007 CDC 398,01/05/2007,Possession of BB Gun,,,,,,,,,,,,,,,,,,,,,,,,,,,,,,,,,,
CDC,"WHITLEY, CRAIG", 2007 CDC 402,01/05/2007,Poss of Open Container of Alcohol,,,,,,,,,,,,,,,,,,,,,,,,,,,,,,,,,,
CDC,"WATSON, JOSEPH L", 2007 CDC 403,01/05/2007,Poss of Open Container of Alcohol,,,,,,,,,,,,,,,,,,,,,,,,,,,,,,,,,,
CDC,"ANDERSON, GERALD", 2007 CDC 409,01/05/2007,Poss of Open Container of Alcohol,,,,,,,,,,,,,,,,,,,,,,,,,,,,,,,,,,
CDC,"PEREZ, MARCO", 2007 CDC 412,01/05/2007,Poss of Open Container of Alcohol,,,,,,,,,,,,,,,,,,,,,,,,,,,,,,,,,,
CDC,"TUCKSON, GREGORY", 2007 CDC 418,01/05/2007,Poss of Open Container of Alcohol,,,,,,,,,,,,,,,,,,,,,,,,,,,,,,,,,,
CDC,"ALLEN, NEAL I", 2007 CDC 421,01/05/2007,Possession of BB Gun,,,,,,,,,,,,,,,,,,,,,,,,,,,,,,,,,,
CDC,"STAFILATOS, SPIRO", 2007 CDC 433,01/05/2007,Poss of Open Container of Alcohol,,,,,,,,,,,,,,,,,,,,,,,,,,,,,,,,,,
CDC,"HATCHETT, CARL R", 2007 CDC 435,01/05/2007,Poss of Open Container of Alcohol,,,,,,,,,,,,,,,,,,,,,,,,,,,,,,,,,,
CDC,"BELT, JAMES", 2007 CDC 494,01/06/2007,Disorderly Conduct,,,,,,,,,,,,,,,,,,,,,,,,,,,,,,,,,,
CDC,"MINGLE, MARLENE", 2007 CDC 498,01/06/2007,Poss of Open Container of Alcohol,,,,,,,,,,,,,,,,,,,,,,,,,,,,,,,,,,
CDC,"WILLIS, IRIS", 2007 CDC 499,01/06/2007,Poss of Open Container of Alcohol,,,,,,,,,,,,,,,,,,,,,,,,,,,,,,,,,,
CDC,"GADSON, RAYMOND A", 2007 CDC 501,01/06/2007,Poss of Open Container of Alcohol,,,,,,,,,,,,,,,,,,,,,,,,,,,,,,,,,,
CDC,"WILLIAMS, CHARLES", 2007 CDC 536,01/06/2007,Poss of Open Container of Alcohol,,,,,,,,,,,,,,,,,,,,,,,,,,,,,,,,,,
CDC,"RAJAH, MOUSON JAMES", 2007 CDC 600,01/08/2007,Poss of Open Container of Alcohol,,,,,,,,,,,,,,,,,,,,,,,,,,,,,,,,,,
CDC,"HILTON, FREDDIE E", 2007 CDC 601,01/08/2007,Poss of Open Container of Alcohol,,,,,,,,,,,,,,,,,,,,,,,,,,,,,,,,,,
CDC,"BERRY, JAMES A", 2007 CDC 603,01/08/2007,Poss of Open Container of Alcohol,,,,,,,,,,,,,,,,,,,,,,,,,,,,,,,,,,
CDC,"LEE, HENRY EDWARD", 2007 CDC 605,01/08/2007,Arrest Charge,,,,,,,,,,,,,,,,,,,,,,,,,,,,,,,,,,
CDC,"KEMP, GEORGE NATHANIEL", 2007 CDC 607,01/08/2007,Arrest Charge,,,,,,,,,,,,,,,,,,,,,,,,,,,,,,,,,,
CDC,"RICHARDSON, JESSE L", 2007 CDC 628,01/08/2007,Poss of Open Container of Alcohol,,,,,,,,,,,,,,,,,,,,,,,,,,,,,,,,,,
CDC,"BETALON, BEKELE THOMAS", 2007 CDC 640,01/08/2007,Disorderly Conduct,,,,,,,,,,,,,,,,,,,,,,,,,,,,,,,,,,
CDC,"THOMAS, LATONYA", 2007 CDC 642,01/08/2007,Disorderly Conduct,,,,,,,,,,,,,,,,,,,,,,,,,,,,,,,,,,
CDC,"FRAIZER, MICHAEL MARION", 2007 CDC 644,01/08/2007,Poss of Open Container of Alcohol,,,,,,,,,,,,,,,,,,,,,,,,,,,,,,,,,,
CDC,"NICKENS, MARTIN", 2007 CDC 645,01/08/2007,Poss of Open Container of Alcohol,,,,,,,,,,,,,,,,,,,,,,,,,,,,,,,,,,
CDC,"DEMUS, WALTER L", 2007 CDC 651,01/08/2007,Panhandling,,,,,,,,,,,,,,,,,,,,,,,,,,,,,,,,,,
CDC,"GIBSON, STEPHEN R", 2007 CDC 652,01/08/2007,Arrest Charge,,,,,,,,,,,,,,,,,,,,,,,,,,,,,,,,,,
CDC,"WILLIAMS, JEANNA", 2007 CDC 655,01/08/2007,Panhandling,,,,,,,,,,,,,,,,,,,,,,,,,,,,,,,,,,
CDC,"BALLARD, JAMES GRADY", 2007 CDC 672,01/08/2007,Disorderly Conduct,,,,,,,,,,,,,,,,,,,,,,,,,,,,,,,,,,
CDC,"FELTON, KIRK", 2007 CDC 675,01/08/2007,Poss of Open Container of Alcohol,,,,,,,,,,,,,,,,,,,,,,,,,,,,,,,,,,
CDC,"PESSIMA, ANTOINETTE", 2007 CDC 689,01/09/2007,Poss of Open Container of Alcohol,,,,,,,,,,,,,,,,,,,,,,,,,,,,,,,,,,
CDC,"BOOKER, REGINALD ALVIS", 2007 CDC 690,01/09/2007,Drinking In Public,,,,,,,,,,,,,,,,,,,,,,,,,,,,,,,,,,
CDC,"LESHAUNE, MICHAEL NMN", 2007 CDC 700,01/09/2007,Poss of Open Container of Alcohol,,,,,,,,,,,,,,,,,,,,,,,,,,,,,,,,,,
CDC,"HASKINS, MACCHAIR RICARDO", 2007 CDC 705,01/09/2007,Poss of Open Container of Alcohol,,,,,,,,,,,,,,,,,,,,,,,,,,,,,,,,,,
CDC,"THOMAS, TOUMANI TOURAU", 2007 CDC 766,01/09/2007,Disorderly-Urinating,,,,,,,,,,,,,,,,,,,,,,,,,,,,,,,,,,
CDC,"COLE, CORNELL", 2007 CDC 769,01/09/2007,Operating a Business Without a License,Operating a Business Without a License,Operating a Business Without a License,Operating a Business Without a License,Operating a Business Without a License,Operating a Business Without a License,,,,,,,,,,,,,,,,,,,,,,,,,,,,,
CDC,"JONES, ANTHONY EDWARD", 2007 CDC 785,01/10/2007,Disorderly-Urinating,,,,,,,,,,,,,,,,,,,,,,,,,,,,,,,,,,
CDC,"COLEMAN, WILLIE J", 2007 CDC 789,01/10/2007,Poss of Open Container of Alcohol,,,,,,,,,,,,,,,,,,,,,,,,,,,,,,,,,,
CDC,"SANDERS, KENNY L", 2007 CDC 796,01/10/2007,Panhandling,,,,,,,,,,,,,,,,,,,,,,,,,,,,,,,,,,
CDC,"MORRINSON, LEON NMN", 2007 CDC 799,01/10/2007,Poss of Open Container of Alcohol,,,,,,,,,,,,,,,,,,,,,,,,,,,,,,,,,,
CDC,"HOWARD, DARNELL M", 2007 CDC 809,01/10/2007,Poss of Open Container of Alcohol,,,,,,,,,,,,,,,,,,,,,,,,,,,,,,,,,,
CDC,"JOHNSON, SEQUITA L", 2007 CDC 815,01/10/2007,Disorderly Conduct,,,,,,,,,,,,,,,,,,,,,,,,,,,,,,,,,,
CDC,"CAMPFIELD, JOHNNIE E", 2007 CDC 819,01/10/2007,Indecent Exposure,,,,,,,,,,,,,,,,,,,,,,,,,,,,,,,,,,
CDC,"CUNNINGHAM, GARY WALTER", 2007 CDC 820,01/10/2007,,Drinking In Public,,,,,,,,,,,,,,,,,,,,,,,,,,,,,,,,,
CDC,"GIBSON, LATIKA", 2007 CDC 848,01/10/2007,Indecent Sexual Proposal,,,,,,,,,,,,,,,,,,,,,,,,,,,,,,,,,,
CDC,"TOWNS, ERIC D", 2007 CDC 852,01/10/2007,Indecent Sexual Proposal,,,,,,,,,,,,,,,,,,,,,,,,,,,,,,,,,,
CDC,"LOVETT, PERRY NMN", 2007 CDC 854,01/10/2007,Fail to Obey Officer,Disorderly Conduct,,,,,,,,,,,,,,,,,,,,,,,,,,,,,,,,,
CDC,"PITTMAN Jr, ELDON", 2007 CDC 857,01/10/2007,Disorderly Conduct,,,,,,,,,,,,,,,,,,,,,,,,,,,,,,,,,,
CDC,"THOMAS, IRWIN D", 2007 CDC 869,01/10/2007,Disorderly Conduct,,,,,,,,,,,,,,,,,,,,,,,,,,,,,,,,,,
CDC,"FRANCIS, CLIFTON D", 2007 CDC 902,01/11/2007,Poss of Open Container of Alcohol,,,,,,,,,,,,,,,,,,,,,,,,,,,,,,,,,,
CDC,"CONNER, JOHN RAYMOND", 2007 CDC 907,01/11/2007,Craps,,,,,,,,,,,,,,,,,,,,,,,,,,,,,,,,,,
CDC,"WALSH, SHANNA", 2007 CDC 913,01/11/2007,Poss of Open Container of Alcohol,,,,,,,,,,,,,,,,,,,,,,,,,,,,,,,,,,
CDC,"FAIR, MICHAEL ANTHONY", 2007 CDC 927,01/11/2007,Drinking In Public,,,,,,,,,,,,,,,,,,,,,,,,,,,,,,,,,,
CDC,"BRIDGEFORTH, WAYNE A", 2007 CDC 930,01/11/2007,Poss of Open Container of Alcohol,,,,,,,,,,,,,,,,,,,,,,,,,,,,,,,,,,
CDC,"BAYLOR, RICHARD", 2007 CDC 956,01/11/2007,Craps,,,,,,,,,,,,,,,,,,,,,,,,,,,,,,,,,,
CDC,"ADDISON, LEONARD", 2007 CDC 957,01/11/2007,Craps,,,,,,,,,,,,,,,,,,,,,,,,,,,,,,,,,,
CDC,"MARQUEZ, ALEXIS M", 2007 CDC 966,01/12/2007,Fail to Obey Officer,,,,,,,,,,,,,,,,,,,,,,,,,,,,,,,,,,
CDC,"BRITT, WILLIE PETE", 2007 CDC 978,01/12/2007,Disorderly-Urinating,,,,,,,,,,,,,,,,,,,,,,,,,,,,,,,,,,
CDC,"LUCKARD, REGINALD", 2007 CDC 983,01/12/2007,Poss of Open Container of Alcohol,,,,,,,,,,,,,,,,,,,,,,,,,,,,,,,,,,
CDC,"ALSTON, BELINDA", 2007 CDC 990,01/12/2007,,Poss of Open Container of Alcohol,,,,,,,,,,,,,,,,,,,,,,,,,,,,,,,,,
CDC,"CUXART, RENE NMN", 2007 CDC 997,01/12/2007,Poss of Open Container of Alcohol,,,,,,,,,,,,,,,,,,,,,,,,,,,,,,,,,,
CDC,"FULLER, WILLIE L", 2007 CDC 1050,01/12/2007,Poss of Open Container of Alcohol,,,,,,,,,,,,,,,,,,,,,,,,,,,,,,,,,,
CDC,"KIER, RANDY ANGEL", 2007 CDC 1051,01/12/2007,Indecent Sexual Proposal,,,,,,,,,,,,,,,,,,,,,,,,,,,,,,,,,,
CDC,"CURETON, CORNELIUS A", 2007 CDC 1055,01/12/2007,,,Poss of Open Container of Alcohol,,,,,,,,,,,,,,,,,,,,,,,,,,,,,,,,
CDC,"JACKSON, DARLENE D", 2007 CDC 1067,01/12/2007,,Poss of Open Container of Alcohol,,,,,,,,,,,,,,,,,,,,,,,,,,,,,,,,,
CDC,"JOHNSON, TERRANCE M", 2007 CDC 1070,01/12/2007,Disorderly-Jostling,,,,,,,,,,,,,,,,,,,,,,,,,,,,,,,,,,
CDC,"LEWIS, MELVIN", 2007 CDC 1074,01/12/2007,Fail to Obey Officer,,,,,,,,,,,,,,,,,,,,,,,,,,,,,,,,,,
CDC,"CARSON, ERIC EUGENE", 2007 CDC 1083,01/12/2007,Poss of Open Container of Alcohol,,,,,,,,,,,,,,,,,,,,,,,,,,,,,,,,,,
CDC,"HOSE, RICARDO", 2007 CDC 1102,01/13/2007,Poss of Open Container of Alcohol,,,,,,,,,,,,,,,,,,,,,,,,,,,,,,,,,,
CDC,"PERRY, OLANDO", 2007 CDC 1124,01/13/2007,Drinking In Public,Disorderly Conduct,,,,,,,,,,,,,,,,,,,,,,,,,,,,,,,,,
CDC,"HOWARD, LEYVANZE S", 2007 CDC 1141,01/13/2007,Unlawful Poss Ammunition,,,,,,,,,,,,,,,,,,,,,,,,,,,,,,,,,,
CDC,"ORTIZ, MARIO", 2007 CDC 1143,01/13/2007,Indecent Exposure,,,,,,,,,,,,,,,,,,,,,,,,,,,,,,,,,,
CDC,"SMITH, JOSEPH", 2007 CDC 1155,01/13/2007,Disorderly Conduct,,,,,,,,,,,,,,,,,,,,,,,,,,,,,,,,,,
CDC,"BLACKWELL, TIMOTHY G", 2007 CDC 1163,01/13/2007,,,Disorderly Conduct,,,,,,,,,,,,,,,,,,,,,,,,,,,,,,,,
CDC,"KNIGHT, JOSEPH", 2007 CDC 1177,01/13/2007,Disorderly Conduct,,,,,,,,,,,,,,,,,,,,,,,,,,,,,,,,,,
CDC,"BRADFORD, KIMBERLY J", 2007 CDC 1227,01/15/2007,Poss of Open Container of Alcohol,,,,,,,,,,,,,,,,,,,,,,,,,,,,,,,,,,
CDC,"MCCULLOUGH, DAVID L", 2007 CDC 1230,01/15/2007,Panhandling,,,,,,,,,,,,,,,,,,,,,,,,,,,,,,,,,,
CDC,"BAIRR, CARLOS N", 2007 CDC 1233,01/15/2007,Poss of Open Container of Alcohol,,,,,,,,,,,,,,,,,,,,,,,,,,,,,,,,,,
CDC,"KIETT, ANTWAN", 2007 CDC 1248,01/15/2007,Poss of Open Container of Alcohol,,,,,,,,,,,,,,,,,,,,,,,,,,,,,,,,,,
CDC,"JOHNSON, DESMOND E", 2007 CDC 1249,01/15/2007,Panhandling,,,,,,,,,,,,,,,,,,,,,,,,,,,,,,,,,,
CDC,"COOPER, CURTIS", 2007 CDC 1251,01/15/2007,Poss of Open Container of Alcohol,,,,,,,,,,,,,,,,,,,,,,,,,,,,,,,,,,
CDC,"BEACH, RENEE DIANE", 2007 CDC 1257,01/15/2007,,Poss of Open Container of Alcohol,,,,,,,,,,,,,,,,,,,,,,,,,,,,,,,,,
CDC,"BROOKS, JAMES MELVIN", 2007 CDC 1289,01/15/2007,Poss of Open Container of Alcohol,,,,,,,,,,,,,,,,,,,,,,,,,,,,,,,,,,
CDC,"BRIDGES, JESSE J", 2007 CDC 1292,01/15/2007,Poss of Open Container of Alcohol,,,,,,,,,,,,,,,,,,,,,,,,,,,,,,,,,,
CDC,"ARMSTRONG, ELBERT L", 2007 CDC 1293,01/15/2007,Drinking In Public,Poss of Open Container of Alcohol,,,,,,,,,,,,,,,,,,,,,,,,,,,,,,,,,
CDC,"KORNEGAY, ROOSEVELT JR", 2007 CDC 1296,01/15/2007,Poss of Open Container of Alcohol,,,,,,,,,,,,,,,,,,,,,,,,,,,,,,,,,,
CDC,"BONDS, DARRYL", 2007 CDC 1299,01/15/2007,Poss of Open Container of Alcohol,,,,,,,,,,,,,,,,,,,,,,,,,,,,,,,,,,
CDC,"BROWN, EUGENE", 2007 CDC 1303,01/15/2007,Poss of Open Container of Alcohol,,,,,,,,,,,,,,,,,,,,,,,,,,,,,,,,,,
CDC,"ALAS-AREVELO, FLORA", 2007 CDC 1304,01/15/2007,Poss of Open Container of Alcohol,,,,,,,,,,,,,,,,,,,,,,,,,,,,,,,,,,
CDC,"WATKINS, MARIO ANTHONY", 2007 CDC 1314,01/16/2007,,,Poss of Open Container of Alcohol,,,,,,,,,,,,,,,,,,,,,,,,,,,,,,,,
CDC,"WOOD, TRENELL C", 2007 CDC 1316,01/16/2007,Disorderly Conduct,,,,,,,,,,,,,,,,,,,,,,,,,,,,,,,,,,
CDC,"CHILDS, KENNETH T", 2007 CDC 1317,01/16/2007,Poss of Open Container of Alcohol,,,,,,,,,,,,,,,,,,,,,,,,,,,,,,,,,,
CDC,"SHAH, NEAL H", 2007 CDC 1327,01/16/2007,Disorderly Conduct,,,,,,,,,,,,,,,,,,,,,,,,,,,,,,,,,,
CDC,"CHESTER, BARBARA RENEE", 2007 CDC 1340,01/16/2007,Poss of Open Container of Alcohol,,,,,,,,,,,,,,,,,,,,,,,,,,,,,,,,,,
CDC,"BONDS, KENRICK", 2007 CDC 1343,01/16/2007,Poss of Open Container of Alcohol,Drinking In Public,,,,,,,,,,,,,,,,,,,,,,,,,,,,,,,,,
CDC,"SILVERTHORN, ERIC AARON", 2007 CDC 1344,01/16/2007,Disorderly-Urinating,,,,,,,,,,,,,,,,,,,,,,,,,,,,,,,,,,
CDC,"PACE, ROBERT L", 2007 CDC 1381,01/16/2007,Poss of Open Container of Alcohol,,,,,,,,,,,,,,,,,,,,,,,,,,,,,,,,,,
CDC,"THOMAS, CARLTON B", 2007 CDC 1388,01/16/2007,Poss of Open Container of Alcohol,,,,,,,,,,,,,,,,,,,,,,,,,,,,,,,,,,
CDC,"VILLALTA, JOSE", 2007 CDC 1393,01/16/2007,Poss of Open Container of Alcohol,,,,,,,,,,,,,,,,,,,,,,,,,,,,,,,,,,
CDC,"JOHNSON, ROLAND WALTER", 2007 CDC 1411,01/16/2007,Panhandling,,,,,,,,,,,,,,,,,,,,,,,,,,,,,,,,,,
CDC,"WASHINGTON, ALAN GREGORY SR", 2007 CDC 1412,01/16/2007,Poss of Open Container of Alcohol,,,,,,,,,,,,,,,,,,,,,,,,,,,,,,,,,,
CDC,"LARIOS, JOSE", 2007 CDC 1436,01/17/2007,Disorderly-Urinating,,,,,,,,,,,,,,,,,,,,,,,,,,,,,,,,,,
CDC,"BRISCOE, RICHARD EDWARD", 2007 CDC 1441,01/17/2007,Poss of Open Container of Alcohol,,,,,,,,,,,,,,,,,,,,,,,,,,,,,,,,,,
CDC,"SMITH, GREGORY W", 2007 CDC 1467,01/17/2007,Fail to Obey Officer,,,,,,,,,,,,,,,,,,,,,,,,,,,,,,,,,,
CDC,"JAMA, MOHAMED ADEN", 2007 CDC 1468,01/17/2007,Unlicensed Hacker,,,,,,,,,,,,,,,,,,,,,,,,,,,,,,,,,,
CDC,"BYERS, ERICK C", 2007 CDC 1476,01/17/2007,Playing Games in the Street,,,,,,,,,,,,,,,,,,,,,,,,,,,,,,,,,,
CDC,"JUAREZ, IMER ONAN", 2007 CDC 1477,01/17/2007,,No Permit,,,,,,,,,,,,,,,,,,,,,,,,,,,,,,,,,
CDC,"CARPENTER, RONALD", 2007 CDC 1483,01/17/2007,Failure to Exhibit Registration,,,,,,,,,,,,,,,,,,,,,,,,,,,,,,,,,,
CDC,"LANE, YULISHA", 2007 CDC 1491,01/17/2007,Disorderly-Jostling,,,,,,,,,,,,,,,,,,,,,,,,,,,,,,,,,,
CDC,"JONES, CHERYL", 2007 CDC 1492,01/17/2007,Poss of Open Container of Alcohol,,,,,,,,,,,,,,,,,,,,,,,,,,,,,,,,,,
CDC,"MCCLINTON, JEROME LARRY", 2007 CDC 1523,01/18/2007,Poss of Open Container of Alcohol,,,,,,,,,,,,,,,,,,,,,,,,,,,,,,,,,,
CDC,"HODGES, CAMILLE A", 2007 CDC 1528,01/18/2007,Disorderly Conduct,,,,,,,,,,,,,,,,,,,,,,,,,,,,,,,,,,
CDC,"MARSHALL, PAUL W", 2007 CDC 1532,01/18/2007,Poss of Open Container of Alcohol,,,,,,,,,,,,,,,,,,,,,,,,,,,,,,,,,,
CDC,"HARRIS, ROBERT", 2007 CDC 1564,01/18/2007,Fail to Pay Subway Fare,Disorderly Conduct,,,,,,,,,,,,,,,,,,,,,,,,,,,,,,,,,
CDC,"CUNNINGHAM, JESSIE HOWARD", 2007 CDC 1571,01/18/2007,,,Panhandling,,,,,,,,,,,,,,,,,,,,,,,,,,,,,,,,
CDC,"WILLIAMS, BEN F", 2007 CDC 1584,01/18/2007,Poss of Open Container of Alcohol,,,,,,,,,,,,,,,,,,,,,,,,,,,,,,,,,,
CDC,"HOLDER, TIMOTHY J", 2007 CDC 1597,01/18/2007,Poss of Open Container of Alcohol,,,,,,,,,,,,,,,,,,,,,,,,,,,,,,,,,,
CDC,"BROCK, ROBERT L", 2007 CDC 1609,01/19/2007,Disorderly-Urinating,,,,,,,,,,,,,,,,,,,,,,,,,,,,,,,,,,
CDC,"MARSHALL, RICHARD D", 2007 CDC 1641,01/19/2007,Disorderly Conduct,Panhandling,Disorderly Conduct,,,,,,,,,,,,,,,,,,,,,,,,,,,,,,,,
CDC,"JOHNSON, DELONTAY AARON", 2007 CDC 1664,01/19/2007,Fail to Obey Officer,,,,,,,,,,,,,,,,,,,,,,,,,,,,,,,,,,
CDC,"GURLEY, TAWANDA MARIE", 2007 CDC 1667,01/19/2007,Disorderly Conduct,,,,,,,,,,,,,,,,,,,,,,,,,,,,,,,,,,
CDC,"KEMP, GEORGE NATHANIEL", 2007 CDC 1707,01/19/2007,Vending In an Unauthorized Area,,,,,,,,,,,,,,,,,,,,,,,,,,,,,,,,,,
CDC,"ELDRIDGE, BILLY", 2007 CDC 1737,01/20/2007,Poss of Open Container of Alcohol,Drinking In Public,,,,,,,,,,,,,,,,,,,,,,,,,,,,,,,,,
CDC,"TURNER, WILLIAM DENNIS", 2007 CDC 1740,01/20/2007,,Poss of Open Container of Alcohol,,,,,,,,,,,,,,,,,,,,,,,,,,,,,,,,,
CDC,"CLAYTON, MICHELLE", 2007 CDC 1742,01/20/2007,Poss of Open Container of Alcohol,,,,,,,,,,,,,,,,,,,,,,,,,,,,,,,,,,
CDC,"JONES, TINA PATRICIA", 2007 CDC 1751,01/20/2007,Poss of Open Container of Alcohol,,,,,,,,,,,,,,,,,,,,,,,,,,,,,,,,,,
CDC,"BROWN, JEROME M", 2007 CDC 1761,01/20/2007,Poss of Open Container of Alcohol,,,,,,,,,,,,,,,,,,,,,,,,,,,,,,,,,,
CDC,"ROBINSON, TIMOTHY L", 2007 CDC 1766,01/20/2007,Poss of Open Container of Alcohol,,,,,,,,,,,,,,,,,,,,,,,,,,,,,,,,,,
CDC,"ENGLISH, GARY O", 2007 CDC 1772,01/20/2007,,Poss of Open Container of Alcohol,,,,,,,,,,,,,,,,,,,,,,,,,,,,,,,,,
CDC,"BURLES, JOSEPH ANTHONY", 2007 CDC 1780,01/20/2007,Poss of Open Container of Alcohol,,,,,,,,,,,,,,,,,,,,,,,,,,,,,,,,,,
CDC,"DAY, TAMARA STILLWELL", 2007 CDC 1803,01/20/2007,Poss of Open Container of Alcohol,,,,,,,,,,,,,,,,,,,,,,,,,,,,,,,,,,
CDC,"MUSGROVE, DOUGLAS LYNNN", 2007 CDC 1812,01/19/2007,Disorderly-Urinating,,,,,,,,,,,,,,,,,,,,,,,,,,,,,,,,,,
CDC,"JETER, JAREAU ALVIN", 2007 CDC 1833,01/22/2007,Poss of Open Container of Alcohol,,,,,,,,,,,,,,,,,,,,,,,,,,,,,,,,,,
CDC,"JONES, BRANDON T", 2007 CDC 1835,01/22/2007,Poss of Open Container of Alcohol,,,,,,,,,,,,,,,,,,,,,,,,,,,,,,,,,,
CDC,"MCLEOD, WILLIE PRINCE", 2007 CDC 1861,01/22/2007,,Unlawful Poss of A Firearm,Unlawful Poss Ammunition,,,,,,,,,,,,,,,,,,,,,,,,,,,,,,,,
CDC,"FUNDERBURK, SHIRLEY A", 2007 CDC 1883,01/22/2007,Disorderly-Urinating,,,,,,,,,,,,,,,,,,,,,,,,,,,,,,,,,,
CDC,"DAVIS, ANTHONY R", 2007 CDC 1906,01/22/2007,Arrest Charge,POCA,,,,,,,,,,,,,,,,,,,,,,,,,,,,,,,,,
CDC,"AHMED, FAROOQ", 2007 CDC 1909,01/22/2007,Unlicensed Hacker,,,,,,,,,,,,,,,,,,,,,,,,,,,,,,,,,,
CDC,"PATE, MELVIN N", 2007 CDC 1913,01/22/2007,Poss of Open Container of Alcohol,,,,,,,,,,,,,,,,,,,,,,,,,,,,,,,,,,
CDC,"ATKINSON, ANTHONY E", 2007 CDC 1916,01/22/2007,Poss of Open Container of Alcohol,,,,,,,,,,,,,,,,,,,,,,,,,,,,,,,,,,
CDC,"YU, LIE", 2007 CDC 1924,01/23/2007,Fail to Pay Subway Fare,,,,,,,,,,,,,,,,,,,,,,,,,,,,,,,,,,
CDC,"GASKIN, JONATHAN", 2007 CDC 1976,01/23/2007,Poss of Open Container of Alcohol,,,,,,,,,,,,,,,,,,,,,,,,,,,,,,,,,,
CDC,"ANDERSON, WILLIE CALVIN", 2007 CDC 1990,01/23/2007,Disorderly-Urinating,,,,,,,,,,,,,,,,,,,,,,,,,,,,,,,,,,
CDC,"FRAZIER, MICHAEL M", 2007 CDC 1991,01/23/2007,Disorderly Conduct,,,,,,,,,,,,,,,,,,,,,,,,,,,,,,,,,,
CDC,"KEBE, NATHAN", 2007 CDC 1994,01/23/2007,Disorderly Conduct,,,,,,,,,,,,,,,,,,,,,,,,,,,,,,,,,,
CDC,"REESE, JAMES EDWARD", 2007 CDC 1995,01/23/2007,Fail to Pay Cab Fare,,,,,,,,,,,,,,,,,,,,,,,,,,,,,,,,,,
CDC,"SILVESTRI, TOSELLI", 2007 CDC 1998,01/24/2007,Poss of Open Container of Alcohol,Unlawful Poss of A Firearm,Unlawful Poss Ammunition,,,,,,,,,,,,,,,,,,,,,,,,,,,,,,,,
CDC,"SIMPSON, EBONY N", 2007 CDC 2019,01/24/2007,Disorderly Conduct,,,,,,,,,,,,,,,,,,,,,,,,,,,,,,,,,,
CDC,"BATTLE, DESSALINES C", 2007 CDC 2067,01/24/2007,Poss of Open Container of Alcohol,,,,,,,,,,,,,,,,,,,,,,,,,,,,,,,,,,
CDC,"STEWART, SOLOMON M", 2007 CDC 2068,01/24/2007,Fail to Obey Officer,Disorderly Conduct,,,,,,,,,,,,,,,,,,,,,,,,,,,,,,,,,
CDC,"BARNES, JOHN HENRY", 2007 CDC 2071,01/24/2007,Poss of Open Container of Alcohol,,,,,,,,,,,,,,,,,,,,,,,,,,,,,,,,,,
CDC,"ABROM, TIMOTHY L", 2007 CDC 2075,01/24/2007,Poss of Open Container of Alcohol,,,,,,,,,,,,,,,,,,,,,,,,,,,,,,,,,,
CDC,"WILSON, EDWIN F", 2007 CDC 2079,01/24/2007,Poss of Open Container of Alcohol,,,,,,,,,,,,,,,,,,,,,,,,,,,,,,,,,,
CDC,"BIRDOW, ANTHONY P", 2007 CDC 2088,01/25/2007,Poss of Open Container of Alcohol,,,,,,,,,,,,,,,,,,,,,,,,,,,,,,,,,,
CDC,"COLBERT, DONTE", 2007 CDC 2090,01/25/2007,,Poss of Open Container of Alcohol,,,,,,,,,,,,,,,,,,,,,,,,,,,,,,,,,
CDC,"SHEILDS, SABRINA", 2007 CDC 2099,01/25/2007,Poss of Open Container of Alcohol,,,,,,,,,,,,,,,,,,,,,,,,,,,,,,,,,,
CDC,"HINTON, KERMIT R", 2007 CDC 2111,01/25/2007,Poss of Open Container of Alcohol,,,,,,,,,,,,,,,,,,,,,,,,,,,,,,,,,,
CDC,"KING, WOODALL NMN", 2007 CDC 2151,01/25/2007,Disorderly-Urinating,,,,,,,,,,,,,,,,,,,,,,,,,,,,,,,,,,
CDC,"HODGE, LARRY", 2007 CDC 2153,01/25/2007,Unlawful Poss Ammunition,,Unlawful Poss Ammunition,,,,,,,,,,,,,,,,,,,,,,,,,,,,,,,,
CDC,"TAYLOR, ANTHONY W", 2007 CDC 2165,01/25/2007,Disorderly-Urinating,,,,,,,,,,,,,,,,,,,,,,,,,,,,,,,,,,
CDC,"BURLES, JOSEPH ANTHONY", 2007 CDC 2170,01/25/2007,Poss of Open Container of Alcohol,,,,,,,,,,,,,,,,,,,,,,,,,,,,,,,,,,
CDC,"ANDERSON, NATALIE A", 2007 CDC 2171,01/25/2007,Poss of Open Container of Alcohol,,,,,,,,,,,,,,,,,,,,,,,,,,,,,,,,,,
CDC,"SMALL, JARVIS", 2007 CDC 2174,01/25/2007,Indecent Exposure,Panhandling,Disorderly Conduct,,,,,,,,,,,,,,,,,,,,,,,,,,,,,,,,
CDC,"WILLARD, LORRAINE E", 2007 CDC 2213,01/26/2007,Poss of Open Container of Alcohol,Disorderly-Urinating,,,,,,,,,,,,,,,,,,,,,,,,,,,,,,,,,
CDC,"FLOWERS, WILLIAM H", 2007 CDC 2229,01/26/2007,Poss of Open Container of Alcohol,,,,,,,,,,,,,,,,,,,,,,,,,,,,,,,,,,
CDC,"MCDOWELL, ROLAND", 2007 CDC 2231,01/26/2007,Disorderly-Urinating,,,,,,,,,,,,,,,,,,,,,,,,,,,,,,,,,,
CDC,"EVANS, STANLEY", 2007 CDC 2232,01/26/2007,Panhandling,,,,,,,,,,,,,,,,,,,,,,,,,,,,,,,,,,
CDC,"DILOME, FELIX A", 2007 CDC 2260,01/26/2007,Poss of Open Container of Alcohol,,,,,,,,,,,,,,,,,,,,,,,,,,,,,,,,,,
CDC,"NELSON, TYRONE CARLTON", 2007 CDC 2267,01/26/2007,Poss of Open Container of Alcohol,,,,,,,,,,,,,,,,,,,,,,,,,,,,,,,,,,
CDC,"WILSON, WILBERT F", 2007 CDC 2269,01/26/2007,Poss of Open Container of Alcohol,,,,,,,,,,,,,,,,,,,,,,,,,,,,,,,,,,
CDC,"MURPHY, BRENDA", 2007 CDC 2273,01/26/2007,Poss of Open Container of Alcohol,,,,,,,,,,,,,,,,,,,,,,,,,,,,,,,,,,
CDC,"CHERRY, CARLOS", 2007 CDC 2287,01/27/2007,Disorderly-Urinating,,,,,,,,,,,,,,,,,,,,,,,,,,,,,,,,,,
CDC,"BROWN, RONALD ANTONIO", 2007 CDC 2289,01/27/2007,Poss of Open Container of Alcohol,,,,,,,,,,,,,,,,,,,,,,,,,,,,,,,,,,
CDC,"BRONSON, MARCUS", 2007 CDC 2340,01/27/2007,Poss of Open Container of Alcohol,,,,,,,,,,,,,,,,,,,,,,,,,,,,,,,,,,
CDC,"HEARTWELL, BRIAN KEITH", 2007 CDC 2344,01/27/2007,Poss of Open Container of Alcohol,,,,,,,,,,,,,,,,,,,,,,,,,,,,,,,,,,
CDC,"WILKINSON, DEANGELO STEPHEN", 2007 CDC 2351,01/27/2007,Arrest Charge,,,,,,,,,,,,,,,,,,,,,,,,,,,,,,,,,,
CDC,"MICKEY, BRANDON T", 2007 CDC 2361,01/27/2007,Poss of Open Container of Alcohol,,,,,,,,,,,,,,,,,,,,,,,,,,,,,,,,,,
CDC,"AREVALO, LUCAS ISRAEL MEJIA", 2007 CDC 2366,01/27/2007,Disorderly-Urinating,,,,,,,,,,,,,,,,,,,,,,,,,,,,,,,,,,
CDC,"CHISLEY, CLIFTON T", 2007 CDC 2369,01/27/2007,Poss of Open Container of Alcohol,,,,,,,,,,,,,,,,,,,,,,,,,,,,,,,,,,
CDC,"FISHER, ERROL", 2007 CDC 2379,01/29/2007,Poss of Open Container of Alcohol,,,,,,,,,,,,,,,,,,,,,,,,,,,,,,,,,,
CDC,"WOMBLE, FRED L", 2007 CDC 2390,01/29/2007,Arrest Charge,,,,,,,,,,,,,,,,,,,,,,,,,,,,,,,,,,
CDC,"DAWKINS, JONATHAN F", 2007 CDC 2396,01/29/2007,Poss of Open Container of Alcohol,,,,,,,,,,,,,,,,,,,,,,,,,,,,,,,,,,
CDC,"JONES, ARNETTA PATRICE", 2007 CDC 2426,01/29/2007,Disorderly Conduct,,,,,,,,,,,,,,,,,,,,,,,,,,,,,,,,,,
CDC,"ATKINS, CHADWICK CHARLES", 2007 CDC 2436,01/29/2007,,POCA,,,,,,,,,,,,,,,,,,,,,,,,,,,,,,,,,
CDC,"GUEST, TAWANA R", 2007 CDC 2442,01/29/2007,Poss of Open Container of Alcohol,,,,,,,,,,,,,,,,,,,,,,,,,,,,,,,,,,
CDC,"ROBINSON, KEVIN", 2007 CDC 2475,01/29/2007,Fail to Pay Subway Fare,,,,,,,,,,,,,,,,,,,,,,,,,,,,,,,,,,
CDC,"CASTELLON, MOISES A", 2007 CDC 2477,01/29/2007,Poss of Open Container of Alcohol,Disorderly Conduct,,,,,,,,,,,,,,,,,,,,,,,,,,,,,,,,,
CDC,"BECKER, SASCHA D", 2007 CDC 2480,01/29/2007,Disorderly Conduct,,,,,,,,,,,,,,,,,,,,,,,,,,,,,,,,,,
CDC,"EASTON, DARRELL J", 2007 CDC 2486,01/29/2007,Poss of Open Container of Alcohol,,,,,,,,,,,,,,,,,,,,,,,,,,,,,,,,,,
CDC,"MONTERIO, ONDINA", 2007 CDC 2488,01/29/2007,Poss of Open Container of Alcohol,Arrest Charge,,,,,,,,,,,,,,,,,,,,,,,,,,,,,,,,,
CDC,"WASHINGTON, REGINALD PATRICK", 2007 CDC 2519,01/30/2007,Possession of a Destructive Device,,,,,,,,,,,,,,,,,,,,,,,,,,,,,,,,,,
CDC,"HOWARD, ANDREW L", 2007 CDC 2529,01/30/2007,,Unlawful Poss Ammunition,Unlawful Poss of A Firearm,,,,,,,,,,,,,,,,,,,,,,,,,,,,,,,,
CDC,"HENDERSON, GRAY", 2007 CDC 2540,01/30/2007,Poss of Open Container of Alcohol,,,,,,,,,,,,,,,,,,,,,,,,,,,,,,,,,,
CDC,"SAVOY, KENDRICK LAMONT", 2007 CDC 2542,01/30/2007,Poss of Open Container of Alcohol,,,,,,,,,,,,,,,,,,,,,,,,,,,,,,,,,,
CDC,"CROSS, AMALIA DAWN", 2007 CDC 2557,01/31/2007,Disorderly Conduct,,,,,,,,,,,,,,,,,,,,,,,,,,,,,,,,,,
CDC,"THOMAS, TONY NMN", 2007 CDC 2559,01/31/2007,Panhandling,,,,,,,,,,,,,,,,,,,,,,,,,,,,,,,,,,
CDC,"CARTER, ERIC", 2007 CDC 2560,01/31/2007,Poss of Open Container of Alcohol,,,,,,,,,,,,,,,,,,,,,,,,,,,,,,,,,,
CDC,"SINGLETON, ROLAND D", 2007 CDC 2563,01/31/2007,Poss of Open Container of Alcohol,,,,,,,,,,,,,,,,,,,,,,,,,,,,,,,,,,
CDC,"RUSSELL, CURTIS LARNELL", 2007 CDC 2577,01/31/2007,Poss of Open Container of Alcohol,,,,,,,,,,,,,,,,,,,,,,,,,,,,,,,,,,
CDC,"GRAY, NEIL PATRICK", 2007 CDC 2601,01/31/2007,Disorderly Conduct,,,,,,,,,,,,,,,,,,,,,,,,,,,,,,,,,,
CDC,"JOHNS, LAWRENCE DEAN", 2007 CDC 2603,01/31/2007,Panhandling,,,,,,,,,,,,,,,,,,,,,,,,,,,,,,,,,,
CDC,"YEAGER, STEVEN C", 2007 CDC 2605,01/31/2007,,Poss of Open Container of Alcohol,,,,,,,,,,,,,,,,,,,,,,,,,,,,,,,,,
CDC,"CHASE, KEVIN TERRANCE", 2007 CDC 2618,01/31/2007,Fail to Obey Officer,,,,,,,,,,,,,,,,,,,,,,,,,,,,,,,,,,
CDC,"COLEMAN, TONY W", 2007 CDC 2641,01/31/2007,Disorderly Conduct,,,,,,,,,,,,,,,,,,,,,,,,,,,,,,,,,,
CDC,"ELLIS, WILLIE C", 2007 CDC 2642,01/31/2007,Poss of Open Container of Alcohol,,,,,,,,,,,,,,,,,,,,,,,,,,,,,,,,,,
CDC,"CURTIS, BRUCE ALONZO", 2007 CDC 2644,01/31/2007,Sale of Alcohol to Minor,,,,,,,,,,,,,,,,,,,,,,,,,,,,,,,,,,
CDC,"SONG, JUNG KYU", 2007 CDC 2645,01/31/2007,Sale of Alcohol to Minor,,,,,,,,,,,,,,,,,,,,,,,,,,,,,,,,,,
CDC,"COLEMAN, GEORGE T", 2007 CDC 2655,02/01/2007,Sale of Alcohol to Minor,,,,,,,,,,,,,,,,,,,,,,,,,,,,,,,,,,
CDC,"HATHAWAY, JULIA ROBERTSON", 2007 CDC 2657,02/01/2007,Dog Regulations,,,,,,,,,,,,,,,,,,,,,,,,,,,,,,,,,,
CDC,"WILKERSON, LEON DAVID", 2007 CDC 2669,02/01/2007,Poss of Open Container of Alcohol,,,,,,,,,,,,,,,,,,,,,,,,,,,,,,,,,,
CDC,"BROWN, JAMES E", 2007 CDC 2676,02/01/2007,Poss of Open Container of Alcohol,,,,,,,,,,,,,,,,,,,,,,,,,,,,,,,,,,
CDC,"ROYSTER, DEMITRIOUS", 2007 CDC 2736,02/01/2007,Poss of Open Container of Alcohol,,,,,,,,,,,,,,,,,,,,,,,,,,,,,,,,,,
CDC,"LEMON, VIOLET L", 2007 CDC 2738,02/01/2007,Poss of Open Container of Alcohol,,,,,,,,,,,,,,,,,,,,,,,,,,,,,,,,,,
CDC,"BELK, JOSEPH LEONARD", 2007 CDC 2739,02/01/2007,Indecent Exposure,,,,,,,,,,,,,,,,,,,,,,,,,,,,,,,,,,
CDC,"WORTHINGTON, NICHOLAS JABER", 2007 CDC 2743,02/01/2007,Deposit Rubbish,,,,,,,,,,,,,,,,,,,,,,,,,,,,,,,,,,
CDC,"AUSTIN, WAYNE HENRY", 2007 CDC 2744,02/01/2007,Disorderly-Urinating,,,,,,,,,,,,,,,,,,,,,,,,,,,,,,,,,,
CDC,"TATE, THOMAS", 2007 CDC 2754,02/01/2007,Disorderly Conduct,,,,,,,,,,,,,,,,,,,,,,,,,,,,,,,,,,
CDC,"CLAY, AVIS Z", 2007 CDC 2758,02/01/2007,Poss of Open Container of Alcohol,,,,,,,,,,,,,,,,,,,,,,,,,,,,,,,,,,
CDC,"BERRY, JOSEPH", 2007 CDC 2768,02/01/2007,Poss of Open Container of Alcohol,,,,,,,,,,,,,,,,,,,,,,,,,,,,,,,,,,
CDC,"BRUMFIELD Jr, HARVEY A", 2007 CDC 2847,02/02/2007,Disorderly Conduct,,,,,,,,,,,,,,,,,,,,,,,,,,,,,,,,,,
CDC,"CUMMACK, MICHA", 2007 CDC 2860,02/02/2007,Disorderly Conduct,,,,,,,,,,,,,,,,,,,,,,,,,,,,,,,,,,
CDC,"EDGEINGTON, RYAN DALE", 2007 CDC 2864,02/02/2007,Disorderly Conduct,,,,,,,,,,,,,,,,,,,,,,,,,,,,,,,,,,
CDC,"JOHNSON, MITCHELL", 2007 CDC 2866,02/02/2007,Poss of Open Container of Alcohol,,,,,,,,,,,,,,,,,,,,,,,,,,,,,,,,,,
CDC,"BATTLE, IVAN T", 2007 CDC 2873,02/02/2007,Poss of Open Container of Alcohol,,,,,,,,,,,,,,,,,,,,,,,,,,,,,,,,,,
CDC,"HUGHES, JOHN WESLEY", 2007 CDC 2889,02/03/2007,Poss of Open Container of Alcohol,,,,,,,,,,,,,,,,,,,,,,,,,,,,,,,,,,
CDC,"BOLLING, MARC", 2007 CDC 2890,02/03/2007,Poss of Open Container of Alcohol,,,,,,,,,,,,,,,,,,,,,,,,,,,,,,,,,,
CDC,"VAN-BUREN, STEVEN", 2007 CDC 2892,02/03/2007,Poss of Open Container of Alcohol,,,,,,,,,,,,,,,,,,,,,,,,,,,,,,,,,,
CDC,"BARNES, JOSEPH LORENZO", 2007 CDC 2893,02/03/2007,,Poss of Open Container of Alcohol,,,,,,,,,,,,,,,,,,,,,,,,,,,,,,,,,
CDC,"DESHIELDS, MICHAEL", 2007 CDC 2956,02/03/2007,Poss of Open Container of Alcohol,Fail to Obey Officer,,,,,,,,,,,,,,,,,,,,,,,,,,,,,,,,,
CDC,"WOODS, LEROY ALPHONZO", 2007 CDC 2965,02/05/2007,,Poss of Open Container of Alcohol,,,,,,,,,,,,,,,,,,,,,,,,,,,,,,,,,
CDC,"MOMENT, CARLA THERESA", 2007 CDC 2986,02/05/2007,Poss of Open Container of Alcohol,Disorderly-Urinating,,,,,,,,,,,,,,,,,,,,,,,,,,,,,,,,,
CDC,"WAYMER, RICKY", 2007 CDC 2991,02/05/2007,Poss of Open Container of Alcohol,,Poss of Open Container of Alcohol,Charge #3 insert in error,,,,,,,,,,,,,,,,,,,,,,,,,,,,,,,
CDC,"ATTAWAY, YVETTE", 2007 CDC 2995,02/05/2007,Poss of Open Container of Alcohol,,,,,,,,,,,,,,,,,,,,,,,,,,,,,,,,,,
CDC,"PERLATA, JOSE", 2007 CDC 2997,02/05/2007,Poss of Open Container of Alcohol,,,,,,,,,,,,,,,,,,,,,,,,,,,,,,,,,,
CDC,"LYON, THOMAS E", 2007 CDC 3000,02/05/2007,Disorderly Conduct,,,,,,,,,,,,,,,,,,,,,,,,,,,,,,,,,,
CDC,"DOE, JOHN NMN", 2007 CDC 3019,02/05/2007,Arrest Charge,,,,,,,,,,,,,,,,,,,,,,,,,,,,,,,,,,
CDC,"SCOTT, DANIEL D", 2007 CDC 3025,02/05/2007,Disorderly-Urinating,,,,,,,,,,,,,,,,,,,,,,,,,,,,,,,,,,
CDC,"WEBER, NATHAN BEECHER", 2007 CDC 3030,02/05/2007,Unlawful Poss Ammunition,,,,,,,,,,,,,,,,,,,,,,,,,,,,,,,,,,
CDC,"SEDWICK, DARRYL K", 2007 CDC 3039,02/05/2007,Poss of Open Container of Alcohol,,,,,,,,,,,,,,,,,,,,,,,,,,,,,,,,,,
CDC,"JONES, BEVERLY", 2007 CDC 3072,02/06/2007,Poss of Open Container of Alcohol,Arrest Charge,,,,,,,,,,,,,,,,,,,,,,,,,,,,,,,,,
CDC,"MOOYA, MILTON B", 2007 CDC 3109,02/06/2007,Poss of Open Container of Alcohol,,,,,,,,,,,,,,,,,,,,,,,,,,,,,,,,,,
CDC,"BOSTON, TROY", 2007 CDC 3115,02/06/2007,,Disorderly-Urinating,,,,,,,,,,,,,,,,,,,,,,,,,,,,,,,,,
CDC,"MARTIN, VELDIN", 2007 CDC 3122,02/06/2007,Fail to Obey Officer,,,,,,,,,,,,,,,,,,,,,,,,,,,,,,,,,,
CDC,"PELLER, SHIRLEY J", 2007 CDC 3125,02/06/2007,Disorderly Conduct,,,,,,,,,,,,,,,,,,,,,,,,,,,,,,,,,,
CDC,"BARFIELD, ELLEN ELIZABETH", 2007 CDC 3133,02/06/2007,Arrest Charge,,,,,,,,,,,,,,,,,,,,,,,,,,,,,,,,,,
CDC,"TETAZ, EVE LEONA", 2007 CDC 3144,02/06/2007,Arrest Charge,,,,,,,,,,,,,,,,,,,,,,,,,,,,,,,,,,
CDC,"BRASWELL, CHRISTOPHER", 2007 CDC 3146,02/06/2007,,,POCA,,,,,,,,,,,,,,,,,,,,,,,,,,,,,,,,
CDC,"MORRIS, CURTIS", 2007 CDC 3163,02/06/2007,Unlawful Poss of A Firearm,Unlawful Poss of A Firearm,Unlawful Poss Ammunition,Unlawful Poss Ammunition,,,,,,,,,,,,,,,,,,,,,,,,,,,,,,,
CDC,"CHOI, HONG S", 2007 CDC 3167,02/06/2007,Sale of Alcohol to Minor,,,,,,,,,,,,,,,,,,,,,,,,,,,,,,,,,,
CDC,"JOHNSON, DONALD CALVIN", 2007 CDC 3202,02/06/2007,Poss of Open Container of Alcohol,,,,,,,,,,,,,,,,,,,,,,,,,,,,,,,,,,
CDC,"DUCKETT, TYRONE B", 2007 CDC 3204,02/06/2007,Poss of Open Container of Alcohol,,,,,,,,,,,,,,,,,,,,,,,,,,,,,,,,,,
CDC,"WALDRON, RODWYN JOHN", 2007 CDC 3268,02/07/2007,Poss of Open Container of Alcohol,,,,,,,,,,,,,,,,,,,,,,,,,,,,,,,,,,
CDC,"MELSON, KEVIN LEE", 2007 CDC 3274,02/07/2007,Poss of Open Container of Alcohol,,,,,,,,,,,,,,,,,,,,,,,,,,,,,,,,,,
CDC,"HARDEN, DEANTE", 2007 CDC 3277,02/07/2007,,Unlawful Poss of A Firearm,Unlawful Poss Ammunition,,,,,,,,,,,,,,,,,,,,,,,,,,,,,,,,
CDC,"WEST, WISSON", 2007 CDC 3324,02/08/2007,Arrest Charge,,,,,,,,,,,,,,,,,,,,,,,,,,,,,,,,,,
CDC,"MURILLO, MARCOS RAMON", 2007 CDC 3329,02/08/2007,Drinking In Public,Drinking In Public,,,,,,,,,,,,,,,,,,,,,,,,,,,,,,,,,
CDC,"MONTAQUE, LEON OBRIEN", 2007 CDC 3339,02/08/2007,Poss of Open Container of Alcohol,Drinking In Public,,,,,,,,,,,,,,,,,,,,,,,,,,,,,,,,,
CDC,"SHIELDS, KEITH E", 2007 CDC 3341,02/08/2007,Drinking In Public,Drinking In Public,,,,,,,,,,,,,,,,,,,,,,,,,,,,,,,,,
CDC,"LOCKLEAR, CHRISTOPHER L", 2007 CDC 3346,02/08/2007,,Fail to Pay Cab Fare,,,,,,,,,,,,,,,,,,,,,,,,,,,,,,,,,
CDC,"WALKER, CLARENCE NMN", 2007 CDC 3350,02/08/2007,Poss of Open Container of Alcohol,,,,,,,,,,,,,,,,,,,,,,,,,,,,,,,,,,
CDC,"CAUTHEN, AARON NEAL", 2007 CDC 3365,02/08/2007,Poss of Open Container of Alcohol,,,,,,,,,,,,,,,,,,,,,,,,,,,,,,,,,,
CDC,"CORBIN, CHRISTOPHER JAY", 2007 CDC 3369,02/09/2007,Poss of Open Container of Alcohol,,,,,,,,,,,,,,,,,,,,,,,,,,,,,,,,,,
CDC,"ROBIN, LAWRENCE K", 2007 CDC 3371,02/09/2007,Poss of Open Container of Alcohol,,,,,,,,,,,,,,,,,,,,,,,,,,,,,,,,,,
CDC,"STEWART, ELVIS RAPHAEL", 2007 CDC 3373,02/09/2007,Drinking In Public,Poss of Open Container of Alcohol,,,,,,,,,,,,,,,,,,,,,,,,,,,,,,,,,
CDC,"BANGURA, ISATU M", 2007 CDC 3374,02/09/2007,Vending In An Unauthorized Geographical Area,,,,,,,,,,,,,,,,,,,,,,,,,,,,,,,,,,
CDC,"THONET, ALICIA MARIE", 2007 CDC 3376,02/09/2007,Poss of Open Container of Alcohol,,,,,,,,,,,,,,,,,,,,,,,,,,,,,,,,,,
CDC,"HOUGH, JOHN SHELTON", 2007 CDC 3377,02/09/2007,Poss of Open Container of Alcohol,,,,,,,,,,,,,,,,,,,,,,,,,,,,,,,,,,
CDC,"REESE, TERRY D", 2007 CDC 3378,02/09/2007,Poss of Open Container of Alcohol,,,,,,,,,,,,,,,,,,,,,,,,,,,,,,,,,,
CDC,"FONTAINE, JOAN", 2007 CDC 3407,02/09/2007,Arrest Charge,,,,,,,,,,,,,,,,,,,,,,,,,,,,,,,,,,
CDC,"CLINTON, COREY W", 2007 CDC 3431,02/09/2007,Fail to Pay Cab Fare,,,,,,,,,,,,,,,,,,,,,,,,,,,,,,,,,,
CDC,"WHITE, CHARLES CHESTER", 2007 CDC 3432,02/09/2007,,Poss of Open Container of Alcohol,,,,,,,,,,,,,,,,,,,,,,,,,,,,,,,,,
CDC,"JENKINS, BRENDA", 2007 CDC 3452,02/09/2007,Fail to Report Child Abuse,,,,,,,,,,,,,,,,,,,,,,,,,,,,,,,,,,
CDC,"FAUSTIN, REMY", 2007 CDC 3494,02/10/2007,Disorderly Conduct,,,,,,,,,,,,,,,,,,,,,,,,,,,,,,,,,,
CDC,"CARTER, JERMAINE R", 2007 CDC 3521,02/10/2007,,Poss of Open Container of Alcohol,,,,,,,,,,,,,,,,,,,,,,,,,,,,,,,,,
CDC,"WHITE, RICHARD E", 2007 CDC 3524,02/10/2007,Disorderly Conduct,,,,,,,,,,,,,,,,,,,,,,,,,,,,,,,,,,
CDC,"ROYAL, JAMEL D", 2007 CDC 3530,02/10/2007,,Poss of Open Container of Alcohol,,,,,,,,,,,,,,,,,,,,,,,,,,,,,,,,,
CDC,"BROADWATER, MARCELL", 2007 CDC 3588,02/12/2007,Disorderly Conduct,Panhandling,Panhandling,,,,,,,,,,,,,,,,,,,,,,,,,,,,,,,,
CDC,"ANDREWS, MELINDA A", 2007 CDC 3603,02/12/2007,Poss of Open Container of Alcohol,,,,,,,,,,,,,,,,,,,,,,,,,,,,,,,,,,
CDC,"SNEED, LESLIE", 2007 CDC 3607,02/12/2007,Fail to Obey Officer,Poss of Open Container of Alcohol,,,,,,,,,,,,,,,,,,,,,,,,,,,,,,,,,
CDC,"BARRE, LIBAN F", 2007 CDC 3629,02/12/2007,Disorderly Conduct,,,,,,,,,,,,,,,,,,,,,,,,,,,,,,,,,,
CDC,"CLANTON, JOE ARTHUR", 2007 CDC 3639,02/12/2007,Poss of Open Container of Alcohol,,,,,,,,,,,,,,,,,,,,,,,,,,,,,,,,,,
CDC,"DAY, GERALD D", 2007 CDC 3642,02/12/2007,,,,,,,,,,,,,,,,,,,,,,,,,,,,,,,,,,,
CDC,"ATKINS, AKIA STAR", 2007 CDC 3644,02/12/2007,Poss of Open Container of Alcohol,,,,,,,,,,,,,,,,,,,,,,,,,,,,,,,,,,
CDC,"WILLIAMS, KERRY LEONARD", 2007 CDC 3658,02/13/2007,Disorderly-Urinating,,,,,,,,,,,,,,,,,,,,,,,,,,,,,,,,,,
CDC,"GARTRELL, MELVIN J", 2007 CDC 3662,02/13/2007,Disorderly-Urinating,,,,,,,,,,,,,,,,,,,,,,,,,,,,,,,,,,
CDC,"GOLDSBERRY, JAMES E", 2007 CDC 3677,02/13/2007,Poss of Open Container of Alcohol,,,,,,,,,,,,,,,,,,,,,,,,,,,,,,,,,,
CDC,"CARTER, ERIC", 2007 CDC 3710,02/13/2007,Poss of Open Container of Alcohol,,,,,,,,,,,,,,,,,,,,,,,,,,,,,,,,,,
CDC,"PARKER, FELICIA", 2007 CDC 3714,02/13/2007,Poss of Open Container of Alcohol,,,,,,,,,,,,,,,,,,,,,,,,,,,,,,,,,,
CDC,"FAVORS, ALAN", 2007 CDC 3737,02/13/2007,Poss of Open Container of Alcohol,,,,,,,,,,,,,,,,,,,,,,,,,,,,,,,,,,
CDC,"WALKER, ROBERT JAMES", 2007 CDC 3761,02/14/2007,Poss of Open Container of Alcohol,,,,,,,,,,,,,,,,,,,,,,,,,,,,,,,,,,
CDC,"FULMORE, AMINAH", 2007 CDC 3765,02/14/2007,Poss of Open Container of Alcohol,,,,,,,,,,,,,,,,,,,,,,,,,,,,,,,,,,
CDC,"JONES, DANIELLE", 2007 CDC 3772,02/14/2007,Poss of Open Container of Alcohol,,,,,,,,,,,,,,,,,,,,,,,,,,,,,,,,,,
CDC,"MEEKS, ERVING VANCE", 2007 CDC 3776,02/14/2007,Poss of Open Container of Alcohol,,,,,,,,,,,,,,,,,,,,,,,,,,,,,,,,,,
CDC,"BOST, THEIRON DARNELL", 2007 CDC 3780,02/14/2007,Disorderly Conduct,,,,,,,,,,,,,,,,,,,,,,,,,,,,,,,,,,
CDC,"SPILLMAN, TERRENCE RAMON", 2007 CDC 3803,02/14/2007,Disorderly-Urinating,,,,,,,,,,,,,,,,,,,,,,,,,,,,,,,,,,
CDC,"DAVIS, JERMILE DAMON", 2007 CDC 3825,02/06/2007,Arrest Charge,,,,,,,,,,,,,,,,,,,,,,,,,,,,,,,,,,
CDC,"BROWN, BOBBY", 2007 CDC 3870,02/15/2007,Poss of Open Container of Alcohol,,,,,,,,,,,,,,,,,,,,,,,,,,,,,,,,,,
CDC,"HEU, HOWARD", 2007 CDC 3898,02/15/2007,Arrest Charge,,,,,,,,,,,,,,,,,,,,,,,,,,,,,,,,,,
CDC,"JACKSON, ELBERT STANTON", 2007 CDC 3952,02/16/2007,,,Poss of Open Container of Alcohol,,,,,,,,,,,,,,,,,,,,,,,,,,,,,,,,
CDC,"RUCKER, MICHARL A", 2007 CDC 3956,02/16/2007,Poss of Open Container of Alcohol,,,,,,,,,,,,,,,,,,,,,,,,,,,,,,,,,,
CDC,"CHANDLER, TRESHA", 2007 CDC 3959,02/16/2007,Poss of Open Container of Alcohol,,,,,,,,,,,,,,,,,,,,,,,,,,,,,,,,,,
CDC,"MILLS Sr, ANTHONY S", 2007 CDC 3964,02/16/2007,Poss of Open Container of Alcohol,,,,,,,,,,,,,,,,,,,,,,,,,,,,,,,,,,
CDC,"GEBERMICHAEL, SOLOMON K", 2007 CDC 3968,02/16/2007,Unlicensed Hacker,,,,,,,,,,,,,,,,,,,,,,,,,,,,,,,,,,
CDC,"ROBINSON, CATHERINE", 2007 CDC 3973,02/16/2007,Arrest Charge,,False Statements,D.C. CODE 4-218.01,,,,,,,,,,,,,,,,,,,,,,,,,,,,,,,
CDC,"AVERY, JAMES E", 2007 CDC 3977,02/16/2007,Poss of Open Container of Alcohol,,,,,,,,,,,,,,,,,,,,,,,,,,,,,,,,,,
CDC,"ANDERSON, MAURICE", 2007 CDC 3979,02/16/2007,Disorderly-Urinating,,,,,,,,,,,,,,,,,,,,,,,,,,,,,,,,,,
CDC,"WILSON, LEROY", 2007 CDC 4001,02/17/2007,Poss of Open Container of Alcohol,,,,,,,,,,,,,,,,,,,,,,,,,,,,,,,,,,
CDC,"COOPER, CHRISTIAN", 2007 CDC 4007,02/17/2007,Poss of Open Container of Alcohol,,,,,,,,,,,,,,,,,,,,,,,,,,,,,,,,,,
CDC,"DUDLEY, RHASHA", 2007 CDC 4040,02/17/2007,,Disorderly Conduct,,,,,,,,,,,,,,,,,,,,,,,,,,,,,,,,,
CDC,"COOKS, MICAH D", 2007 CDC 4042,02/17/2007,Drinking In Public,Fail to Obey Officer,Fail to Make ID Known - Pedestrian,,,,,,,,,,,,,,,,,,,,,,,,,,,,,,,,
CDC,"STANLEY, ROBERT T", 2007 CDC 4055,02/17/2007,Unlawful Poss Ammunition,,,,,,,,,,,,,,,,,,,,,,,,,,,,,,,,,,
CDC,"KEMP, CHRISTOPHER DARRELL", 2007 CDC 4093,02/19/2007,Disorderly Conduct,,,,,,,,,,,,,,,,,,,,,,,,,,,,,,,,,,
CDC,"ASSEFA, AMNUEL", 2007 CDC 4095,02/19/2007,Disorderly Conduct,,,,,,,,,,,,,,,,,,,,,,,,,,,,,,,,,,
CDC,"WILLIAMS, IRVING MCKINLEY", 2007 CDC 4101,02/19/2007,Poss of Open Container of Alcohol,,,,,,,,,,,,,,,,,,,,,,,,,,,,,,,,,,
CDC,"ZIMMERMAN, CEDRIC", 2007 CDC 4104,02/19/2007,Poss of Open Container of Alcohol,,,,,,,,,,,,,,,,,,,,,,,,,,,,,,,,,,
CDC,"SNEED, STEVEN A", 2007 CDC 4124,02/19/2007,Poss of Open Container of Alcohol,,,,,,,,,,,,,,,,,,,,,,,,,,,,,,,,,,
