type,person,number,date,charge_1,charge_2,charge_3,charge_4,charge_5,charge_6,charge_7,charge_8,charge_9,charge_10,charge_11,charge_12,charge_13,charge_14,charge_15,charge_16,charge_17,charge_18,charge_19,charge_20,charge_21,charge_22,charge_23,charge_24,charge_25,charge_26,charge_27,charge_28,charge_29,charge_30,charge_31,charge_32,charge_33,charge_34,charge_35
CMD,"AJANEL, ELMER JERICO", 2007 CMD 28322,12/10/2007,Simple Assault,,,,,,,,,,,,,,,,,,,,,,,,,,,,,,,,,,
CMD,"SAVOY, FAITH", 2007 CMD 28323,12/10/2007,Poss of a Controlled Substance -Misd,,,,,,,,,,,,,,,,,,,,,,,,,,,,,,,,,,
CMD,"KNOTT, THOMAS D", 2007 CMD 28326,12/10/2007,Poss of a Controlled Substance -Misd,,,,,,,,,,,,,,,,,,,,,,,,,,,,,,,,,,
CMD,"KNIGHT, THADDEUS W", 2007 CMD 28327,12/10/2007,Poss of a Controlled Substance -Misd,,,,,,,,,,,,,,,,,,,,,,,,,,,,,,,,,,
CMD,"BROWN, ANTWONNE DELONTA", 2007 CMD 28328,12/10/2007,Poss W/I to Dist Marijuana-Misd,Poss of a Controlled Substance -Misd,Unlawful Poss Ammunition,Poss Drug Paraphernalia-Misd,,,,,,,,,,,,,,,,,,,,,,,,,,,,,,,
CMD,"GREENE, ANTHONY R", 2007 CMD 28329,12/10/2007,Theft Second Degree,Receiving Stolen Property-Misd,,,,,,,,,,,,,,,,,,,,,,,,,,,,,,,,,
CMD,"WIGGINS, LEANN M", 2007 CMD 28333,12/10/2007,Sexual Solicitation,,,,,,,,,,,,,,,,,,,,,,,,,,,,,,,,,,
CMD,"JOHNSON, VORIS S", 2007 CMD 28336,12/10/2007,Assault On A Police Officer,Threats to Do Bodily Harm -Misd,,,,,,,,,,,,,,,,,,,,,,,,,,,,,,,,,
CMD,"WARD, JERMAINE GARY", 2007 CMD 28337,12/10/2007,Poss of a Controlled Substance -Misd,,,,,,,,,,,,,,,,,,,,,,,,,,,,,,,,,,
CMD,"LEWIS, HARVEY", 2007 CMD 28338,12/10/2007,Poss of a Controlled Substance -Misd,Poss Drug Paraphernalia-Misd,Attempted Threats to Do Bodily Harm -Misd,,,,,,,,,,,,,,,,,,,,,,,,,,,,,,,,
CMD,"TINKER, MICHAEL PATRICK", 2007 CMD 28340,12/10/2007,Assault On A Police Officer,Assault On A Police Officer,Assault On A Police Officer,,,,,,,,,,,,,,,,,,,,,,,,,,,,,,,,
CMD,"ROGERS, VICTOR G", 2007 CMD 28342,12/10/2007,Assault On A Police Officer,Poss Drug Paraphernalia-Misd,,,,,,,,,,,,,,,,,,,,,,,,,,,,,,,,,
CMD,"CAMPBELL, PAUL CHRISTOPHER", 2007 CMD 28344,12/10/2007,Poss of a Controlled Substance -Misd,Poss Drug Paraphernalia-Misd,,,,,,,,,,,,,,,,,,,,,,,,,,,,,,,,,
CMD,"CONNELLEY Jr, AARON B", 2007 CMD 28351,12/10/2007,Poss of a Controlled Substance -Misd,Poss of a Controlled Substance -Misd,Poss of a Controlled Substance -Misd,Poss of a Controlled Substance -Misd,,,,,,,,,,,,,,,,,,,,,,,,,,,,,,,
CMD,"SLATER, THERON RICARDO", 2007 CMD 28352,12/10/2007,Poss of a Controlled Substance -Misd,,,,,,,,,,,,,,,,,,,,,,,,,,,,,,,,,,
CMD,"AGODO, GAMELI", 2007 CMD 28355,12/10/2007,Sexual Solicitation,,,,,,,,,,,,,,,,,,,,,,,,,,,,,,,,,,
CMD,"SCOTT, DEWAYNE ALLAN", 2007 CMD 28357,12/10/2007,Sexual Solicitation,,,,,,,,,,,,,,,,,,,,,,,,,,,,,,,,,,
CMD,"PROCTOR, TERRENCE ROBERT", 2007 CMD 28359,12/10/2007,Sexual Solicitation,,,,,,,,,,,,,,,,,,,,,,,,,,,,,,,,,,
CMD,"POINTER, ANTHONY", 2007 CMD 28361,12/10/2007,Poss of a Controlled Substance -Misd,,,,,,,,,,,,,,,,,,,,,,,,,,,,,,,,,,
CMD,"LEMAR, JAMES VICTOR", 2007 CMD 28362,12/10/2007,Sexual Solicitation,,,,,,,,,,,,,,,,,,,,,,,,,,,,,,,,,,
CMD,"WOOD, TYRONE", 2007 CMD 28364,12/10/2007,Sexual Solicitation,,,,,,,,,,,,,,,,,,,,,,,,,,,,,,,,,,
CMD,"RADCLIFF, MICHAEL EUGENE", 2007 CMD 28365,12/10/2007,Theft Second Degree,,,,,,,,,,,,,,,,,,,,,,,,,,,,,,,,,,
CMD,"HOWARD, AVA NICOLE", 2007 CMD 28367,12/10/2007,Assault On A Police Officer,,,,,,,,,,,,,,,,,,,,,,,,,,,,,,,,,,
CMD,"SNOWDEN, KENDALL", 2007 CMD 28369,12/10/2007,Theft Second Degree,,,,,,,,,,,,,,,,,,,,,,,,,,,,,,,,,,
CMD,"GIBSEN, LISA", 2007 CMD 28371,12/10/2007,Bail Reform Act -Misd,,,,,,,,,,,,,,,,,,,,,,,,,,,,,,,,,,
CMD,"NEWNUM, CURTIS GENE", 2007 CMD 28373,12/10/2007,Poss of a Controlled Substance -Misd,,,,,,,,,,,,,,,,,,,,,,,,,,,,,,,,,,
CMD,"JACKSON, AARON D", 2007 CMD 28376,12/10/2007,Poss of a Controlled Substance -Misd,,,,,,,,,,,,,,,,,,,,,,,,,,,,,,,,,,
CMD,"DORMAN, RICHARD J", 2007 CMD 28381,12/10/2007,Bail Reform Act -Misd,,,,,,,,,,,,,,,,,,,,,,,,,,,,,,,,,,
CMD,"OLOWOFOYEKU, AKINTOLA KENNETH", 2007 CMD 28383,12/10/2007,Threats to Do Bodily Harm -Misd,,,,,,,,,,,,,,,,,,,,,,,,,,,,,,,,,,
CMD,"RICE, MARCUS D", 2007 CMD 28385,12/10/2007,Sex Abuse- Misd,Sex Abuse- Misd,Sex Abuse- Misd,Sex Abuse- Misd,,,,,,,,,,,,,,,,,,,,,,,,,,,,,,,
CMD,"RADCLIFFE, EUGENE T", 2007 CMD 28392,12/10/2007,Bail Reform Act -Misd,,,,,,,,,,,,,,,,,,,,,,,,,,,,,,,,,,
CMD,"HABTAMU, DANIEL WOUBETU", 2007 CMD 28393,12/10/2007,Contempt,,,,,,,,,,,,,,,,,,,,,,,,,,,,,,,,,,
CMD,"RUSH, ISAAC D", 2007 CMD 28394,12/10/2007,Theft Second Degree,,,,,,,,,,,,,,,,,,,,,,,,,,,,,,,,,,
CMD,"THOMAS, ROBERT JEROME", 2007 CMD 28395,12/10/2007,Bail Reform Act -Misd,,,,,,,,,,,,,,,,,,,,,,,,,,,,,,,,,,
CMD,"ABBOTT, RICKY A", 2007 CMD 28407,12/11/2007,Poss of a Controlled Substance -Misd,,,,,,,,,,,,,,,,,,,,,,,,,,,,,,,,,,
CMD,"ATKINSON, MARJORIE L", 2007 CMD 28409,12/11/2007,Unlawful Entry,,,,,,,,,,,,,,,,,,,,,,,,,,,,,,,,,,
CMD,"MARTIN, LEON N", 2007 CMD 28411,12/11/2007,Poss of a Controlled Substance -Misd,Poss of a Controlled Substance -Misd,,,,,,,,,,,,,,,,,,,,,,,,,,,,,,,,,
CMD,"MOORE, JOHN", 2007 CMD 28414,12/11/2007,Poss of a Controlled Substance -Misd,,,,,,,,,,,,,,,,,,,,,,,,,,,,,,,,,,
CMD,"COOK, DELONTE", 2007 CMD 28415,12/11/2007,Poss of a Controlled Substance -Misd,,,,,,,,,,,,,,,,,,,,,,,,,,,,,,,,,,
CMD,"FORTE, LINWOOD E", 2007 CMD 28425,12/11/2007,Theft Second Degree,,,,,,,,,,,,,,,,,,,,,,,,,,,,,,,,,,
CMD,"DUVALL, MICHAEL NMN", 2007 CMD 28426,12/11/2007,Poss of a Controlled Substance -Misd,,,,,,,,,,,,,,,,,,,,,,,,,,,,,,,,,,
CMD,"REEVES, MERRILL J", 2007 CMD 28435,12/11/2007,Poss of a Controlled Substance -Misd,,,,,,,,,,,,,,,,,,,,,,,,,,,,,,,,,,
CMD,"SMITH, BONITA", 2007 CMD 28437,12/11/2007,Unlawful Entry,Poss of a Controlled Substance -Misd,,,,,,,,,,,,,,,,,,,,,,,,,,,,,,,,,
CMD,"LI, KWOK P", 2007 CMD 28438,12/11/2007,Poss of a Controlled Substance -Misd,,,,,,,,,,,,,,,,,,,,,,,,,,,,,,,,,,
CMD,"BURNETT, ALFRED D", 2007 CMD 28442,12/11/2007,Unlawful Entry,Poss Drug Paraphernalia-Misd,,,,,,,,,,,,,,,,,,,,,,,,,,,,,,,,,
CMD,"GIBSON, ANDRE DONNELL", 2007 CMD 28443,12/11/2007,Poss of a Controlled Substance -Misd,Poss of a Controlled Substance -Misd,Destruction of Property less than $200,,,,,,,,,,,,,,,,,,,,,,,,,,,,,,,,
CMD,"COLEMAN, ALFRED", 2007 CMD 28444,12/11/2007,Poss of a Controlled Substance -Misd,,,,,,,,,,,,,,,,,,,,,,,,,,,,,,,,,,
CMD,"RAYMOND, KENYA DIONE", 2007 CMD 28446,12/11/2007,Poss of a Controlled Substance -Misd,Poss of a Controlled Substance -Misd,Poss Drug Paraphernalia W/I to Use,,,,,,,,,,,,,,,,,,,,,,,,,,,,,,,,
CMD,"WATSON, KAREN R", 2007 CMD 28448,12/11/2007,Sexual Solicitation,,,,,,,,,,,,,,,,,,,,,,,,,,,,,,,,,,
CMD,"PRYOR, VERNON EARL", 2007 CMD 28449,12/11/2007,Theft Second Degree,,,,,,,,,,,,,,,,,,,,,,,,,,,,,,,,,,
CMD,"RICHARDS, GARY W", 2007 CMD 28454,12/11/2007,Poss of a Controlled Substance -Misd,Poss of a Controlled Substance -Misd,Poss Drug Paraphernalia W/I to Use,,,,,,,,,,,,,,,,,,,,,,,,,,,,,,,,
CMD,"HOLCOMB, CARLOS", 2007 CMD 28455,12/11/2007,Poss of a Controlled Substance -Misd,,,,,,,,,,,,,,,,,,,,,,,,,,,,,,,,,,
CMD,"PERKINS, LESLIE RENEE", 2007 CMD 28468,12/11/2007,Sexual Solicitation,,,,,,,,,,,,,,,,,,,,,,,,,,,,,,,,,,
CMD,"TURNER, MARK", 2007 CMD 28469,12/11/2007,Sexual Solicitation,,,,,,,,,,,,,,,,,,,,,,,,,,,,,,,,,,
CMD,"LEWIS, WAYNE D", 2007 CMD 28477,12/11/2007,Deceptive Labeling - Misd,,,,,,,,,,,,,,,,,,,,,,,,,,,,,,,,,,
CMD,"CHAMBERS, FRANK", 2007 CMD 28484,12/11/2007,Sexual Solicitation,,,,,,,,,,,,,,,,,,,,,,,,,,,,,,,,,,
CMD,"BUSH, DAVID", 2007 CMD 28487,12/11/2007,Sexual Solicitation,,,,,,,,,,,,,,,,,,,,,,,,,,,,,,,,,,
CMD,"CLARIO-MARTINEZ, ADRIAN", 2007 CMD 28490,12/11/2007,Sexual Solicitation,,,,,,,,,,,,,,,,,,,,,,,,,,,,,,,,,,
CMD,"REYES, RUBEN", 2007 CMD 28492,12/11/2007,Sexual Solicitation,,,,,,,,,,,,,,,,,,,,,,,,,,,,,,,,,,
CMD,"JOHNSON, JOE L", 2007 CMD 28494,12/11/2007,Sexual Solicitation,,,,,,,,,,,,,,,,,,,,,,,,,,,,,,,,,,
CMD,"ROBERTSON, VANCE MARCELL", 2007 CMD 28497,12/11/2007,Sexual Solicitation,,,,,,,,,,,,,,,,,,,,,,,,,,,,,,,,,,
CMD,"RODNEY, ALVIN L", 2007 CMD 28502,12/11/2007,Sexual Solicitation,,,,,,,,,,,,,,,,,,,,,,,,,,,,,,,,,,
CMD,"YOUNG, JEROME M", 2007 CMD 28504,12/11/2007,Sexual Solicitation,,,,,,,,,,,,,,,,,,,,,,,,,,,,,,,,,,
CMD,"RANA, IRFAN ALI", 2007 CMD 28505,12/11/2007,Sexual Solicitation,,,,,,,,,,,,,,,,,,,,,,,,,,,,,,,,,,
CMD,"FELDER, JOMEL FORREST", 2007 CMD 28506,12/11/2007,Sexual Solicitation,,,,,,,,,,,,,,,,,,,,,,,,,,,,,,,,,,
CMD,"FUENTES, MARVIN", 2007 CMD 28510,12/11/2007,Bail Reform Act -Misd,,,,,,,,,,,,,,,,,,,,,,,,,,,,,,,,,,
CMD,"PITTMAN Jr, ELTON L", 2007 CMD 28523,12/12/2007,Poss of a Controlled Substance -Misd,Poss of a Controlled Substance -Misd,,,,,,,,,,,,,,,,,,,,,,,,,,,,,,,,,
CMD,"CRUSOE, ANTHONY W", 2007 CMD 28526,12/12/2007,Poss of a Controlled Substance -Misd,,,,,,,,,,,,,,,,,,,,,,,,,,,,,,,,,,
CMD,"DUNLAP, WILLIAM MICHAEL", 2007 CMD 28530,12/12/2007,Simple Assault,,,,,,,,,,,,,,,,,,,,,,,,,,,,,,,,,,
CMD,"ELDRIDGE, BILLY", 2007 CMD 28531,12/12/2007,Contempt,,,,,,,,,,,,,,,,,,,,,,,,,,,,,,,,,,
CMD,"JONES, EDWARD", 2007 CMD 28533,12/12/2007,Unlawful Entry,,,,,,,,,,,,,,,,,,,,,,,,,,,,,,,,,,
CMD,"WHITFIELD, CHRISTOPHER", 2007 CMD 28538,12/12/2007,Poss of a Controlled Substance -Misd,,,,,,,,,,,,,,,,,,,,,,,,,,,,,,,,,,
CMD,"LATTIMORE, SANDRA M", 2007 CMD 28540,12/12/2007,Sexual Solicitation,,,,,,,,,,,,,,,,,,,,,,,,,,,,,,,,,,
CMD,"DUDLEY, CLARENCE H", 2007 CMD 28541,12/12/2007,Poss of a Controlled Substance -Misd,,,,,,,,,,,,,,,,,,,,,,,,,,,,,,,,,,
CMD,"KEYMIST, DYWAYNE NATHANIEL", 2007 CMD 28543,12/12/2007,Poss of a Controlled Substance -Misd,,,,,,,,,,,,,,,,,,,,,,,,,,,,,,,,,,
CMD,"WHITE, CARL PHILLIPH", 2007 CMD 28546,12/12/2007,Simple Assault,,,,,,,,,,,,,,,,,,,,,,,,,,,,,,,,,,
CMD,"MILLER, ALBERT L", 2007 CMD 28548,12/12/2007,Theft Second Degree,Theft Second Degree,,,,,,,,,,,,,,,,,,,,,,,,,,,,,,,,,
CMD,"MILLER, ROGER GERALD", 2007 CMD 28550,12/12/2007,Theft Second Degree,Theft Second Degree,,,,,,,,,,,,,,,,,,,,,,,,,,,,,,,,,
CMD,"MONTES, JAIME", 2007 CMD 28553,12/12/2007,Poss Prohibited Weapon -Knife,,,,,,,,,,,,,,,,,,,,,,,,,,,,,,,,,,
CMD,"SINKFIELD, TYRONE", 2007 CMD 28560,12/12/2007,Poss of a Controlled Substance -Misd,Poss of a Controlled Substance -Misd,,,,,,,,,,,,,,,,,,,,,,,,,,,,,,,,,
CMD,"BURLEY, RAYMOND FRANKLIN", 2007 CMD 28563,12/12/2007,Poss of a Controlled Substance -Misd,Poss Drug Paraphernalia-Misd,,,,,,,,,,,,,,,,,,,,,,,,,,,,,,,,,
CMD,"MCWHORTER, CLIFFORD JR", 2007 CMD 28565,12/12/2007,Receiving Stolen Property-Misd,Destruction of Property less than $200,Receiving Stolen Property-Misd,,,,,,,,,,,,,,,,,,,,,,,,,,,,,,,,
CMD,"WHITE, WENDELL", 2007 CMD 28566,12/12/2007,Sexual Solicitation,,,,,,,,,,,,,,,,,,,,,,,,,,,,,,,,,,
CMD,"WELLER, WILLIAM T", 2007 CMD 28570,12/12/2007,Arrest Charge,Arrest Charge,,,,,,,,,,,,,,,,,,,,,,,,,,,,,,,,,
CMD,"COWARD, SHAWN NMN", 2007 CMD 28579,12/12/2007,Sexual Solicitation,,,,,,,,,,,,,,,,,,,,,,,,,,,,,,,,,,
CMD,"SCALES, GILBERT S", 2007 CMD 28581,12/12/2007,Simple Assault,Simple Assault,Poss Prohibited Weapon -Knife,,,,,,,,,,,,,,,,,,,,,,,,,,,,,,,,
CMD,"POOLE, MELISSA", 2007 CMD 28583,12/12/2007,Contempt,,,,,,,,,,,,,,,,,,,,,,,,,,,,,,,,,,
CMD,"HARDING, TIFFANY M", 2007 CMD 28584,12/12/2007,Unlawful Entry,,,,,,,,,,,,,,,,,,,,,,,,,,,,,,,,,,
CMD,"WINCHESTER, LESLIE", 2007 CMD 28586,12/12/2007,Unlawful Entry,,,,,,,,,,,,,,,,,,,,,,,,,,,,,,,,,,
CMD,"CARTER, CHRISTOPHER M", 2007 CMD 28587,12/12/2007,Unlawful Entry,,,,,,,,,,,,,,,,,,,,,,,,,,,,,,,,,,
CMD,"WILBURN, BARRY T", 2007 CMD 28590,12/12/2007,Unlawful Entry,,,,,,,,,,,,,,,,,,,,,,,,,,,,,,,,,,
CMD,"TAYLOR, SAMUEL P", 2007 CMD 28591,12/12/2007,Unlawful Entry,,,,,,,,,,,,,,,,,,,,,,,,,,,,,,,,,,
CMD,, 2007 CMD 28595,12/12/2007,Bail Reform Act -Misd,Bail Reform Act -Misd,Bail Reform Act -Misd,,,,,,,,,,,,,,,,,,,,,,,,,,,,,,,,
CMD,"POOLE, MELISSA", 2007 CMD 28600,12/12/2007,Bail Reform Act -Misd,,,,,,,,,,,,,,,,,,,,,,,,,,,,,,,,,,
CMD,"SEWELL, DORRAY ELIZABETH", 2007 CMD 28601,12/12/2007,Sexual Solicitation,,,,,,,,,,,,,,,,,,,,,,,,,,,,,,,,,,
CMD,"GROSS, RHONDA M", 2007 CMD 28602,12/12/2007,Bail Reform Act -Misd,Bail Reform Act -Misd,,,,,,,,,,,,,,,,,,,,,,,,,,,,,,,,,
CMD,"FORREST, SANITA N", 2007 CMD 28604,12/12/2007,Sexual Solicitation,,,,,,,,,,,,,,,,,,,,,,,,,,,,,,,,,,
CMD,"JENKINS, YVETTE R", 2007 CMD 28605,12/12/2007,Sexual Solicitation,,,,,,,,,,,,,,,,,,,,,,,,,,,,,,,,,,
CMD,"MATTHEWS, CHRISTAL", 2007 CMD 28606,12/12/2007,Sexual Solicitation,,,,,,,,,,,,,,,,,,,,,,,,,,,,,,,,,,
CMD,"ZAME, YVETTE", 2007 CMD 28607,12/12/2007,Sexual Solicitation,,,,,,,,,,,,,,,,,,,,,,,,,,,,,,,,,,
CMD,"JENKINS, YVETTE RAKATIA", 2007 CMD 28608,12/12/2007,Bail Reform Act -Misd,,,,,,,,,,,,,,,,,,,,,,,,,,,,,,,,,,
CMD,"DOWDY, CHARLENE E", 2007 CMD 28609,12/12/2007,Bail Reform Act -Misd,,,,,,,,,,,,,,,,,,,,,,,,,,,,,,,,,,
CMD,"JACKSON, FRIDAY KAY", 2007 CMD 28611,12/12/2007,Bail Reform Act -Misd,,,,,,,,,,,,,,,,,,,,,,,,,,,,,,,,,,
CMD,"COLEMAN, VINCENT Z", 2007 CMD 28612,12/12/2007,Bail Reform Act -Misd,,,,,,,,,,,,,,,,,,,,,,,,,,,,,,,,,,
CMD,"BLAND, KENDRIA C", 2007 CMD 28613,12/12/2007,Sexual Solicitation,,,,,,,,,,,,,,,,,,,,,,,,,,,,,,,,,,
CMD,"NORRIS, JOSEPH BRENNAN", 2007 CMD 28614,12/12/2007,Poss of a Controlled Substance -Misd,,,,,,,,,,,,,,,,,,,,,,,,,,,,,,,,,,
CMD,"WILKINSON, JEFFREY", 2007 CMD 28616,12/12/2007,Poss of a Controlled Substance -Misd,,,,,,,,,,,,,,,,,,,,,,,,,,,,,,,,,,
CMD,"BALBUENA, MARIANN M", 2007 CMD 28617,12/12/2007,Poss of a Controlled Substance -Misd,,,,,,,,,,,,,,,,,,,,,,,,,,,,,,,,,,
CMD,"SAUNDERS, BRUCE", 2007 CMD 28623,12/12/2007,Bail Reform Act -Misd,,,,,,,,,,,,,,,,,,,,,,,,,,,,,,,,,,
CMD,"GALES, TYRONE F", 2007 CMD 28632,12/13/2007,Theft Second Degree,,,,,,,,,,,,,,,,,,,,,,,,,,,,,,,,,,
CMD,"VENTURA, ARMANDO", 2007 CMD 28640,12/13/2007,Sexual Solicitation,,,,,,,,,,,,,,,,,,,,,,,,,,,,,,,,,,
CMD,"CAMPOS, MAURICIO", 2007 CMD 28641,12/13/2007,Sexual Solicitation,,,,,,,,,,,,,,,,,,,,,,,,,,,,,,,,,,
CMD,"APPERSON, CHRYSTAL", 2007 CMD 28642,12/13/2007,Sexual Solicitation,,,,,,,,,,,,,,,,,,,,,,,,,,,,,,,,,,
CMD,"HARRISON, NAKITA L", 2007 CMD 28643,12/13/2007,Sexual Solicitation,,,,,,,,,,,,,,,,,,,,,,,,,,,,,,,,,,
CMD,"HAIGHT, RAYMOND", 2007 CMD 28654,12/13/2007,Simple Assault,,,,,,,,,,,,,,,,,,,,,,,,,,,,,,,,,,
CMD,"FERGUSON, TONETTE GAIL", 2007 CMD 28655,12/13/2007,Sexual Solicitation,,,,,,,,,,,,,,,,,,,,,,,,,,,,,,,,,,
CMD,"KELLY, SHAKITA O", 2007 CMD 28656,12/13/2007,Sexual Solicitation,,,,,,,,,,,,,,,,,,,,,,,,,,,,,,,,,,
CMD,"HUNT, EBONY CHANEL", 2007 CMD 28657,12/13/2007,Theft Second Degree,,,,,,,,,,,,,,,,,,,,,,,,,,,,,,,,,,
CMD,"GENERAL, CURTIS", 2007 CMD 28658,12/13/2007,Simple Assault,,,,,,,,,,,,,,,,,,,,,,,,,,,,,,,,,,
CMD,"THOMAS, KELVIN D", 2007 CMD 28663,12/13/2007,Poss of a Controlled Substance -Misd,,,,,,,,,,,,,,,,,,,,,,,,,,,,,,,,,,
CMD,"DUNMORE, JOSEPH LAMONT", 2007 CMD 28670,12/13/2007,Bail Reform Act -Misd,,,,,,,,,,,,,,,,,,,,,,,,,,,,,,,,,,
CMD,"HARDY, JOHN D", 2007 CMD 28675,12/13/2007,Poss of a Controlled Substance -Misd,,,,,,,,,,,,,,,,,,,,,,,,,,,,,,,,,,
CMD,"HIPKINS, MONIQUE", 2007 CMD 28676,12/13/2007,Poss of a Controlled Substance -Misd,,,,,,,,,,,,,,,,,,,,,,,,,,,,,,,,,,
CMD,"HIPKINS, MONIQUE", 2007 CMD 28677,12/13/2007,Bail Reform Act -Misd,Bail Reform Act -Misd,,,,,,,,,,,,,,,,,,,,,,,,,,,,,,,,,
CMD,"MATHIS, STEVON D", 2007 CMD 28680,12/13/2007,Poss of a Controlled Substance -Misd,,,,,,,,,,,,,,,,,,,,,,,,,,,,,,,,,,
CMD,"BANKS, DANA A", 2007 CMD 28684,12/13/2007,Sexual Solicitation,,,,,,,,,,,,,,,,,,,,,,,,,,,,,,,,,,
CMD,"WILSON, CANDICE", 2007 CMD 28685,12/13/2007,Sexual Solicitation,,,,,,,,,,,,,,,,,,,,,,,,,,,,,,,,,,
CMD,"WALLACE, BRANDON ROBERT", 2007 CMD 28686,12/13/2007,Sexual Solicitation,,,,,,,,,,,,,,,,,,,,,,,,,,,,,,,,,,
CMD,"LEAKE, STACY NATHANIEL", 2007 CMD 28689,12/13/2007,Poss of a Controlled Substance -Misd,,,,,,,,,,,,,,,,,,,,,,,,,,,,,,,,,,
CMD,"JOHNSON, DEXTER", 2007 CMD 28690,12/13/2007,Sexual Solicitation,,,,,,,,,,,,,,,,,,,,,,,,,,,,,,,,,,
CMD,"BROWN, MAURICE L", 2007 CMD 28691,12/13/2007,Poss of a Controlled Substance -Misd,Poss Drug Paraphernalia-Misd,,,,,,,,,,,,,,,,,,,,,,,,,,,,,,,,,
CMD,"MOORE, RODGER", 2007 CMD 28692,12/13/2007,Poss of a Controlled Substance -Misd,,,,,,,,,,,,,,,,,,,,,,,,,,,,,,,,,,
CMD,"SYLVESTER, TIKIRA LASHAWAN", 2007 CMD 28693,12/13/2007,Simple Assault,,,,,,,,,,,,,,,,,,,,,,,,,,,,,,,,,,
CMD,"LANCASTER, SHAMEL", 2007 CMD 28697,12/13/2007,Simple Assault,Poss Prohibited Weapon -Other,,,,,,,,,,,,,,,,,,,,,,,,,,,,,,,,,
CMD,"RAMSEY, KEITH", 2007 CMD 28700,12/13/2007,Poss of a Controlled Substance -Misd,Poss of a Controlled Substance -Misd,,,,,,,,,,,,,,,,,,,,,,,,,,,,,,,,,
CMD,"RAMSEY, JOSEPH", 2007 CMD 28701,12/13/2007,Poss of a Controlled Substance -Misd,Poss of a Controlled Substance -Misd,,,,,,,,,,,,,,,,,,,,,,,,,,,,,,,,,
CMD,"STYLES, BIANCA", 2007 CMD 28702,12/13/2007,Poss of a Controlled Substance -Misd,,,,,,,,,,,,,,,,,,,,,,,,,,,,,,,,,,
CMD,"JEFFERSON, DESMOND J", 2007 CMD 28704,12/13/2007,Poss of a Controlled Substance -Misd,Unlawful Poss of A Firearm,Unlawful Poss Ammunition,,,,,,,,,,,,,,,,,,,,,,,,,,,,,,,,
CMD,"THOMPSON, DARRYL", 2007 CMD 28705,12/13/2007,Poss of a Controlled Substance -Misd,,,,,,,,,,,,,,,,,,,,,,,,,,,,,,,,,,
CMD,"HANCOCK, KEVIN EMMANUEL", 2007 CMD 28706,12/13/2007,Poss of a Controlled Substance -Misd,,,,,,,,,,,,,,,,,,,,,,,,,,,,,,,,,,
CMD,"BLAIR, LARRY NMN", 2007 CMD 28729,12/14/2007,Theft Second Degree,,,,,,,,,,,,,,,,,,,,,,,,,,,,,,,,,,
CMD,"EPPS, QUENTIN E", 2007 CMD 28736,12/14/2007,Poss of a Controlled Substance -Misd,,,,,,,,,,,,,,,,,,,,,,,,,,,,,,,,,,
CMD,"PAYNE, JESSE", 2007 CMD 28738,12/14/2007,Simple Assault,Simple Assault,,,,,,,,,,,,,,,,,,,,,,,,,,,,,,,,,
CMD,"GUZMAN, JOSE", 2007 CMD 28739,12/14/2007,Simple Assault,Poss Prohibited Weapon -Knife,,,,,,,,,,,,,,,,,,,,,,,,,,,,,,,,,
CMD,"FRANKLIN, ANDREW", 2007 CMD 28743,12/14/2007,Assault On A Police Officer,Unlawful Entry,Simple Assault,,,,,,,,,,,,,,,,,,,,,,,,,,,,,,,,
CMD,"NXUMALO, LINDANI BONGKILE", 2007 CMD 28744,12/14/2007,Theft Second Degree,,,,,,,,,,,,,,,,,,,,,,,,,,,,,,,,,,
CMD,"SALES, MINOR N", 2007 CMD 28745,12/14/2007,Simple Assault,Poss Prohibited Weapon -Knife,Attempted Threats to Do Bodily Harm -Misd,,,,,,,,,,,,,,,,,,,,,,,,,,,,,,,,
CMD,"WILLIAMS, REGINALD", 2007 CMD 28748,12/14/2007,Theft Second Degree,,,,,,,,,,,,,,,,,,,,,,,,,,,,,,,,,,
CMD,"MACCON, JUSTIN CLARK", 2007 CMD 28753,12/14/2007,Poss of a Controlled Substance -Misd,Poss of a Controlled Substance -Misd,Poss Drug Paraphernalia W/I to Use,,,,,,,,,,,,,,,,,,,,,,,,,,,,,,,,
CMD,"MAGUIRE, CHARLES", 2007 CMD 28760,12/14/2007,Simple Assault,,Threats to Do Bodily Harm -Misd,,,,,,,,,,,,,,,,,,,,,,,,,,,,,,,,
CMD,"SHULER, RUTH", 2007 CMD 28763,12/14/2007,Poss of a Controlled Substance -Misd,,,,,,,,,,,,,,,,,,,,,,,,,,,,,,,,,,
CMD,"GARDINE, THOMAS H", 2007 CMD 28764,12/14/2007,Poss of a Controlled Substance -Misd,,,,,,,,,,,,,,,,,,,,,,,,,,,,,,,,,,
CMD,"REDFEARN, LAMAR D", 2007 CMD 28765,12/14/2007,Poss of a Controlled Substance -Misd,,,,,,,,,,,,,,,,,,,,,,,,,,,,,,,,,,
CMD,"WILSON, MEREDITH", 2007 CMD 28767,12/14/2007,Sexual Solicitation,Contempt,,,,,,,,,,,,,,,,,,,,,,,,,,,,,,,,,
CMD,"GARDNER, WILLIAM EARL", 2007 CMD 28768,12/14/2007,Poss of a Controlled Substance -Misd,,,,,,,,,,,,,,,,,,,,,,,,,,,,,,,,,,
CMD,"FLETCHER, STEPHANIE L", 2007 CMD 28779,12/14/2007,Poss of a Controlled Substance -Misd,,,,,,,,,,,,,,,,,,,,,,,,,,,,,,,,,,
CMD,"STEVENS, ARVEL M", 2007 CMD 28780,12/14/2007,Theft Second Degree,Unlawful Entry,,,,,,,,,,,,,,,,,,,,,,,,,,,,,,,,,
CMD,"SHEFFIELD, JOHN LEE", 2007 CMD 28781,12/14/2007,Poss of a Controlled Substance -Misd,Poss of a Controlled Substance -Misd,,,,,,,,,,,,,,,,,,,,,,,,,,,,,,,,,
CMD,"REDMAN, RONNIE D", 2007 CMD 28789,12/14/2007,Poss of a Controlled Substance -Misd,,,,,,,,,,,,,,,,,,,,,,,,,,,,,,,,,,
CMD,"RICHARDSON, DANCHESTER", 2007 CMD 28796,12/15/2007,Unlawful Entry,Theft Second Degree,,,,,,,,,,,,,,,,,,,,,,,,,,,,,,,,,
CMD,"LAWSON-BEY, TYSON THOMAS", 2007 CMD 28797,12/15/2007,Poss of a Controlled Substance -Misd,,,,,,,,,,,,,,,,,,,,,,,,,,,,,,,,,,
CMD,"BLACKWOOD, DALE O", 2007 CMD 28801,12/15/2007,Simple Assault,,,,,,,,,,,,,,,,,,,,,,,,,,,,,,,,,,
CMD,"SMITH, CATHY L", 2007 CMD 28802,12/15/2007,Sexual Solicitation,,,,,,,,,,,,,,,,,,,,,,,,,,,,,,,,,,
CMD,"KORYTOWSKI, MARY SUZANNE", 2007 CMD 28803,12/15/2007,Unlawful Entry,Contempt,,,,,,,,,,,,,,,,,,,,,,,,,,,,,,,,,
CMD,"WILLIAMS, CHRISTOPHER JEROME", 2007 CMD 28804,12/15/2007,Simple Assault,,,,,,,,,,,,,,,,,,,,,,,,,,,,,,,,,,
CMD,"LEWIS, FELICIA NMN", 2007 CMD 28805,12/15/2007,Sexual Solicitation,,,,,,,,,,,,,,,,,,,,,,,,,,,,,,,,,,
CMD,"HARGROVE, SHAUNTEE", 2007 CMD 28807,12/15/2007,Poss Drug Paraphernalia-Misd,Poss of a Controlled Substance -Misd,Poss of a Controlled Substance -Misd,Poss of a Controlled Substance -Misd,,,,,,,,,,,,,,,,,,,,,,,,,,,,,,,
CMD,"MURPHY, DONALD THOMAS", 2007 CMD 28810,12/15/2007,Shoplifting,,,,,,,,,,,,,,,,,,,,,,,,,,,,,,,,,,
CMD,"PAUL, CHRISTOPHER B", 2007 CMD 28811,12/15/2007,Poss of a Controlled Substance -Misd,Poss of a Controlled Substance -Misd,,,,,,,,,,,,,,,,,,,,,,,,,,,,,,,,,
CMD,"THOMAS, ANTHONY C", 2007 CMD 28813,12/15/2007,Poss of a Controlled Substance -Misd,,,,,,,,,,,,,,,,,,,,,,,,,,,,,,,,,,
CMD,"JACKSON, MARCELLUS F", 2007 CMD 28814,12/15/2007,Poss of a Controlled Substance -Misd,,,,,,,,,,,,,,,,,,,,,,,,,,,,,,,,,,
CMD,"WARD, JODIE L", 2007 CMD 28825,12/15/2007,Theft Second Degree,,,,,,,,,,,,,,,,,,,,,,,,,,,,,,,,,,
CMD,"ANDERSON, EBONY N", 2007 CMD 28832,12/15/2007,Shoplifting,,,,,,,,,,,,,,,,,,,,,,,,,,,,,,,,,,
CMD,"LEWIS, ERIC C", 2007 CMD 28835,12/15/2007,Destruction of Property less than $200,Theft Second Degree,,,,,,,,,,,,,,,,,,,,,,,,,,,,,,,,,
CMD,"PRANDY, CARLOS", 2007 CMD 28836,12/15/2007,Poss of a Controlled Substance -Misd,Poss Drug Paraphernalia-Misd,,,,,,,,,,,,,,,,,,,,,,,,,,,,,,,,,
CMD,"VASQUEZ, JOHN J", 2007 CMD 28840,12/15/2007,Assault On A Police Officer,Simple Assault,,,,,,,,,,,,,,,,,,,,,,,,,,,,,,,,,
CMD,"POSTON, W J", 2007 CMD 28842,12/15/2007,Poss of a Controlled Substance -Misd,,,,,,,,,,,,,,,,,,,,,,,,,,,,,,,,,,
CMD,"JOHNSON, JAMES A", 2007 CMD 28844,12/15/2007,Poss of a Controlled Substance -Misd,,,,,,,,,,,,,,,,,,,,,,,,,,,,,,,,,,
CMD,"ALLEN, MICHAEL", 2007 CMD 28845,12/15/2007,Poss of a Controlled Substance -Misd,Poss of a Controlled Substance -Misd,,,,,,,,,,,,,,,,,,,,,,,,,,,,,,,,,
CMD,"HARSHAW, MARGARET", 2007 CMD 28846,12/15/2007,Bail Reform Act -Misd,,,,,,,,,,,,,,,,,,,,,,,,,,,,,,,,,,
CMD,"SCHMIDT, ERIK", 2007 CMD 28848,12/15/2007,Assault On A Police Officer,,,,,,,,,,,,,,,,,,,,,,,,,,,,,,,,,,
CMD,"POWELL, DAVID", 2007 CMD 28854,12/15/2007,Poss of a Controlled Substance -Misd,,,,,,,,,,,,,,,,,,,,,,,,,,,,,,,,,,
CMD,"BRISBANE, LYNDON M", 2007 CMD 28856,12/15/2007,Unlawful Entry,,,,,,,,,,,,,,,,,,,,,,,,,,,,,,,,,,
CMD,"FAUNTROY, IVY LEVETTE", 2007 CMD 28858,12/15/2007,Poss of a Controlled Substance -Misd,,,,,,,,,,,,,,,,,,,,,,,,,,,,,,,,,,
CMD,"COATES, NATASHA NICOLE", 2007 CMD 28863,12/15/2007,Bail Reform Act -Misd,,,,,,,,,,,,,,,,,,,,,,,,,,,,,,,,,,
CMD,"RILEY, THEODORE", 2007 CMD 28867,12/15/2007,Misdemeanor Sexual Abuse of a Child,Attempted Threats to Do Bodily Harm -Misd,,,,,,,,,,,,,,,,,,,,,,,,,,,,,,,,,
CMD,"CARNEGIE, DAVID E", 2007 CMD 28869,12/15/2007,Unlawful Entry,,,,,,,,,,,,,,,,,,,,,,,,,,,,,,,,,,
CMD,"HOLSEY, TIFFNEY", 2007 CMD 28870,12/12/2007,Poss of a Controlled Substance -Misd,Poss Drug Paraphernalia-Misd,,,,,,,,,,,,,,,,,,,,,,,,,,,,,,,,,
CMD,"ANDERSON, FREDRICK", 2007 CMD 28871,12/12/2007,Poss W/I to Dist Marijuana-Misd,,,,,,,,,,,,,,,,,,,,,,,,,,,,,,,,,,
CMD,"PERSON, INGA T", 2007 CMD 28875,12/13/2007,Sexual Solicitation,,,,,,,,,,,,,,,,,,,,,,,,,,,,,,,,,,
CMD,"CHRISS, FRANK E", 2007 CMD 28882,12/17/2007,Poss of a Controlled Substance -Misd,,,,,,,,,,,,,,,,,,,,,,,,,,,,,,,,,,
CMD,"BUTLER, JEROME A", 2007 CMD 28885,12/17/2007,Unlawful Entry,,,,,,,,,,,,,,,,,,,,,,,,,,,,,,,,,,
CMD,"ALTMAN, GARY LEE", 2007 CMD 28887,12/17/2007,Assault On A Police Officer,,,,,,,,,,,,,,,,,,,,,,,,,,,,,,,,,,
CMD,"OCONNELL, ROBERT JOSEPH", 2007 CMD 28888,12/17/2007,Simple Assault,Poss Prohibited Weapon -Knife,,,,,,,,,,,,,,,,,,,,,,,,,,,,,,,,,
CMD,"BENNETT, WENDERLIN J", 2007 CMD 28890,12/17/2007,Sexual Solicitation,,,,,,,,,,,,,,,,,,,,,,,,,,,,,,,,,,
CMD,"LLOYD, DOUGLAS", 2007 CMD 28891,12/17/2007,Poss of a Controlled Substance -Misd,,,,,,,,,,,,,,,,,,,,,,,,,,,,,,,,,,
CMD,"JACKSON, THOMAS EDWARD", 2007 CMD 28893,12/17/2007,Poss of a Controlled Substance -Misd,,,,,,,,,,,,,,,,,,,,,,,,,,,,,,,,,,
CMD,"ROBINSON, SANDRA T", 2007 CMD 28894,12/13/2007,Poss of a Controlled Substance -Misd,,,,,,,,,,,,,,,,,,,,,,,,,,,,,,,,,,
CMD,"KNIGHT, THADDEUS W", 2007 CMD 28897,12/14/2007,Possession of Controlled Substance-Cocaine,,,,,,,,,,,,,,,,,,,,,,,,,,,,,,,,,,
CMD,"KING, RONALD NMN", 2007 CMD 28900,12/14/2007,Poss of a Controlled Substance -Misd,,,,,,,,,,,,,,,,,,,,,,,,,,,,,,,,,,
CMD,"LAWSON, PATRICIA L", 2007 CMD 28902,12/14/2007,Poss of a Controlled Substance -Misd,Poss Drug Paraphernalia-Misd,,,,,,,,,,,,,,,,,,,,,,,,,,,,,,,,,
CMD,"JACKSON, KEVIN", 2007 CMD 28903,12/14/2007,Poss of a Controlled Substance -Misd,Poss Drug Paraphernalia-Misd,,,,,,,,,,,,,,,,,,,,,,,,,,,,,,,,,
CMD,"MCCOY, JEFFREY ALLEN", 2007 CMD 28908,12/17/2007,Poss of a Controlled Substance -Misd,Attempted Threats to Do Bodily Harm -Misd,,,,,,,,,,,,,,,,,,,,,,,,,,,,,,,,,
CMD,"ALBARADO, LUIZ R", 2007 CMD 28911,12/17/2007,Simple Assault,,,,,,,,,,,,,,,,,,,,,,,,,,,,,,,,,,
CMD,"HARVISON, MICHAEL PATRICK", 2007 CMD 28913,12/17/2007,Poss of a Controlled Substance -Misd,,,,,,,,,,,,,,,,,,,,,,,,,,,,,,,,,,
CMD,"HARVISON, MICHAEL PATRICK", 2007 CMD 28915,12/17/2007,Bail Reform Act -Misd,,,,,,,,,,,,,,,,,,,,,,,,,,,,,,,,,,
CMD,"WILLIAMS, LAVERNE P", 2007 CMD 28916,12/17/2007,Poss of a Controlled Substance -Misd,,,,,,,,,,,,,,,,,,,,,,,,,,,,,,,,,,
CMD,"BOWLDING, PETER B", 2007 CMD 28922,12/17/2007,Simple Assault,,,,,,,,,,,,,,,,,,,,,,,,,,,,,,,,,,
CMD,"MAYBERRY, SYLVIA", 2007 CMD 28927,12/17/2007,Sexual Solicitation,,,,,,,,,,,,,,,,,,,,,,,,,,,,,,,,,,
CMD,"DAVIS, GWEN MICHELLE", 2007 CMD 28928,12/17/2007,Sexual Solicitation,,,,,,,,,,,,,,,,,,,,,,,,,,,,,,,,,,
CMD,"RICHARDSON, BETH E", 2007 CMD 28930,12/17/2007,Sexual Solicitation,,,,,,,,,,,,,,,,,,,,,,,,,,,,,,,,,,
CMD,"MCDOUGALD, KISHA", 2007 CMD 28931,12/17/2007,Sexual Solicitation,,,,,,,,,,,,,,,,,,,,,,,,,,,,,,,,,,
CMD,"COOK, ROBERT DUNCAN", 2007 CMD 28932,12/17/2007,Poss of a Controlled Substance -Misd,Poss Drug Paraphernalia-Misd,,,,,,,,,,,,,,,,,,,,,,,,,,,,,,,,,
CMD,"GOODE, GINA C", 2007 CMD 28933,12/17/2007,Bail Reform Act -Misd,,,,,,,,,,,,,,,,,,,,,,,,,,,,,,,,,,
CMD,"ROBINSON, DARRIAN JERARD", 2007 CMD 28934,12/17/2007,Receiving Stolen Property-Misd,,,,,,,,,,,,,,,,,,,,,,,,,,,,,,,,,,
CMD,"TANSIMORE, CARL L", 2007 CMD 28935,12/17/2007,Unlawful Entry,Shoplifting,,,,,,,,,,,,,,,,,,,,,,,,,,,,,,,,,
CMD,"ALLEN, PETER L", 2007 CMD 28940,12/17/2007,Simple Assault,,,,,,,,,,,,,,,,,,,,,,,,,,,,,,,,,,
CMD,"PRATHER, RONALD A", 2007 CMD 28949,12/17/2007,Poss of a Controlled Substance -Misd,,,,,,,,,,,,,,,,,,,,,,,,,,,,,,,,,,
CMD,"HOWARD, FRANKLIN RONALD", 2007 CMD 28952,12/17/2007,Poss of a Controlled Substance -Misd,,,,,,,,,,,,,,,,,,,,,,,,,,,,,,,,,,
CMD,"GOODWIN, PRENTISS D", 2007 CMD 28966,12/18/2007,Poss of a Controlled Substance -Misd,Unlawful Entry,,,,,,,,,,,,,,,,,,,,,,,,,,,,,,,,,
CMD,"CLARK, CLEVELAND LORENZO", 2007 CMD 28975,12/18/2007,Poss of a Controlled Substance -Misd,,,,,,,,,,,,,,,,,,,,,,,,,,,,,,,,,,
CMD,"ROBINSON JR., EUGENE", 2007 CMD 28978,12/18/2007,Poss of a Controlled Substance -Misd,,,,,,,,,,,,,,,,,,,,,,,,,,,,,,,,,,
CMD,"BROWN, ANQUARN L", 2007 CMD 28995,12/18/2007,Threats to Do Bodily Harm -Misd,Assault On A Police Officer,,,,,,,,,,,,,,,,,,,,,,,,,,,,,,,,,
CMD,"MORGAN, ERICK CHRISTIAN", 2007 CMD 28997,12/18/2007,Poss Prohibited Weapon -Knife,,,,,,,,,,,,,,,,,,,,,,,,,,,,,,,,,,
CMD,"ADAMS, MICHAEL T", 2007 CMD 29001,12/18/2007,Theft Second Degree,Simple Assault,,,,,,,,,,,,,,,,,,,,,,,,,,,,,,,,,
CMD,"COLLYMORE, ROGER", 2007 CMD 29004,12/18/2007,Deceptive Labeling - Misd,Commercial Piracy - Misd,,,,,,,,,,,,,,,,,,,,,,,,,,,,,,,,,
CMD,"DRIFFIN, ANTHONY", 2007 CMD 29005,12/18/2007,Shoplifting,,,,,,,,,,,,,,,,,,,,,,,,,,,,,,,,,,
CMD,"JOHNSON, ADRIANE L", 2007 CMD 29008,12/18/2007,Sexual Solicitation,,,,,,,,,,,,,,,,,,,,,,,,,,,,,,,,,,
CMD,"GLOVER, NICHOLE", 2007 CMD 29009,12/18/2007,Sexual Solicitation,,,,,,,,,,,,,,,,,,,,,,,,,,,,,,,,,,
CMD,"BROWN, ANN", 2007 CMD 29011,12/18/2007,Sexual Solicitation,,,,,,,,,,,,,,,,,,,,,,,,,,,,,,,,,,
CMD,"BRYANT, LORENZO", 2007 CMD 29014,12/18/2007,Theft Second Degree,,,,,,,,,,,,,,,,,,,,,,,,,,,,,,,,,,
CMD,"PADILLA, BERNADETTE Z", 2007 CMD 29015,12/18/2007,Bail Reform Act -Misd,,,,,,,,,,,,,,,,,,,,,,,,,,,,,,,,,,
CMD,"JAMES, SHARON D", 2007 CMD 29016,12/18/2007,Bail Reform Act -Misd,,,,,,,,,,,,,,,,,,,,,,,,,,,,,,,,,,
CMD,"LYLES, SHONIA", 2007 CMD 29017,12/18/2007,Attempted Uttering,,,,,,,,,,,,,,,,,,,,,,,,,,,,,,,,,,
CMD,"OWENS, LARRY S", 2007 CMD 29018,12/18/2007,Bail Reform Act -Misd,,,,,,,,,,,,,,,,,,,,,,,,,,,,,,,,,,
CMD,"TILLMAN, KEVIN DURAN", 2007 CMD 29033,12/18/2007,Poss Drug Paraphernalia-Misd,,,,,,,,,,,,,,,,,,,,,,,,,,,,,,,,,,
CMD,"ARTIS, BRENDA", 2007 CMD 29041,12/19/2007,Theft Second Degree,,,,,,,,,,,,,,,,,,,,,,,,,,,,,,,,,,
CMD,"MATEOVIC, BOJAN", 2007 CMD 29042,12/19/2007,Destruction of Property less than $200,,,,,,,,,,,,,,,,,,,,,,,,,,,,,,,,,,
CMD,"WATTS, KENNETH M", 2007 CMD 29043,12/19/2007,Poss of a Controlled Substance -Misd,,,,,,,,,,,,,,,,,,,,,,,,,,,,,,,,,,
CMD,"LEE, HERLIN L", 2007 CMD 29044,12/19/2007,Poss of a Controlled Substance -Misd,,,,,,,,,,,,,,,,,,,,,,,,,,,,,,,,,,
CMD,"WALKER, BOBBY", 2007 CMD 29045,12/19/2007,Poss of a Controlled Substance -Misd,,,,,,,,,,,,,,,,,,,,,,,,,,,,,,,,,,
CMD,"RO, MEEHWAN", 2007 CMD 29049,12/19/2007,Poss of a Controlled Substance -Misd,,,,,,,,,,,,,,,,,,,,,,,,,,,,,,,,,,
CMD,"MCCULLOUGH, TYRONE", 2007 CMD 29050,12/19/2007,Poss of a Controlled Substance -Misd,,,,,,,,,,,,,,,,,,,,,,,,,,,,,,,,,,
CMD,"MCGOWAN, JIMMY LEE", 2007 CMD 29053,12/19/2007,Poss of a Controlled Substance -Misd,,,,,,,,,,,,,,,,,,,,,,,,,,,,,,,,,,
CMD,"BYNUM, DAVID NMN", 2007 CMD 29054,12/19/2007,Unlawful Entry,Shoplifting,,,,,,,,,,,,,,,,,,,,,,,,,,,,,,,,,
CMD,"MORRIS, DENITA LAVERNE", 2007 CMD 29057,12/19/2007,Sexual Solicitation,,,,,,,,,,,,,,,,,,,,,,,,,,,,,,,,,,
CMD,"WILLIAMS, BENJAMIN S", 2007 CMD 29060,12/19/2007,Assault On A Police Officer,Assault On A Police Officer,,,,,,,,,,,,,,,,,,,,,,,,,,,,,,,,,
CMD,"EWING, EUGENE N", 2007 CMD 29066,12/19/2007,Destruction of Property less than $200,Theft Second Degree,,,,,,,,,,,,,,,,,,,,,,,,,,,,,,,,,
CMD,"SPEIGHT, TYREE PIERRE ANTHONY", 2007 CMD 29086,12/19/2007,Poss of a Controlled Substance -Misd,Poss of a Controlled Substance -Misd,,,,,,,,,,,,,,,,,,,,,,,,,,,,,,,,,
CMD,"WALKER, REGINALD C", 2007 CMD 29087,12/19/2007,Unlawful Entry,Theft Second Degree,,,,,,,,,,,,,,,,,,,,,,,,,,,,,,,,,
CMD,"AMEY, MAURICE RAY", 2007 CMD 29091,12/19/2007,Simple Assault,,,,,,,,,,,,,,,,,,,,,,,,,,,,,,,,,,
CMD,"PRICE, CHARLES M", 2007 CMD 29093,12/19/2007,Unlawful Entry,,,,,,,,,,,,,,,,,,,,,,,,,,,,,,,,,,
CMD,"GAITHER, BRITTANY SHAWNE", 2007 CMD 29094,12/19/2007,Simple Assault,Poss Prohibited Weapon,,,,,,,,,,,,,,,,,,,,,,,,,,,,,,,,,
CMD,"WILLIAMS, ANDRE STEVE", 2007 CMD 29096,12/19/2007,Poss of a Controlled Substance -Misd,Poss Drug Paraphernalia W/I to Use,,,,,,,,,,,,,,,,,,,,,,,,,,,,,,,,,
CMD,"SMITH, MICHAEL G", 2007 CMD 29097,12/19/2007,Theft Second Degree,,,,,,,,,,,,,,,,,,,,,,,,,,,,,,,,,,
CMD,"JOHNSON, LONNELL A", 2007 CMD 29099,12/19/2007,Poss of a Controlled Substance -Misd,,,,,,,,,,,,,,,,,,,,,,,,,,,,,,,,,,
CMD,"MURPHY, RICKY R", 2007 CMD 29100,12/19/2007,Threats to Do Bodily Harm -Misd,,,,,,,,,,,,,,,,,,,,,,,,,,,,,,,,,,
CMD,"JUDD, MICHAEL A", 2007 CMD 29104,12/19/2007,Poss of a Controlled Substance -Misd,,,,,,,,,,,,,,,,,,,,,,,,,,,,,,,,,,
CMD,"MARTIN, DAKTARI", 2007 CMD 29105,12/19/2007,Poss of a Controlled Substance -Misd,,,,,,,,,,,,,,,,,,,,,,,,,,,,,,,,,,
CMD,"BROOKS WESLEY, ERIC TURON", 2007 CMD 29106,12/19/2007,Poss of a Controlled Substance -Misd,,,,,,,,,,,,,,,,,,,,,,,,,,,,,,,,,,
CMD,"REID, CHARLES ALFONSO", 2007 CMD 29108,12/19/2007,Simple Assault,,,,,,,,,,,,,,,,,,,,,,,,,,,,,,,,,,
CMD,"ANTHONY, TRACEY", 2007 CMD 29109,12/19/2007,Sexual Solicitation,,,,,,,,,,,,,,,,,,,,,,,,,,,,,,,,,,
CMD,"COPELAND, JANICE", 2007 CMD 29110,12/19/2007,Sexual Solicitation,,,,,,,,,,,,,,,,,,,,,,,,,,,,,,,,,,
CMD,"CLEMMONS, ROBERTA N", 2007 CMD 29111,12/19/2007,Sexual Solicitation,,,,,,,,,,,,,,,,,,,,,,,,,,,,,,,,,,
CMD,"FORTUNE, ROBERT", 2007 CMD 29115,12/19/2007,Bail Reform Act -Misd,,,,,,,,,,,,,,,,,,,,,,,,,,,,,,,,,,
CMD,"ROGERS, VICTOR G", 2007 CMD 29117,12/19/2007,Contempt,Contempt,,,,,,,,,,,,,,,,,,,,,,,,,,,,,,,,,
CMD,"HICKS, TONY", 2007 CMD 29118,12/19/2007,Deceptive Labeling - Misd,,,,,,,,,,,,,,,,,,,,,,,,,,,,,,,,,,
CMD,"JONES, VICTOR D", 2007 CMD 29119,12/19/2007,Contempt,,,,,,,,,,,,,,,,,,,,,,,,,,,,,,,,,,
CMD,"HICKS, LOUIS", 2007 CMD 29121,12/19/2007,Poss of a Controlled Substance -Misd,,,,,,,,,,,,,,,,,,,,,,,,,,,,,,,,,,
CMD,"VAUGHN, DANA L", 2007 CMD 29122,12/19/2007,Sexual Solicitation,,,,,,,,,,,,,,,,,,,,,,,,,,,,,,,,,,
CMD,"RORY, ERIC D", 2007 CMD 29123,12/19/2007,Poss of a Controlled Substance -Misd,Poss of a Controlled Substance -Misd,,,,,,,,,,,,,,,,,,,,,,,,,,,,,,,,,
CMD,"STEWART, GREGORY D", 2007 CMD 29125,12/19/2007,Poss of a Controlled Substance -Misd,Poss Drug Paraphernalia-Misd,,,,,,,,,,,,,,,,,,,,,,,,,,,,,,,,,
CMD,"LADSON, ALFREDA Y", 2007 CMD 29126,12/19/2007,Bail Reform Act -Misd,,,,,,,,,,,,,,,,,,,,,,,,,,,,,,,,,,
CMD,"BRYANT, RENZA N", 2007 CMD 29129,12/19/2007,Bail Reform Act -Misd,,,,,,,,,,,,,,,,,,,,,,,,,,,,,,,,,,
CMD,"WILLOUGHBEY, JIMMIE", 2007 CMD 29130,12/19/2007,Unlawful Entry,,,,,,,,,,,,,,,,,,,,,,,,,,,,,,,,,,
CMD,"WASHINGTON, THEODORE B", 2007 CMD 29131,12/19/2007,Poss of a Controlled Substance -Misd,,,,,,,,,,,,,,,,,,,,,,,,,,,,,,,,,,
CMD,"BLACKWELL, ROSEMARY CAMILLE", 2007 CMD 29132,12/19/2007,Bail Reform Act -Misd,,,,,,,,,,,,,,,,,,,,,,,,,,,,,,,,,,
CMD,"BRADFORD, NIKITA", 2007 CMD 29133,12/19/2007,Bail Reform Act -Misd,,,,,,,,,,,,,,,,,,,,,,,,,,,,,,,,,,
CMD,"BASSIL-EL, CARLTON", 2007 CMD 29134,12/19/2007,Poss of a Controlled Substance -Misd,Poss Prohibited Weapon -Knife,,,,,,,,,,,,,,,,,,,,,,,,,,,,,,,,,
CMD,"WALLACE, EZEKEIL", 2007 CMD 29135,12/19/2007,Bail Reform Act -Misd,,,,,,,,,,,,,,,,,,,,,,,,,,,,,,,,,,
CMD,"BASSIL-EL, CARLTON", 2007 CMD 29136,12/19/2007,Bail Reform Act -Misd,,,,,,,,,,,,,,,,,,,,,,,,,,,,,,,,,,
CMD,"ROUTE, ARNISCA D", 2007 CMD 29137,12/19/2007,Poss Drug Paraphernalia W/I to Use,,,,,,,,,,,,,,,,,,,,,,,,,,,,,,,,,,
CMD,"HENSON, TAIJUIAN", 2007 CMD 29164,12/20/2007,Threats to Do Bodily Harm -Misd,,,,,,,,,,,,,,,,,,,,,,,,,,,,,,,,,,
CMD,"WASHINGTON, YOLANDO", 2007 CMD 29168,12/20/2007,Poss of a Controlled Substance -Misd,,,,,,,,,,,,,,,,,,,,,,,,,,,,,,,,,,
CMD,"FOX, CALVIN E", 2007 CMD 29169,12/20/2007,Poss of a Controlled Substance -Misd,Poss Drug Paraphernalia-Misd,,,,,,,,,,,,,,,,,,,,,,,,,,,,,,,,,
CMD,"BETHEA, RUBEN", 2007 CMD 29171,12/20/2007,Threats to Do Bodily Harm -Misd,Poss Prohibited Weapon -Knife,,,,,,,,,,,,,,,,,,,,,,,,,,,,,,,,,
CMD,"HARRIS, VANESSA L", 2007 CMD 29173,12/20/2007,Poss of a Controlled Substance -Misd,Poss Drug Paraphernalia-Misd,,,,,,,,,,,,,,,,,,,,,,,,,,,,,,,,,
CMD,"MORGAN, JOYCE Y", 2007 CMD 29179,12/20/2007,Sexual Solicitation,,,,,,,,,,,,,,,,,,,,,,,,,,,,,,,,,,
CMD,"CALLOWAY, OLIVIA", 2007 CMD 29180,12/20/2007,Assault On A Police Officer,,,,,,,,,,,,,,,,,,,,,,,,,,,,,,,,,,
CMD,"NORMAN, JOSEPH M", 2007 CMD 29187,12/20/2007,Attempted Uttering,,,,,,,,,,,,,,,,,,,,,,,,,,,,,,,,,,
CMD,"LEONARD, NOLAN LEE", 2007 CMD 29188,12/20/2007,Poss of a Controlled Substance -Misd,,,,,,,,,,,,,,,,,,,,,,,,,,,,,,,,,,
CMD,"WILKINS, KENNETH EDWIN", 2007 CMD 29190,12/20/2007,Poss of a Controlled Substance -Misd,,,,,,,,,,,,,,,,,,,,,,,,,,,,,,,,,,
CMD,"WASHINGTON, JAMES V", 2007 CMD 29204,12/20/2007,Poss of a Controlled Substance -Misd,,,,,,,,,,,,,,,,,,,,,,,,,,,,,,,,,,
CMD,"WILLIAMS, TYRONE", 2007 CMD 29205,12/20/2007,Receiving Stolen Property-Misd,,,,,,,,,,,,,,,,,,,,,,,,,,,,,,,,,,
CMD,"KNOX, JAMES J", 2007 CMD 29207,12/20/2007,Poss of a Controlled Substance -Misd,,,,,,,,,,,,,,,,,,,,,,,,,,,,,,,,,,
CMD,"OCARROLL, BERNARD J", 2007 CMD 29208,12/20/2007,Unlawful Entry,Poss Drug Paraphernalia-Misd,,,,,,,,,,,,,,,,,,,,,,,,,,,,,,,,,
CMD,"WARREN, ROBIN", 2007 CMD 29226,12/20/2007,Sexual Solicitation,,,,,,,,,,,,,,,,,,,,,,,,,,,,,,,,,,
CMD,"SIMPKINS, SPENCER L", 2007 CMD 29227,12/20/2007,Sexual Solicitation,,,,,,,,,,,,,,,,,,,,,,,,,,,,,,,,,,
CMD,"HILL, AVIS E", 2007 CMD 29228,12/20/2007,Sexual Solicitation,,,,,,,,,,,,,,,,,,,,,,,,,,,,,,,,,,
CMD,"COX, SYVESTER", 2007 CMD 29230,12/20/2007,Sexual Solicitation,,,,,,,,,,,,,,,,,,,,,,,,,,,,,,,,,,
CMD,"COLEMAN, REGINALD E", 2007 CMD 29235,12/20/2007,Sexual Solicitation,,,,,,,,,,,,,,,,,,,,,,,,,,,,,,,,,,
CMD,"GAINES JR., LONNIE J", 2007 CMD 29240,12/20/2007,Bail Reform Act -Misd,,,,,,,,,,,,,,,,,,,,,,,,,,,,,,,,,,
CMD,"MORGAN, JOYCE", 2007 CMD 29241,12/20/2007,Bail Reform Act -Misd,Bail Reform Act -Misd,,,,,,,,,,,,,,,,,,,,,,,,,,,,,,,,,
CMD,"JONES, KEVIN GERROD", 2007 CMD 29242,12/20/2007,Sexual Solicitation,,,,,,,,,,,,,,,,,,,,,,,,,,,,,,,,,,
CMD,"NEDD, DERYCK A", 2007 CMD 29243,12/20/2007,Bail Reform Act -Misd,,,,,,,,,,,,,,,,,,,,,,,,,,,,,,,,,,
CMD,"SEENEY, ALICE", 2007 CMD 29244,12/20/2007,Bail Reform Act -Misd,,,,,,,,,,,,,,,,,,,,,,,,,,,,,,,,,,
CMD,"HOLT, JOHN THOMAS", 2007 CMD 29258,12/21/2007,Poss of a Controlled Substance -Misd,,,,,,,,,,,,,,,,,,,,,,,,,,,,,,,,,,
CMD,"SMITH, JONNIECE DAWANNA", 2007 CMD 29260,12/21/2007,Sexual Solicitation,,,,,,,,,,,,,,,,,,,,,,,,,,,,,,,,,,
CMD,"CARTER Jr, SAMUEL P", 2007 CMD 29265,12/21/2007,Theft Second Degree,,,,,,,,,,,,,,,,,,,,,,,,,,,,,,,,,,
CMD,"RICHARDSON, CHIQUI NMN", 2007 CMD 29278,12/21/2007,Simple Assault,Assault On A Police Officer,,,,,,,,,,,,,,,,,,,,,,,,,,,,,,,,,
CMD,"TIMBERLAKE, EARL ANTHONY", 2007 CMD 29288,12/21/2007,Simple Assault,,,,,,,,,,,,,,,,,,,,,,,,,,,,,,,,,,
CMD,"WILLIAMS, DALLAS NICOLE", 2007 CMD 29293,12/21/2007,Poss of a Controlled Substance -Misd,,,,,,,,,,,,,,,,,,,,,,,,,,,,,,,,,,
CMD,"MATTHEWS, LEWIS T.", 2007 CMD 29297,12/19/2007,Poss of a Controlled Substance -Misd,,,,,,,,,,,,,,,,,,,,,,,,,,,,,,,,,,
CMD,"EDWARDS, DARRELL", 2007 CMD 29298,12/21/2007,Simple Assault,,,,,,,,,,,,,,,,,,,,,,,,,,,,,,,,,,
CMD,"MILLER, TAMIKA LASHAWN", 2007 CMD 29300,12/21/2007,Threats to Do Bodily Harm -Misd,,,,,,,,,,,,,,,,,,,,,,,,,,,,,,,,,,
CMD,"GILLS, JOSEPH STEVE", 2007 CMD 29305,12/21/2007,Threats to Do Bodily Harm -Misd,,,,,,,,,,,,,,,,,,,,,,,,,,,,,,,,,,
CMD,"GOINS, FREDDIE", 2007 CMD 29310,12/21/2007,Destruction of Property less than $200,,,,,,,,,,,,,,,,,,,,,,,,,,,,,,,,,,
CMD,"WILLS, JOHN H", 2007 CMD 29312,12/21/2007,Theft Second Degree,,,,,,,,,,,,,,,,,,,,,,,,,,,,,,,,,,
CMD,"SHEFFIELD, ISAIAH", 2007 CMD 29315,12/21/2007,Bail Reform Act -Misd,,,,,,,,,,,,,,,,,,,,,,,,,,,,,,,,,,
CMD,"WILLS, JOHN H", 2007 CMD 29324,12/21/2007,Bail Reform Act -Misd,,,,,,,,,,,,,,,,,,,,,,,,,,,,,,,,,,
CMD,"HINES, BYRON DOMINIQUE", 2007 CMD 29326,12/21/2007,Destruction of Property less than $200,,,,,,,,,,,,,,,,,,,,,,,,,,,,,,,,,,
CMD,"WILLIAMS, ANTONIO", 2007 CMD 29328,12/21/2007,Bail Reform Act -Misd,,,,,,,,,,,,,,,,,,,,,,,,,,,,,,,,,,
CMD,"WATSON, MERLE VERNON", 2007 CMD 29329,12/21/2007,Poss Prohibited Weapon,Attempted Threats to Do Bodily Harm -Misd,,,,,,,,,,,,,,,,,,,,,,,,,,,,,,,,,
CMD,"BATES, CLARENCE", 2007 CMD 29330,12/21/2007,Poss W/I to Dist Marijuana-Misd,,,,,,,,,,,,,,,,,,,,,,,,,,,,,,,,,,
CMD,"PEREZ, JAZMIN N", 2007 CMD 29331,12/21/2007,Bail Reform Act -Misd,,,,,,,,,,,,,,,,,,,,,,,,,,,,,,,,,,
CMD,"FISHER, JOYCE YVONNE", 2007 CMD 29334,12/21/2007,Poss of a Controlled Substance -Misd,Poss Drug Paraphernalia-Misd,,,,,,,,,,,,,,,,,,,,,,,,,,,,,,,,,
CMD,"WHITE, RAYMOND D", 2007 CMD 29337,12/21/2007,Carry Dangerous Weapon- Misd,Poss of a Controlled Substance -Misd,Poss Drug Paraphernalia-Misd,,,,,,,,,,,,,,,,,,,,,,,,,,,,,,,,
CMD,"KORNEGAY, TAMMY D", 2007 CMD 29338,12/21/2007,Assault On A Police Officer,,,,,,,,,,,,,,,,,,,,,,,,,,,,,,,,,,
CMD,"SHEPARD, TAMIKA", 2007 CMD 29339,12/21/2007,Simple Assault,,,,,,,,,,,,,,,,,,,,,,,,,,,,,,,,,,
CMD,"KORNEGAY, TAMMY D", 2007 CMD 29340,12/21/2007,Threats to Do Bodily Harm -Misd,,,,,,,,,,,,,,,,,,,,,,,,,,,,,,,,,,
CMD,"GREENE, THERENDA", 2007 CMD 29345,12/22/2007,Poss W/I to Dist Marijuana-Misd,Poss Drug Paraphernalia W/I to Use,,,,,,,,,,,,,,,,,,,,,,,,,,,,,,,,,
CMD,"CROMEARTYE, EARLINE", 2007 CMD 29355,12/22/2007,Sexual Solicitation,,,,,,,,,,,,,,,,,,,,,,,,,,,,,,,,,,
CMD,"HENDRICK, DAYMOND MARQUEAS", 2007 CMD 29356,12/22/2007,Poss of a Controlled Substance -Misd,,,,,,,,,,,,,,,,,,,,,,,,,,,,,,,,,,
CMD,"JOHNSON, AVA", 2007 CMD 29358,12/22/2007,Sexual Solicitation,,,,,,,,,,,,,,,,,,,,,,,,,,,,,,,,,,
CMD,"JACKSON, VERONICA AVIS", 2007 CMD 29368,12/22/2007,Poss of a Controlled Substance -Misd,Poss of a Controlled Substance -Misd,,,,,,,,,,,,,,,,,,,,,,,,,,,,,,,,,
CMD,"BARNES, JEROME", 2007 CMD 29371,12/22/2007,Poss of a Controlled Substance -Misd,,,,,,,,,,,,,,,,,,,,,,,,,,,,,,,,,,
CMD,"SPEAKS, EMANUEL", 2007 CMD 29376,12/22/2007,Poss of a Controlled Substance -Misd,Poss Drug Paraphernalia W/I to Use,,,,,,,,,,,,,,,,,,,,,,,,,,,,,,,,,
CMD,"MASTERSON, MICHAEL K", 2007 CMD 29378,12/22/2007,Poss of a Controlled Substance -Misd,,,,,,,,,,,,,,,,,,,,,,,,,,,,,,,,,,
CMD,"WATTS, KEVIN", 2007 CMD 29379,12/22/2007,Poss W/I to Dist Marijuana-Misd,,,,,,,,,,,,,,,,,,,,,,,,,,,,,,,,,,
CMD,"DORSEY, JASMINE", 2007 CMD 29380,12/22/2007,Sexual Solicitation,,,,,,,,,,,,,,,,,,,,,,,,,,,,,,,,,,
CMD,"COOK, CORDELL", 2007 CMD 29381,12/22/2007,Poss W/I to Dist Marijuana-Misd,,,,,,,,,,,,,,,,,,,,,,,,,,,,,,,,,,
CMD,"GOLDEN, MICHAEL A", 2007 CMD 29382,12/22/2007,Poss of a Controlled Substance -Misd,Tampering With Physical Evidence,,,,,,,,,,,,,,,,,,,,,,,,,,,,,,,,,
CMD,"WILLIAMS, NIGEL A", 2007 CMD 29388,12/22/2007,Poss of a Controlled Substance -Misd,,,,,,,,,,,,,,,,,,,,,,,,,,,,,,,,,,
CMD,"FOX, RODNEY", 2007 CMD 29389,12/22/2007,Poss of a Controlled Substance -Misd,,,,,,,,,,,,,,,,,,,,,,,,,,,,,,,,,,
CMD,"YOUNG, LAKESHA D", 2007 CMD 29390,12/22/2007,Sexual Solicitation,,,,,,,,,,,,,,,,,,,,,,,,,,,,,,,,,,
CMD,"CARTER, RAY ALEX", 2007 CMD 29394,12/22/2007,Unlawful Possession of Controlled Substance,APO-Misd,Contempt,,,,,,,,,,,,,,,,,,,,,,,,,,,,,,,,
CMD,"FRY, DAVID", 2007 CMD 29395,12/22/2007,Sexual Solicitation,,,,,,,,,,,,,,,,,,,,,,,,,,,,,,,,,,
CMD,"GARTHER, MACK ANDREW", 2007 CMD 29406,12/22/2007,Poss of a Controlled Substance -Misd,Poss of a Controlled Substance -Misd,Poss Drug Paraphernalia-Misd,,,,,,,,,,,,,,,,,,,,,,,,,,,,,,,,
CMD,"EDWARDS, STEVEN P", 2007 CMD 29414,12/22/2007,Bail Reform Act -Misd,,,,,,,,,,,,,,,,,,,,,,,,,,,,,,,,,,
CMD,"SPRIGGS, WILLIAM", 2007 CMD 29415,12/22/2007,Poss of a Controlled Substance -Misd,,,,,,,,,,,,,,,,,,,,,,,,,,,,,,,,,,
CMD,"SIMMONS, CLIFTON E", 2007 CMD 29417,12/22/2007,Bail Reform Act -Misd,Bail Reform Act -Misd,,,,,,,,,,,,,,,,,,,,,,,,,,,,,,,,,
CMD,"BRAND, RONNIE E", 2007 CMD 29418,12/22/2007,Poss of a Controlled Substance -Misd,,,,,,,,,,,,,,,,,,,,,,,,,,,,,,,,,,
CMD,"DEMUS, LESLIE DARNELL", 2007 CMD 29419,12/22/2007,Poss of a Controlled Substance -Misd,,,,,,,,,,,,,,,,,,,,,,,,,,,,,,,,,,
CMD,"COKLEY, TAWAULA", 2007 CMD 29424,12/22/2007,Poss of a Controlled Substance -Misd,,,,,,,,,,,,,,,,,,,,,,,,,,,,,,,,,,
CMD,"HERRING, SHAWN", 2007 CMD 29425,12/24/2007,Simple Assault,,,,,,,,,,,,,,,,,,,,,,,,,,,,,,,,,,
CMD,"SNEAD, GEORGE F", 2007 CMD 29428,12/24/2007,Assault On A Police Officer,,,,,,,,,,,,,,,,,,,,,,,,,,,,,,,,,,
CMD,"GARCIA, JOSE LUIS", 2007 CMD 29429,12/24/2007,Simple Assault,,,,,,,,,,,,,,,,,,,,,,,,,,,,,,,,,,
CMD,"MESSER, TODD ANTHONY", 2007 CMD 29430,12/24/2007,Theft Second Degree,,,,,,,,,,,,,,,,,,,,,,,,,,,,,,,,,,
CMD,"SHANK, CHARLES CARVER", 2007 CMD 29434,12/24/2007,Poss of a Controlled Substance -Misd,,,,,,,,,,,,,,,,,,,,,,,,,,,,,,,,,,
CMD,"JOHNSON, CLARENCE LARUE", 2007 CMD 29438,12/24/2007,Simple Assault,Shoplifting,,,,,,,,,,,,,,,,,,,,,,,,,,,,,,,,,
CMD,"RONE, TRASEL LAMAR", 2007 CMD 29442,12/24/2007,Simple Assault,,,,,,,,,,,,,,,,,,,,,,,,,,,,,,,,,,
CMD,"RODRIGUEZ, GENE", 2007 CMD 29443,12/24/2007,Poss of a Controlled Substance -Misd,,,,,,,,,,,,,,,,,,,,,,,,,,,,,,,,,,
CMD,"HALL, CHAUNCEY A", 2007 CMD 29462,12/24/2007,Contempt,Sale Drug Paraphernalia,,,,,,,,,,,,,,,,,,,,,,,,,,,,,,,,,
CMD,"DAVIS, GWENDOLYN", 2007 CMD 29463,12/24/2007,Sexual Solicitation,,,,,,,,,,,,,,,,,,,,,,,,,,,,,,,,,,
CMD,"GOARD, CONKLIN E", 2007 CMD 29464,12/24/2007,Bail Reform Act -Misd,,,,,,,,,,,,,,,,,,,,,,,,,,,,,,,,,,
CMD,"COLEMAN, YOLANDA DENISE", 2007 CMD 29465,12/24/2007,Bail Reform Act -Misd,,,,,,,,,,,,,,,,,,,,,,,,,,,,,,,,,,
CMD,"PHIFER, ELIZABETH NICOLE", 2007 CMD 29471,12/24/2007,Poss of a Controlled Substance -Misd,,,,,,,,,,,,,,,,,,,,,,,,,,,,,,,,,,
CMD,"COLEMAN, YOLANDA DENISE", 2007 CMD 29480,12/24/2007,Sexual Solicitation,,,,,,,,,,,,,,,,,,,,,,,,,,,,,,,,,,
CMD,"ENCARNACION, JORGE DAVID", 2007 CMD 29500,12/25/2007,Theft Second Degree,Destruction of Property less than $200,,,,,,,,,,,,,,,,,,,,,,,,,,,,,,,,,
CMD,"BROWN, ANQUARN L", 2007 CMD 29501,12/25/2007,Assault On A Police Officer,Contempt,,,,,,,,,,,,,,,,,,,,,,,,,,,,,,,,,
CMD,"MILLER, MIGUEL KELVIN", 2007 CMD 29502,12/25/2007,Receiving Stolen Property-Misd,,,,,,,,,,,,,,,,,,,,,,,,,,,,,,,,,,
CMD,"HAMILTON, DEMIRA MONIQUE", 2007 CMD 29504,12/25/2007,Theft Second Degree,,,,,,,,,,,,,,,,,,,,,,,,,,,,,,,,,,
CMD,"BLANCO, HECTER", 2007 CMD 29506,12/25/2007,Destruction of Property less than $200,Theft Second Degree,,,,,,,,,,,,,,,,,,,,,,,,,,,,,,,,,
CMD,"MARTIN-MADDOX, DELORES J", 2007 CMD 29510,12/25/2007,Poss of a Controlled Substance -Misd,,,,,,,,,,,,,,,,,,,,,,,,,,,,,,,,,,
CMD,"JOHNSON, DAVON L", 2007 CMD 29511,12/25/2007,Poss of a Controlled Substance -Misd,Poss Drug Paraphernalia W/I to Use,,,,,,,,,,,,,,,,,,,,,,,,,,,,,,,,,
CMD,"WILLIAMS, ALASIA M", 2007 CMD 29513,12/25/2007,Assault On A Police Officer,,,,,,,,,,,,,,,,,,,,,,,,,,,,,,,,,,
CMD,"HOUSER, DANIEL", 2007 CMD 29515,12/25/2007,Attempted Unauthorized Use of A Vehicle,Receiving Stolen Property-Misd,Poss Drug Paraphernalia W/I to Use,,,,,,,,,,,,,,,,,,,,,,,,,,,,,,,,
CMD,"MADDOX-MARTIN, DOLORES J", 2007 CMD 29516,12/25/2007,Bail Reform Act -Misd,,,,,,,,,,,,,,,,,,,,,,,,,,,,,,,,,,
CMD,"BONNEY, JAMES DAVID", 2007 CMD 29520,12/25/2007,Assault On A Police Officer,Unlawful Entry,,,,,,,,,,,,,,,,,,,,,,,,,,,,,,,,,
CMD,"LEE, THOMAS PAUL", 2007 CMD 29522,12/25/2007,Poss of a Controlled Substance -Misd,Poss Drug Paraphernalia W/I to Use,,,,,,,,,,,,,,,,,,,,,,,,,,,,,,,,,
CMD,"PEREZ-LOPEZ, SAYRA ELIZABETH", 2007 CMD 29523,12/25/2007,Poss of a Controlled Substance -Misd,,,,,,,,,,,,,,,,,,,,,,,,,,,,,,,,,,
CMD,"CLAIRBORNE, MARCUS M", 2007 CMD 29525,12/25/2007,Sexual Solicitation,,,,,,,,,,,,,,,,,,,,,,,,,,,,,,,,,,
CMD,"CHIRUKULA, VENKATA SANDEEP", 2007 CMD 29526,12/25/2007,Sexual Solicitation,,,,,,,,,,,,,,,,,,,,,,,,,,,,,,,,,,
CMD,"BARRY, TIGHE D", 2007 CMD 29528,12/25/2007,Unlawful Conduct Capitol Grounds,,,,,,,,,,,,,,,,,,,,,,,,,,,,,,,,,,
CMD,"BRIOCHE, RODELPHE N", 2007 CMD 29529,12/25/2007,Sexual Solicitation,,,,,,,,,,,,,,,,,,,,,,,,,,,,,,,,,,
CMD,"KING, ROGER DALE", 2007 CMD 29530,12/25/2007,Poss of a Controlled Substance -Misd,,,,,,,,,,,,,,,,,,,,,,,,,,,,,,,,,,
CMD,"HICKS, JASMINE L", 2007 CMD 29531,12/25/2007,Poss of a Controlled Substance -Misd,,,,,,,,,,,,,,,,,,,,,,,,,,,,,,,,,,
CMD,"NORTH, CONSWELLA U", 2007 CMD 29532,12/25/2007,Sexual Solicitation,,,,,,,,,,,,,,,,,,,,,,,,,,,,,,,,,,
CMD,"JACKSON, JAMIL RASHAAN", 2007 CMD 29533,12/25/2007,Sexual Solicitation,,,,,,,,,,,,,,,,,,,,,,,,,,,,,,,,,,
CMD,"BISHOP, JAMES EUGENE", 2007 CMD 29534,12/25/2007,Sexual Solicitation,,,,,,,,,,,,,,,,,,,,,,,,,,,,,,,,,,
CMD,"WAINWRIGHT, DARRELL LYDELL", 2007 CMD 29535,12/25/2007,Sexual Solicitation,,,,,,,,,,,,,,,,,,,,,,,,,,,,,,,,,,
CMD,"BUGGS, WILLIAM", 2007 CMD 29536,12/25/2007,Sexual Solicitation,,,,,,,,,,,,,,,,,,,,,,,,,,,,,,,,,,
CMD,"KWABENA, LARBI", 2007 CMD 29537,12/25/2007,Sexual Solicitation,,,,,,,,,,,,,,,,,,,,,,,,,,,,,,,,,,
CMD,"SETTLES, HUGSTER", 2007 CMD 29538,12/25/2007,Sexual Solicitation,,,,,,,,,,,,,,,,,,,,,,,,,,,,,,,,,,
CMD,"PENDERGRASS, PERCIVAL C", 2007 CMD 29540,12/26/2007,Theft Second Degree,,,,,,,,,,,,,,,,,,,,,,,,,,,,,,,,,,
CMD,"JONES, ALEXIS", 2007 CMD 29544,12/26/2007,Poss of a Controlled Substance -Misd,,,,,,,,,,,,,,,,,,,,,,,,,,,,,,,,,,
CMD,"PENDERGRASS, PERCIVAL", 2007 CMD 29546,12/26/2007,Bail Reform Act -Misd,,,,,,,,,,,,,,,,,,,,,,,,,,,,,,,,,,
CMD,"MOORE, BRITTNEE N", 2007 CMD 29547,12/26/2007,Bail Reform Act -Misd,,,,,,,,,,,,,,,,,,,,,,,,,,,,,,,,,,
CMD,"JONES, ALEXIS", 2007 CMD 29548,12/26/2007,Bail Reform Act -Misd,,,,,,,,,,,,,,,,,,,,,,,,,,,,,,,,,,
CMD,"GATER, DONALD J", 2007 CMD 29555,12/26/2007,Bail Reform Act -Misd,,,,,,,,,,,,,,,,,,,,,,,,,,,,,,,,,,
CMD,"EDWARDS, DEVONA T", 2007 CMD 29560,12/26/2007,Bail Reform Act -Misd,,,,,,,,,,,,,,,,,,,,,,,,,,,,,,,,,,
CMD,"GIBSON, HENRY", 2007 CMD 29561,12/26/2007,Simple Assault,Poss Prohibited Weapon,,,,,,,,,,,,,,,,,,,,,,,,,,,,,,,,,
CMD,"DEWS, BRENDA", 2007 CMD 29562,12/26/2007,Bail Reform Act -Misd,,,,,,,,,,,,,,,,,,,,,,,,,,,,,,,,,,
CMD,"SHORTER, SHELDON", 2007 CMD 29567,12/27/2007,Poss of a Controlled Substance -Misd,,,,,,,,,,,,,,,,,,,,,,,,,,,,,,,,,,
CMD,"GONZALEZ, JOSE", 2007 CMD 29568,12/27/2007,Simple Assault,,,,,,,,,,,,,,,,,,,,,,,,,,,,,,,,,,
CMD,"PHENNY, JOSEPH WILLIAM", 2007 CMD 29569,12/26/2007,Poss of a Controlled Substance -Misd,Poss of a Controlled Substance -Misd,,,,,,,,,,,,,,,,,,,,,,,,,,,,,,,,,
CMD,"TESFAYE, AMARE NMN", 2007 CMD 29571,12/27/2007,Simple Assault,,,,,,,,,,,,,,,,,,,,,,,,,,,,,,,,,,
CMD,"COUSINS, EDWARD LEON", 2007 CMD 29572,12/27/2007,Poss of a Controlled Substance -Misd,,,,,,,,,,,,,,,,,,,,,,,,,,,,,,,,,,
CMD,"JOHNSON, TESSAYE", 2007 CMD 29573,12/20/2007,Theft Second Degree,,,,,,,,,,,,,,,,,,,,,,,,,,,,,,,,,,
CMD,"MILLER, LOUIS", 2007 CMD 29574,12/18/2007,Sexual Solicitation,,,,,,,,,,,,,,,,,,,,,,,,,,,,,,,,,,
CMD,"MCLAUGHLIN, CLIFTON", 2007 CMD 29575,12/18/2007,Sexual Solicitation,,,,,,,,,,,,,,,,,,,,,,,,,,,,,,,,,,
CMD,"BRIGGS, SAMUEL LEON", 2007 CMD 29576,12/18/2007,Sexual Solicitation,,,,,,,,,,,,,,,,,,,,,,,,,,,,,,,,,,
CMD,"YOUNG, FLORENCE P", 2007 CMD 29577,12/27/2007,Poss of a Controlled Substance -Misd,,,,,,,,,,,,,,,,,,,,,,,,,,,,,,,,,,
CMD,"TORRES, AMANDA J", 2007 CMD 29579,12/27/2007,Sexual Solicitation,,,,,,,,,,,,,,,,,,,,,,,,,,,,,,,,,,
CMD,"MCRAE, MANDY B", 2007 CMD 29580,12/27/2007,Sexual Solicitation,,,,,,,,,,,,,,,,,,,,,,,,,,,,,,,,,,
CMD,"SOT, MELONY", 2007 CMD 29581,12/27/2007,Sexual Solicitation,,,,,,,,,,,,,,,,,,,,,,,,,,,,,,,,,,
CMD,"JOHNSON, CHRIS LINN", 2007 CMD 29582,12/27/2007,Sexual Solicitation,,,,,,,,,,,,,,,,,,,,,,,,,,,,,,,,,,
CMD,"DAVIS, KANAR V", 2007 CMD 29583,12/27/2007,Threats to Do Bodily Harm -Misd,,,,,,,,,,,,,,,,,,,,,,,,,,,,,,,,,,
CMD,"THOMAS, DAMIAN KEITH", 2007 CMD 29586,12/27/2007,Poss of a Controlled Substance -Misd,,,,,,,,,,,,,,,,,,,,,,,,,,,,,,,,,,
CMD,"MARSHALL, LOUIS R", 2007 CMD 29587,12/27/2007,Shoplifting,,,,,,,,,,,,,,,,,,,,,,,,,,,,,,,,,,
CMD,"WYNN, TIMOTHY A", 2007 CMD 29588,12/27/2007,Theft Second Degree,,,,,,,,,,,,,,,,,,,,,,,,,,,,,,,,,,
CMD,"PRICE, WILLIE", 2007 CMD 29590,12/27/2007,Theft Second Degree,,,,,,,,,,,,,,,,,,,,,,,,,,,,,,,,,,
CMD,"LIPSCOMB, STANLEY V", 2007 CMD 29591,12/27/2007,Sexual Solicitation,,,,,,,,,,,,,,,,,,,,,,,,,,,,,,,,,,
CMD,"YOUNG, ROBERT", 2007 CMD 29592,12/27/2007,Simple Assault,,,,,,,,,,,,,,,,,,,,,,,,,,,,,,,,,,
CMD,"HANDMAKER, KEVIN WADE", 2007 CMD 29594,12/27/2007,Poss of a Controlled Substance -Misd,Poss of a Controlled Substance -Misd,Poss Drug Paraphernalia-Misd,,,,,,,,,,,,,,,,,,,,,,,,,,,,,,,,
CMD,"COUSER, DEON J", 2007 CMD 29596,12/27/2007,Unlawful Entry,,,,,,,,,,,,,,,,,,,,,,,,,,,,,,,,,,
CMD,"POWELL, KEVIN NMN", 2007 CMD 29602,12/27/2007,Unlawful Entry,,,,,,,,,,,,,,,,,,,,,,,,,,,,,,,,,,
CMD,"YOUNG, MARCUS", 2007 CMD 29603,12/27/2007,Unlawful Entry,,,,,,,,,,,,,,,,,,,,,,,,,,,,,,,,,,
CMD,"MARTIN, EDWARD", 2007 CMD 29607,12/27/2007,Simple Assault,,,,,,,,,,,,,,,,,,,,,,,,,,,,,,,,,,
CMD,"ORTEGA, JOSE", 2007 CMD 29609,12/27/2007,Simple Assault,Simple Assault,Simple Assault,,,,,,,,,,,,,,,,,,,,,,,,,,,,,,,,
CMD,"MEDINA, ERIK JOEL", 2007 CMD 29610,12/27/2007,Simple Assault,Simple Assault,Simple Assault,,,,,,,,,,,,,,,,,,,,,,,,,,,,,,,,
CMD,"PARKER, ERICA", 2007 CMD 29626,12/27/2007,Sexual Solicitation,,,,,,,,,,,,,,,,,,,,,,,,,,,,,,,,,,
CMD,"BARNES, TRACEY", 2007 CMD 29627,12/27/2007,Sexual Solicitation,,,,,,,,,,,,,,,,,,,,,,,,,,,,,,,,,,
CMD,"DONNELL, FELICIA ANN", 2007 CMD 29628,12/27/2007,Sexual Solicitation,,,,,,,,,,,,,,,,,,,,,,,,,,,,,,,,,,
CMD,"DONNELL, FELCIA", 2007 CMD 29629,12/27/2007,Bail Reform Act -Misd,,,,,,,,,,,,,,,,,,,,,,,,,,,,,,,,,,
CMD,"ADAMS, DIONE MICHELLE", 2007 CMD 29630,12/27/2007,Sexual Solicitation,,,,,,,,,,,,,,,,,,,,,,,,,,,,,,,,,,
CMD,"ROBINSON, LATANYA R", 2007 CMD 29632,12/27/2007,Sexual Solicitation,,,,,,,,,,,,,,,,,,,,,,,,,,,,,,,,,,
CMD,"HUGHES, MELVIN M", 2007 CMD 29634,12/27/2007,Poss of a Controlled Substance -Misd,Poss of a Controlled Substance -Misd,Unlawful Entry,,,,,,,,,,,,,,,,,,,,,,,,,,,,,,,,
CMD,"WANZA, ERIC DAMON", 2007 CMD 29636,12/27/2007,Unlawful Entry,,,,,,,,,,,,,,,,,,,,,,,,,,,,,,,,,,
CMD,"POGE, VINCENT", 2007 CMD 29639,12/27/2007,Poss W/I to Dist a Controlled Substance,,,,,,,,,,,,,,,,,,,,,,,,,,,,,,,,,,
CMD,"BRIDGES, ARTHUR", 2007 CMD 29647,12/28/2007,Destruction of Property less than $200,Theft Second Degree,Poss Drug Paraphernalia-Misd,Poss Prohibited Weapon,,,,,,,,,,,,,,,,,,,,,,,,,,,,,,,
CMD,"FARCH, SALI DAUD", 2007 CMD 29649,12/28/2007,Simple Assault,Poss Prohibited Weapon,Threats to Do Bodily Harm -Misd,,,,,,,,,,,,,,,,,,,,,,,,,,,,,,,,
CMD,"STANLEY, EUGENE N", 2007 CMD 29650,12/28/2007,Poss of a Controlled Substance -Misd,,,,,,,,,,,,,,,,,,,,,,,,,,,,,,,,,,
CMD,"ALEKSOV, ALEXSANDER", 2007 CMD 29651,12/28/2007,Assault On A Police Officer,,,,,,,,,,,,,,,,,,,,,,,,,,,,,,,,,,
CMD,"MARTIN, SYLVIA M", 2007 CMD 29652,12/28/2007,Unlawful Entry,,,,,,,,,,,,,,,,,,,,,,,,,,,,,,,,,,
CMD,"PADGETT, GEORGE BERNARD", 2007 CMD 29654,12/28/2007,Unlawful Entry,,,,,,,,,,,,,,,,,,,,,,,,,,,,,,,,,,
CMD,"PRINCE, JULIUS B", 2007 CMD 29659,12/28/2007,Poss of a Controlled Substance -Misd,Poss Drug Paraphernalia-Misd,,,,,,,,,,,,,,,,,,,,,,,,,,,,,,,,,
CMD,"LEE, CLIFTON W", 2007 CMD 29660,12/28/2007,Assault On A Police Officer,,,,,,,,,,,,,,,,,,,,,,,,,,,,,,,,,,
CMD,"MACALINO, JAMES", 2007 CMD 29661,12/28/2007,Simple Assault,Simple Assault,Simple Assault,,,,,,,,,,,,,,,,,,,,,,,,,,,,,,,,
CMD,"DOE, JOHN", 2007 CMD 29665,12/28/2007,Theft Second Degree,,,,,,,,,,,,,,,,,,,,,,,,,,,,,,,,,,
CMD,"BUTLER, JEROME A", 2007 CMD 29667,12/28/2007,Unlawful Entry,,,,,,,,,,,,,,,,,,,,,,,,,,,,,,,,,,
CMD,"HILL, RAYNARD B", 2007 CMD 29669,12/28/2007,Poss of a Controlled Substance -Misd,,,,,,,,,,,,,,,,,,,,,,,,,,,,,,,,,,
CMD,"HANCOCK, KEVIN EMMANUEL", 2007 CMD 29671,12/28/2007,Poss of a Controlled Substance -Misd,,,,,,,,,,,,,,,,,,,,,,,,,,,,,,,,,,
CMD,"HOLMES, TAJ J", 2007 CMD 29672,12/28/2007,Poss of a Controlled Substance -Misd,,,,,,,,,,,,,,,,,,,,,,,,,,,,,,,,,,
CMD,"DUNKLEY, RUSSELL", 2007 CMD 29674,12/28/2007,Poss of a Controlled Substance -Misd,,,,,,,,,,,,,,,,,,,,,,,,,,,,,,,,,,
CMD,"ROBINSON, MITCHELL", 2007 CMD 29680,12/28/2007,Bail Reform Act -Misd,,,,,,,,,,,,,,,,,,,,,,,,,,,,,,,,,,
CMD,"PETERSON, ANTHONY", 2007 CMD 29682,12/28/2007,Bail Reform Act -Misd,,,,,,,,,,,,,,,,,,,,,,,,,,,,,,,,,,
CMD,"BRIDGES, ARTHUR", 2007 CMD 29684,12/28/2007,Bail Reform Act -Misd,,,,,,,,,,,,,,,,,,,,,,,,,,,,,,,,,,
CMD,"HOWARD Jr, THOMAS R", 2007 CMD 29689,12/28/2007,Poss Drug Paraphernalia-Misd,Assault On A Police Officer,,,,,,,,,,,,,,,,,,,,,,,,,,,,,,,,,
CMD,"FREDERICK, LEROY", 2007 CMD 29690,12/28/2007,Poss of a Controlled Substance -Misd,,,,,,,,,,,,,,,,,,,,,,,,,,,,,,,,,,
CMD,"BRATTON, WILLIE DAVE", 2007 CMD 29692,12/28/2007,Assault On A Police Officer,,,,,,,,,,,,,,,,,,,,,,,,,,,,,,,,,,
CMD,"SNEAD, KENYATTA", 2007 CMD 29693,12/28/2007,Assault On A Police Officer,Poss of a Controlled Substance -Misd,Poss of a Controlled Substance -Misd,,,,,,,,,,,,,,,,,,,,,,,,,,,,,,,,
CMD,"LYLES, TRACY R", 2007 CMD 29697,12/28/2007,Sexual Solicitation,,,,,,,,,,,,,,,,,,,,,,,,,,,,,,,,,,
CMD,"HARRIS, MICHEAL NELSON", 2007 CMD 29698,12/28/2007,Poss of a Controlled Substance -Misd,,,,,,,,,,,,,,,,,,,,,,,,,,,,,,,,,,
CMD,"MEANS, HERMAN", 2007 CMD 29701,12/28/2007,Sexual Solicitation,,,,,,,,,,,,,,,,,,,,,,,,,,,,,,,,,,
CMD,"WRIGHT, GUTHRIE MARK", 2007 CMD 29702,12/28/2007,Simple Assault,,,,,,,,,,,,,,,,,,,,,,,,,,,,,,,,,,
CMD,"BILES, TRACEY", 2007 CMD 29704,12/28/2007,Sexual Solicitation,,,,,,,,,,,,,,,,,,,,,,,,,,,,,,,,,,
CMD,"CUI, LIAN SHU", 2007 CMD 29706,12/28/2007,Sexual Solicitation,,,,,,,,,,,,,,,,,,,,,,,,,,,,,,,,,,
CMD,"BARNES, TRACEY", 2007 CMD 29707,12/28/2007,Sexual Solicitation,,,,,,,,,,,,,,,,,,,,,,,,,,,,,,,,,,
CMD,"WALTON, PRISCILLA LATARSHA", 2007 CMD 29708,12/28/2007,Sexual Solicitation,,,,,,,,,,,,,,,,,,,,,,,,,,,,,,,,,,
CMD,"SIMMS, NICK", 2007 CMD 29718,12/29/2007,Sexual Solicitation,,,,,,,,,,,,,,,,,,,,,,,,,,,,,,,,,,
CMD,"WRIGHT, PURNELL E", 2007 CMD 29719,12/29/2007,Sexual Solicitation,,,,,,,,,,,,,,,,,,,,,,,,,,,,,,,,,,
CMD,, 2007 CMD 29721,12/29/2007,Sexual Solicitation,,,,,,,,,,,,,,,,,,,,,,,,,,,,,,,,,,
CMD,"JOHNSON, GEORGE", 2007 CMD 29724,12/29/2007,Poss of a Controlled Substance -Misd,,,,,,,,,,,,,,,,,,,,,,,,,,,,,,,,,,
CMD,"GAYNOR, BRENDA REVON", 2007 CMD 29728,12/29/2007,Sexual Solicitation,,,,,,,,,,,,,,,,,,,,,,,,,,,,,,,,,,
CMD,"MATHIS, ANTHONY TONE", 2007 CMD 29729,12/29/2007,Poss of a Controlled Substance -Misd,,,,,,,,,,,,,,,,,,,,,,,,,,,,,,,,,,
CMD,"NELSON, JOHNNY TERRELL", 2007 CMD 29730,12/29/2007,Sexual Solicitation,,,,,,,,,,,,,,,,,,,,,,,,,,,,,,,,,,
CMD,"HAILY, ELIAS N", 2007 CMD 29731,12/29/2007,Simple Assault,Simple Assault,,,,,,,,,,,,,,,,,,,,,,,,,,,,,,,,,
CMD,"PRICE, CHARLES M", 2007 CMD 29733,12/29/2007,Simple Assault,Attempted Threats to Do Bodily Harm -Misd,Assault On A Police Officer,,,,,,,,,,,,,,,,,,,,,,,,,,,,,,,,
CMD,"SOCKWELL, JASON WENDELL", 2007 CMD 29742,12/29/2007,Poss of a Controlled Substance -Misd,,,,,,,,,,,,,,,,,,,,,,,,,,,,,,,,,,
CMD,"BAYLOR, CHARLES K", 2007 CMD 29743,12/29/2007,Assault On A Police Officer,,,,,,,,,,,,,,,,,,,,,,,,,,,,,,,,,,
CMD,"WALKER, THEODORE LEE", 2007 CMD 29748,12/29/2007,Sexual Solicitation,,,,,,,,,,,,,,,,,,,,,,,,,,,,,,,,,,
CMD,"PRUITT, FELICIA", 2007 CMD 29749,12/29/2007,Sexual Solicitation,,,,,,,,,,,,,,,,,,,,,,,,,,,,,,,,,,
CMD,"JONES, ANDERSON", 2007 CMD 29750,12/29/2007,Unlawful Entry,,,,,,,,,,,,,,,,,,,,,,,,,,,,,,,,,,
CMD,"ROBINSON, MAXINE", 2007 CMD 29754,12/29/2007,Sexual Solicitation,,,,,,,,,,,,,,,,,,,,,,,,,,,,,,,,,,
CMD,"REDMAN, ANDRE IVAN", 2007 CMD 29755,12/29/2007,Assault On A Police Officer,,,,,,,,,,,,,,,,,,,,,,,,,,,,,,,,,,
CMD,"WILSON, SHERONNE", 2007 CMD 29756,12/29/2007,Sexual Solicitation,,,,,,,,,,,,,,,,,,,,,,,,,,,,,,,,,,
CMD,"RILEY, OWEN", 2007 CMD 29766,12/29/2007,Carry Pistol W/O Lic (Misd),Unlawful Poss Pistol -Misd,,,,,,,,,,,,,,,,,,,,,,,,,,,,,,,,,
CMD,"WASHINGTON, JOSEPH CLAY", 2007 CMD 29767,12/29/2007,Simple Assault,Simple Assault,Simple Assault,Poss of a Controlled Substance -Misd,,,,,,,,,,,,,,,,,,,,,,,,,,,,,,,
CMD,"ETHRIDGE, MICHAEL", 2007 CMD 29768,12/29/2007,Poss of a Controlled Substance -Misd,Poss of a Controlled Substance -Misd,,,,,,,,,,,,,,,,,,,,,,,,,,,,,,,,,
CMD,"WARE, JEANETTE", 2007 CMD 29771,12/29/2007,Poss of a Controlled Substance -Misd,,,,,,,,,,,,,,,,,,,,,,,,,,,,,,,,,,
CMD,"QUEZADA, MIGUEL", 2007 CMD 29772,12/29/2007,Poss of a Controlled Substance -Misd,,,,,,,,,,,,,,,,,,,,,,,,,,,,,,,,,,
CMD,"BOXLEY, SPENCER J", 2007 CMD 29775,12/29/2007,Poss of a Controlled Substance -Misd,,,,,,,,,,,,,,,,,,,,,,,,,,,,,,,,,,
CMD,"WALKER, RICHARD", 2007 CMD 29776,12/29/2007,Poss of a Controlled Substance -Misd,,,,,,,,,,,,,,,,,,,,,,,,,,,,,,,,,,
CMD,"WOODSON, ASHLEY", 2007 CMD 29777,12/29/2007,Poss of a Controlled Substance -Misd,,,,,,,,,,,,,,,,,,,,,,,,,,,,,,,,,,
CMD,"GILLIS, TYRONE RICARDO", 2007 CMD 29784,12/29/2007,Sexual Solicitation,,,,,,,,,,,,,,,,,,,,,,,,,,,,,,,,,,
CMD,"WILLIAMS, REGINALD L", 2007 CMD 29786,12/29/2007,Poss of a Controlled Substance -Misd,Poss of a Controlled Substance -Misd,,,,,,,,,,,,,,,,,,,,,,,,,,,,,,,,,
CMD,"JORDAN, SHARON LATRECE", 2007 CMD 29787,12/29/2007,Poss of a Controlled Substance -Misd,,,,,,,,,,,,,,,,,,,,,,,,,,,,,,,,,,
CMD,"ROYAL, LARRY D", 2007 CMD 29788,12/31/2007,Threats to Do Bodily Harm -Misd,,,,,,,,,,,,,,,,,,,,,,,,,,,,,,,,,,
CMD,"RICE, JASON DANIEL", 2007 CMD 29797,12/31/2007,Contempt - OAG,,,,,,,,,,,,,,,,,,,,,,,,,,,,,,,,,,
CMD,"WILLIAMS, ANTHONY", 2007 CMD 29798,12/31/2007,Poss of a Controlled Substance -Misd,Poss Drug Paraphernalia W/I to Use,,,,,,,,,,,,,,,,,,,,,,,,,,,,,,,,,
CMD,"HARRISON, CHARLES J", 2007 CMD 29799,12/31/2007,Destruction of Property less than $200,,,,,,,,,,,,,,,,,,,,,,,,,,,,,,,,,,
CMD,"WILLIAMS, KAREEM ALEXANDER", 2007 CMD 29801,12/31/2007,Poss of a Controlled Substance -Misd,,,,,,,,,,,,,,,,,,,,,,,,,,,,,,,,,,
CMD,"WHEELER, JAMES PURNELL", 2007 CMD 29802,12/31/2007,Poss of a Controlled Substance -Misd,,,,,,,,,,,,,,,,,,,,,,,,,,,,,,,,,,
CMD,"BROOKS, DORY J", 2007 CMD 29805,12/31/2007,Poss of a Controlled Substance -Misd,,,,,,,,,,,,,,,,,,,,,,,,,,,,,,,,,,
CMD,"WILLIAMS, RICARDO", 2007 CMD 29808,12/31/2007,Poss of a Controlled Substance -Misd,,,,,,,,,,,,,,,,,,,,,,,,,,,,,,,,,,
CMD,"GERALD, RICHARD H", 2007 CMD 29810,12/31/2007,Poss of a Controlled Substance -Misd,,,,,,,,,,,,,,,,,,,,,,,,,,,,,,,,,,
CMD,"CALDWELL, DAVID BRIAN", 2007 CMD 29819,12/31/2007,Destruction of Property less than $200,,,,,,,,,,,,,,,,,,,,,,,,,,,,,,,,,,
CMD,"BURKS, TERRENCE P", 2007 CMD 29822,12/31/2007,Simple Assault,Poss Prohibited Weapon -Other,,,,,,,,,,,,,,,,,,,,,,,,,,,,,,,,,
CMD,"PERRY, GRESHAWN BERNETTE", 2007 CMD 29828,12/31/2007,Theft Second Degree,,,,,,,,,,,,,,,,,,,,,,,,,,,,,,,,,,
CMD,"HARVEY, DANNY", 2007 CMD 29829,12/31/2007,Unlawful Entry,,,,,,,,,,,,,,,,,,,,,,,,,,,,,,,,,,
CMD,"BUTLER, SALLY", 2007 CMD 29830,12/31/2007,Sexual Solicitation,,,,,,,,,,,,,,,,,,,,,,,,,,,,,,,,,,
CMD,"TRAETA, SANTO NMN", 2007 CMD 29831,12/31/2007,Simple Assault,,,,,,,,,,,,,,,,,,,,,,,,,,,,,,,,,,
CMD,"JONES, DOMINIQUE", 2007 CMD 29834,12/31/2007,Poss of a Controlled Substance -Misd,,,,,,,,,,,,,,,,,,,,,,,,,,,,,,,,,,
CMD,"JACKSON, DARNELL", 2007 CMD 29835,12/31/2007,Threats to Do Bodily Harm -Misd,,,,,,,,,,,,,,,,,,,,,,,,,,,,,,,,,,
CMD,"NEAL, CHRISTOPHER A", 2007 CMD 29838,12/31/2007,Poss of a Controlled Substance -Misd,,,,,,,,,,,,,,,,,,,,,,,,,,,,,,,,,,
CMD,"TWEH, MATTHEW WOLO", 2007 CMD 29840,12/31/2007,Poss of a Controlled Substance -Misd,,,,,,,,,,,,,,,,,,,,,,,,,,,,,,,,,,
CMD,"WARE Jr, RUDOLPH", 2007 CMD 29843,12/31/2007,Bail Reform Act -Misd,,,,,,,,,,,,,,,,,,,,,,,,,,,,,,,,,,
CMD,"REDMON, ANTOINE", 2007 CMD 29846,12/31/2007,Poss of a Controlled Substance -Misd,,,,,,,,,,,,,,,,,,,,,,,,,,,,,,,,,,
CMD,"GROSS, ARTIMAS M", 2007 CMD 29852,12/31/2007,Poss of a Controlled Substance -Misd,,,,,,,,,,,,,,,,,,,,,,,,,,,,,,,,,,
CMD,"WARE, RUDOLPH J", 2007 CMD 29856,12/31/2007,Bail Reform Act -Misd,,,,,,,,,,,,,,,,,,,,,,,,,,,,,,,,,,
CMD,"GRANDY, JOSEPH", 2007 CMD 29857,12/31/2007,Poss of a Controlled Substance -Misd,,,,,,,,,,,,,,,,,,,,,,,,,,,,,,,,,,
CMD,"MARSHALL, LOUIS R", 2007 CMD 29859,12/31/2007,Shoplifting,,,,,,,,,,,,,,,,,,,,,,,,,,,,,,,,,,
CMD,"JENKINS, CALVIN L", 2007 CMD 29863,12/31/2007,Bail Reform Act -Misd,,,,,,,,,,,,,,,,,,,,,,,,,,,,,,,,,,
CMD,"CARNEY, CARMILLA", 2007 CMD 29864,12/31/2007,Sexual Solicitation,,,,,,,,,,,,,,,,,,,,,,,,,,,,,,,,,,
CMD,"JENKINS, CALVIN L", 2007 CMD 29865,12/31/2007,Bail Reform Act -Misd,,,,,,,,,,,,,,,,,,,,,,,,,,,,,,,,,,
CMD,"PERRY, GRESHAWN BERNETTE", 2007 CMD 29866,12/31/2007,Bail Reform Act -Misd,,,,,,,,,,,,,,,,,,,,,,,,,,,,,,,,,,
CMD,"BRYRD, ANNETTE C", 2007 CMD 29867,12/31/2007,Sexual Solicitation,,,,,,,,,,,,,,,,,,,,,,,,,,,,,,,,,,
CMD,"LITTLE, EDJUAN M", 2007 CMD 29868,12/31/2007,Poss of a Controlled Substance -Misd,Poss Drug Paraphernalia-Misd,,,,,,,,,,,,,,,,,,,,,,,,,,,,,,,,,
CMD,"KIRKWOOD, LISA E", 2007 CMD 29872,12/31/2007,Sexual Solicitation,,,,,,,,,,,,,,,,,,,,,,,,,,,,,,,,,,
CMD,"LEAHY, SEAN", 2007 CMD 29873,12/31/2007,Destruction of Property less than $200,Unlawful Entry,,,,,,,,,,,,,,,,,,,,,,,,,,,,,,,,,
CMD,"HARLEY, ANGELA MARIE", 2007 CMD 29875,12/31/2007,Poss of a Controlled Substance -Misd,,,,,,,,,,,,,,,,,,,,,,,,,,,,,,,,,,
CMD,"JONES, CHANDLER D", 2007 CMD 29876,12/31/2007,Bail Reform Act -Misd,,,,,,,,,,,,,,,,,,,,,,,,,,,,,,,,,,
CMD,"PATTEN, JARROD MICHAEL", 2007 CMD 29878,12/31/2007,Threats to Do Bodily Harm -Misd,,,,,,,,,,,,,,,,,,,,,,,,,,,,,,,,,,
CMD,"RAY, ANTWON C", 2007 CMD 29879,12/31/2007,Bail Reform Act -Misd,,,,,,,,,,,,,,,,,,,,,,,,,,,,,,,,,,
CMD,"WIGGINS, WADE", 2007 CMD 29882,12/31/2007,Poss of a Controlled Substance -Misd,,,,,,,,,,,,,,,,,,,,,,,,,,,,,,,,,,
