type,person,number,date,charge_1,charge_2,charge_3,charge_4,charge_5,charge_6,charge_7,charge_8,charge_9,charge_10,charge_11,charge_12,charge_13,charge_14,charge_15,charge_16,charge_17,charge_18,charge_19,charge_20,charge_21,charge_22,charge_23,charge_24,charge_25,charge_26,charge_27,charge_28,charge_29,charge_30,charge_31,charge_32,charge_33,charge_34,charge_35
CF3,"GANT, DONNELL DEANGELO", 2007 CF3 2752,02/01/2007,Arrest Charge,Charging document Armed Robbery,,,,,,,,,,,,,,,,,,,,,,,,,,,,,,,,,
CF3,"JOHNS, STEPHON", 2007 CF3 2757,02/01/2007,Robbery While Armed,,,,,,,,,,,,,,,,,,,,,,,,,,,,,,,,,,
CF3,"BING, LARRY CARDELL", 2007 CF3 2941,02/03/2007,Robbery While Armed,Poss Firearm During Crime of Violence,Unauthorized Use of A Vehicle,Theft First Degree,,,,,,,,,,,,,,,,,,,,,,,,,,,,,,,
CF3,"WILLIAMS, CHRISTOPHER D", 2007 CF3 2942,02/03/2007,Unauthorized Use of A Vehicle,Flee Law Enforcement Officer,,,,,,,,,,,,,,,,,,,,,,,,,,,,,,,,,
CF3,"JOHNSON, DEVIN", 2007 CF3 2945,02/03/2007,Unauthorized Use of A Vehicle,,,,,,,,,,,,,,,,,,,,,,,,,,,,,,,,,,
CF3,"FOREMAN, RAHIM N", 2007 CF3 3325,02/08/2007,Aggravated Assault Knowingly While Armed,Assault W/I to Kill While Armed,Carry Dang Weapon-Outside Home/Business,,,,,,,,,,,,,,,,,,,,,,,,,,,,,,,,
CF3,"PAIR, DAVID", 2007 CF3 3352,02/08/2007,Burglary One,Assault With A Dangerous Weapon,,Assault With A Dangerous Weapon,Assault With A Dangerous Weapon,Poss Firearm During Crime of Violence,,Unlawful Poss of A Firearm,,,,,,,,,,,,,,,,,,,,,,,,,,,
CF3,"KNIGHT, VINCENT L", 2007 CF3 3408,02/09/2007,Assault With A Dangerous Weapon,Carry Pistol W/O Lic -Outside Home/Business,,,,,,,,,,,,,,,,,,,,,,,,,,,,,,,,,
CF3,"BARNETT, RUSSELL J", 2007 CF3 3574,02/12/2007,Robbery While Armed,,,,,,,,,,,,,,,,,,,,,,,,,,,,,,,,,,
CF3,"GORDON, TERENCE KAREEM", 2007 CF3 3582,02/12/2007,Robbery While Armed,,,,,,,,,,,,,,,,,,,,,,,,,,,,,,,,,,
CF3,"GLENN, TONY", 2007 CF3 3583,02/12/2007,Robbery While Armed,,,,,,,,,,,,,,,,,,,,,,,,,,,,,,,,,,
CF3,"YOUNG, DOCTANIAN R", 2007 CF3 3694,02/13/2007,Assault With A Dangerous Weapon,,,,,,,,,,,,,,,,,,,,,,,,,,,,,,,,,,
CF3,"SHORTER, EARL A", 2007 CF3 3695,02/13/2007,Aggravated Assault Knowingly,,,,,,,,,,,,,,,,,,,,,,,,,,,,,,,,,,
CF3,"RINDGO, CHARLES KEITH", 2007 CF3 3727,02/13/2007,Robbery While Armed,,,,,,,,,,,,,,,,,,,,,,,,,,,,,,,,,,
CF3,"JACKSON, THOMAS", 2007 CF3 3755,02/14/2007,Arson,,,,,,,,,,,,,,,,,,,,,,,,,,,,,,,,,,
CF3,"WASHINGTON, DONTE", 2007 CF3 3847,02/15/2007,Robbery,,,,,,,,,,,,,,,,,,,,,,,,,,,,,,,,,,
CF3,"WALKER, ROLAND HAYWOOD", 2007 CF3 3848,02/15/2007,Simple Assault,Unlawful Ammunition,,,,,,,,,,,,,,,,,,,,,,,,,,,,,,,,,
CF3,"WEST, SEAN T", 2007 CF3 3855,02/15/2007,Robbery,,,,,,,,,,,,,,,,,,,,,,,,,,,,,,,,,,
CF3,"HERNANDEZ-AMAYA, DANIEL ALEJANDRO", 2007 CF3 3866,02/15/2007,Assault With A Dangerous Weapon,Poss Firearm During Crime of Violence,Carry Pistol W/O Lic -Outside Home/Business,Unlawful Poss of A Firearm,Unlawful Poss Ammunition,,,,,,,,,,,,,,,,,,,,,,,,,,,,,,
CF3,"TYLER, DAVID A", 2007 CF3 3869,02/15/2007,Assault W/I to Kill While Armed,Poss Firearm During Crime of Violence,Assault W/I to Kill While Armed,Poss Firearm During Crime of Violence,Robbery While Armed,Poss Firearm During Crime of Violence,Unauthorized Use of A Vehicle,,,,,,,,,,,,,,,,,,,,,,,,,,,,
CF3,"EDMONDS, MARCO J", 2007 CF3 3872,02/15/2007,Assault W/I to Kill While Armed,Poss Firearm During Crime of Violence,Assault W/I to Kill While Armed,Poss Firearm During Crime of Violence,Robbery While Armed,Poss Firearm During Crime of Violence,Unauthorized Use of A Vehicle,Carry Pistol W/O Lic -Outside Home/Business,Carry Pistol W/O Lic -Outside Home/Business,Unlawful Poss of A Firearm,Unlawful Poss Ammunition,,,,,,,,,,,,,,,,,,,,,,,,
CF3,"JONES, JONATHAN", 2007 CF3 4103,02/19/2007,Robbery,,,,,,,,,,,,,,,,,,,,,,,,,,,,,,,,,,
CF3,"HUNTER, NOKOMIS", 2007 CF3 4217,02/20/2007,Robbery While Armed,,,,,,,,,,,,,,,,,,,,,,,,,,,,,,,,,,
CF3,"WOOTEN, DONALD", 2007 CF3 4248,02/21/2007,Aggravated Assault Knowingly,,,,,,,,,,,,,,,,,,,,,,,,,,,,,,,,,,
CF3,"LAY, MARK DOUGLAS", 2007 CF3 4304,02/21/2007,Kidnapping,,,,,,,,,,,,,,,,,,,,,,,,,,,,,,,,,,
CF3,"CLANTON, LYDELL D", 2007 CF3 4473,02/23/2007,Robbery While Armed,Robbery While Armed,Assault With A Dangerous Weapon,,,,,,,,,,,,,,,,,,,,,,,,,,,,,,,,
CF3,"AYERS, MARQUICE JAMAL", 2007 CF3 4518,02/23/2007,Assault With A Dangerous Weapon,,,,,,,,,,,,,,,,,,,,,,,,,,,,,,,,,,
CF3,"RAMOS, OMAR ALEX", 2007 CF3 4567,02/24/2007,Assault W/I Any Offense While Armed,,,,,,,,,,,,,,,,,,,,,,,,,,,,,,,,,,
CF3,"RAMOS, JOSE", 2007 CF3 4572,02/24/2007,Aggravated Assault w/Armed,,,,,,,,,,,,,,,,,,,,,,,,,,,,,,,,,,
CF3,"BUTLER, CHRISTOPHER", 2007 CF3 4603,02/24/2007,Assault W/I to Rob,,,,,,,,,,,,,,,,,,,,,,,,,,,,,,,,,,
CF3,"WILSON, MILES EDWARD", 2007 CF3 4665,02/26/2007,Assault W/I to Rob,Amended to Assault with intent to Committ Robbery,,,,,,,,,,,,,,,,,,,,,,,,,,,,,,,,,
CF3,"GIBSON, ALFRED SHELDREN", 2007 CF3 4680,02/26/2007,Aggravated Assault Knowingly,,,,,,,,,,,,,,,,,,,,,,,,,,,,,,,,,,
CF3,"SCOTT, CHRISTOPHER", 2007 CF3 4685,02/26/2007,Robbery While Armed,,,,,,,,,,,,,,,,,,,,,,,,,,,,,,,,,,
CF3,"LYONS, DERRY", 2007 CF3 4726,02/27/2007,Arson,Destruction of Property over $200,,,,,,,,,,,,,,,,,,,,,,,,,,,,,,,,,
CF3,"WASHINGTON, EUGENE ALVIN", 2007 CF3 4737,02/27/2007,Attempted Robbery While Armed,,Attempted Poss Prohibited Weapon -Knife,,,,,,,,,,,,,,,,,,,,,,,,,,,,,,,,
CF3,"PONDER, LAMONT", 2007 CF3 4796,02/28/2007,Robbery,,,,,,,,,,,,,,,,,,,,,,,,,,,,,,,,,,
CF3,"RIDLEY, LAWRENCE ALEN", 2007 CF3 4835,02/28/2007,Kidnapping,,,,,,,,,,,,,,,,,,,,,,,,,,,,,,,,,,
CF3,"DILLARD, JOHN", 2007 CF3 4838,02/28/2007,Assault W/I to Kill While Armed,Aggravated Assault Knowingly While Armed,Aggravated Aslt-Grave Risk,Threat to Injure a Person-Fel,Threat to Injure a Person-Fel,Kidnapping While Armed,Attempted First Degree Sex Abuse- Force,Attempted First Degree Sex Abuse- Force,,,,,,,,,,,,,,,,,,,,,,,,,,,
CF3,"LEARY, MARGARETTA", 2007 CF3 4840,02/28/2007,Robbery While Armed,,,,,,,,,,,,,,,,,,,,,,,,,,,,,,,,,,
CF3,"HART, LONNELL", 2007 CF3 4890,02/28/2007,Robbery While Armed,Assault With A Dangerous Weapon,,,,,,,,,,,,,,,,,,,,,,,,,,,,,,,,,
CF3,"HART, DONNELL", 2007 CF3 4891,02/28/2007,Robbery While Armed,Assault With A Dangerous Weapon,,,,,,,,,,,,,,,,,,,,,,,,,,,,,,,,,
CF3,"BURRELL, SHAWN R", 2007 CF3 4925,03/01/2007,Kidnapping While Armed,,,,,,,,,,,,,,,,,,,,,,,,,,,,,,,,,,
CF3,"GASS, STEPHON NMN", 2007 CF3 4987,03/01/2007,First Degree Sex Abuse- Force,Kidnapping While Armed,Kidnapping While Armed,Threat to Injure a Person-Fel,First Degree Sex Abuse- Force While Armed,Third Degree Sex Abuse- Force While Armed,Kidnapping While Armed,Threat to Injure a Person-Fel,,,,,,,,,,,,,,,,,,,,,,,,,,,
CF3,"HARRISON, STEVEN TYRONE", 2007 CF3 5061,03/02/2007,Robbery While Armed,,,,,,,,,,,,,,,,,,,,,,,,,,,,,,,,,,
CF3,"PETERSON, JUAN", 2007 CF3 5097,03/03/2007,Robbery While Armed,,,,,,,,,,,,,,,,,,,,,,,,,,,,,,,,,,
CF3,"ALAVERZ, JAIME", 2007 CF3 5116,06/06/2007,Assault W/I to Kill While Armed,,,Poss Firearm During Crime of Violence,,,,,,,,,Carry Pistol W/O Lic -Outside Home/Business,,,,,,,,,,,,,,,,,,,,,,
CF3,"GREEN, GREGORY", 2007 CF3 5137,03/03/2007,Robbery While Armed,Poss Firearm During Crime of Violence,Assault With A Dangerous Weapon,Poss Firearm During Crime of Violence,Assault With A Dangerous Weapon,,,,,,,,,,,,,,,,,,,,,,,,,,,,,,
CF3,"BRITTON, D ANDRE' NMN", 2007 CF3 5143,03/03/2007,Kidnapping While Armed,,,,,,,,,,,,,,,,,,,,,,,,,,,,,,,,,,
CF3,, 2007 CF3 5144,03/03/2007,Kidnapping While Armed,,,,,,,,,,,,,,,,,,,,,,,,,,,,,,,,,,
CF3,"KEMP, MICHAEL ANTONIO", 2007 CF3 5146,03/03/2007,Robbery While Armed,Poss Firearm During Crime of Violence,Assault With A Dangerous Weapon,Poss Firearm During Crime of Violence,,,,,,,,,,,,,,,,,,,,,,,,,,,,,,,
CF3,"WALKER, GLENN RASHAUN", 2007 CF3 5147,03/03/2007,Robbery While Armed,Poss Firearm During Crime of Violence,Assault With A Dangerous Weapon,Poss Firearm During Crime of Violence,,,,,,,,,,,,,,,,,,,,,,,,,,,,,,,
CF3,"BROADUS, JAMES", 2007 CF3 5149,03/03/2007,Robbery While Armed,Poss Firearm During Crime of Violence,Assault With A Dangerous Weapon,Poss Firearm During Crime of Violence,,,,,,,,,,,,,,,,,,,,,,,,,,,,,,,
CF3,"MILLS, JEFFERY", 2007 CF3 5202,03/05/2007,Assault W/I to Rob While Armed,Poss Prohibited Weapon -Other,,,,,,,,,,,,,,,,,,,,,,,,,,,,,,,,,
CF3,"REDMAN, ANDRE I", 2007 CF3 5219,03/05/2007,Arson,,,,,,,,,,,,,,,,,,,,,,,,,,,,,,,,,,
CF3,"ROSEBORO, DAVID S", 2007 CF3 5271,03/05/2007,Assault W/I to Rob While Armed,Poss Firearm During Crime of Violence,Assault W/I to Rob While Armed,Poss Firearm During Crime of Violence,Assault With A Dangerous Weapon,Poss Firearm During Crime of Violence,,,,,,,,,,,,,,,,,,,,,,,,,,,,,
CF3,"PAYLOR III, RODNEY REVON", 2007 CF3 5375,03/07/2007,Robbery While Armed,,,,,,,,,,,,,,,,,,,,,,,,,,,,,,,,,,
CF3,"JONES, ONTOINE", 2007 CF3 5558,03/09/2007,Burglary Two While Armed,Poss Firearm During Crime of Violence,Robbery While Armed,Poss Firearm During Crime of Violence,Robbery While Armed,Poss Firearm During Crime of Violence,Robbery While Armed,Poss Firearm During Crime of Violence,Kidnapping While Armed,Poss Firearm During Crime of Violence,Kidnapping While Armed,Poss Firearm During Crime of Violence,,,,,,,,,,,,,,,,,,,,,,,
CF3,"JOHNSON, MCKINLEY NMN", 2007 CF3 5625,03/09/2007,Robbery While Armed,,,,,,,,,,,,,,,,,,,,,,,,,,,,,,,,,,
CF3,"SMITH, LEONARD M", 2007 CF3 5648,03/10/2007,Assault With A Dangerous Weapon,,,,,,,,,,,,,,,,,,,,,,,,,,,,,,,,,,
CF3,"KITTLE, GREGORY R", 2007 CF3 5705,03/10/2007,Simple Assault,Destruction of Property over $200,Burglary One,Assault W/I to Rob (Force and Violence),Assault W/I to Rob (Force and Violence),Threat to Injure a Person-Fel,Threat to Injure a Person-Fel,Assault W/I to Kill While Armed,Aggravated Aslt-Grave Risk While Armed,Poss Firearm During Crime of Violence,Poss Firearm During Crime of Violence,Poss Firearm During Crime of Violence,Poss Firearm During Crime of Violence,,,,,,,,,,,,,,,,,,,,,,
CF3,"LIGON, JOSHUA TRISTAIN", 2007 CF3 6084,03/15/2007,Arrest Charge,,,,,,,,,,,,,,,,,,,,,,,,,,,,,,,,,,
CF3,"STUART, TYRONE", 2007 CF3 6225,03/16/2007,Robbery While Armed,Poss Firearm During Crime of Violence,,,,,,,,,,,,,,,,,,,,,,,,,,,,,,,,,
CF3,"HOPKINS, CALVIN", 2007 CF3 6411,03/19/2007,Robbery While Armed,,,,,,,,,,,,,,,,,,,,,,,,,,,,,,,,,,
CF3,"BROCKSMITH, RUSSELL H", 2007 CF3 6466,03/20/2007,Robbery,,,,,,,,,,,,,,,,,,,,,,,,,,,,,,,,,,
CF3,"SATTERWHITE, DAWNTAY LATRICE", 2007 CF3 6560,03/21/2007,Assault With A Dangerous Weapon,,,,,,,,,,,,,,,,,,,,,,,,,,,,,,,,,,
CF3,"MARSHALL Jr, BRUCE W", 2007 CF3 6590,03/21/2007,Malicious Disfigurement,Aggravated Assault Knowingly,Assault With A Dangerous Weapon,,,,,,,,,,,,,,,,,,,,,,,,,,,,,,,,
CF3,"DORSEY, TYRONE", 2007 CF3 6620,03/21/2007,Assault W/I to Rob While Armed,,,,,,,,,,,,,,,,,,,,,,,,,,,,,,,,,,
CF3,"BEATTY, TOSHANTI", 2007 CF3 6637,03/22/2007,Burglary One While Armed,Attempted Carry Dang Weapon-Outside Home/Business,,,,,,,,,,,,,,,,,,,,,,,,,,,,,,,,,
CF3,"RICE, CORNELIUS", 2007 CF3 6710,03/22/2007,Burglary Two,,Carry Pistol W/O Lic -Outside Home/Business,,,,,,,,,,,,,,,,,,,,,,,,,,,,,,,,
CF3,"SHORTER, DEWAYNE A", 2007 CF3 6769,03/23/2007,Assault W/I to Kill While Armed,,Assault With A Dangerous Weapon,Poss Firearm During Crime of Violence,Poss Firearm During Crime of Violence,Poss Firearm During Crime of Violence,Carry Pistol W/O Lic -Outside Home/Business,Unlawful Poss of A Firearm,Unlawful Poss Ammunition,,,,,,,,,,,,,,,,,,,,,,,,,,
CF3,"WILLIS, CARL", 2007 CF3 6793,03/23/2007,,,,,,,,,,,,,,,,,,,,,,,,,,,,,,,,,,,
CF3,"GRANT, SHAWN", 2007 CF3 6805,03/23/2007,Burglary Two,Theft First Degree,Destruction of Property less than $200,Unauthorized Use of A Vehicle,Receiving Stolen Property-Fel,Flee Law Enforcement Officer,"Escape, (From Officer)",Carry Pistol W/O Lic -Outside Home/Business,Unlawful Poss of A Firearm,Unlawful Poss Ammunition,,,,,,,,,,,,,,,,,,,,,,,,,
CF3,"HARVISON, AARON", 2007 CF3 6854,03/24/2007,Carjacking While Armed,Robbery While Armed,Poss Firearm During Crime of Violence,Carry Pistol W/O Lic -Outside Home/Business,Unlawful Poss of A Firearm,Unlawful Poss Ammunition,,,,,,,,,,,,,,,,,,,,,,,,,,,,,
CF3,"HAYES, BENJAMIN ALEXANDER", 2007 CF3 6855,03/24/2007,Carjacking While Armed,Robbery While Armed,Poss Firearm During Crime of Violence,Carry Pistol W/O Lic -Outside Home/Business,Unlawful Poss of A Firearm,Unlawful Poss Ammunition,,,,,,,,,,,,,,,,,,,,,,,,,,,,,
CF3,"GREEN, ANTHONY TYRONE", 2007 CF3 6873,03/24/2007,Robbery,,,,,,,,,,,,,,,,,,,,,,,,,,,,,,,,,,
CF3,"CORDERO, LEO NMN", 2007 CF3 6918,03/26/2007,Robbery,,,,,,,,,,,,,,,,,,,,,,,,,,,,,,,,,,
CF3,"GIBSON, JONATHAN M", 2007 CF3 6931,03/26/2007,Robbery While Armed,Poss Firearm During Crime of Violence,Robbery While Armed,Poss Firearm During Crime of Violence,Assault With A Dangerous Weapon,Poss Firearm During Crime of Violence,Assault With A Dangerous Weapon,Poss Firearm During Crime of Violence,Threat to Injure a Person-Fel,Threat to Injure a Person-Fel,,,,,,,,,,,,,,,,,,,,,,,,,
CF3,"LINDSEY, DERRICK", 2007 CF3 6981,03/26/2007,,Robbery,,,,,,,,,,,,,,,,,,,,,,,,,,,,,,,,,
CF3,"SMITH, LOUIS A", 2007 CF3 7070,03/27/2007,Assault With A Dangerous Weapon,Poss Firearm During Crime of Violence,Carry Pistol W/O Lic -Outside Home/Business,,Unlawful Poss Ammunition,,,,,,,,,,,,,,,,,,,,,,,,,,,,,,
CF3,"THOMPSON, DONTAYE", 2007 CF3 7075,03/27/2007,Robbery While Armed,,,,,,,,,,,,,,,,,,,,,,,,,,,,,,,,,,
CF3,"BULLARD, DARRELL D", 2007 CF3 7081,03/27/2007,Robbery,,,,,,,,,,,,,,,,,,,,,,,,,,,,,,,,,,
CF3,"HALL, GILBERT", 2007 CF3 7083,03/27/2007,Robbery,Simple Assault,Theft Second Degree,,,,,,,,,,,,,,,,,,,,,,,,,,,,,,,,
CF3,"DAVIS, DANIELLE N", 2007 CF3 7085,03/27/2007,Robbery,Receiving Stolen Property-Fel,,,,,,,,,,,,,,,,,,,,,,,,,,,,,,,,,
CF3,"ARCHIBALD, MARQUIS A", 2007 CF3 7137,03/27/2007,Threat to Injure a Person-Fel,Threat to Injure a Person-Fel,Burglary Two While Armed,Poss Prohibited Weapon -Other,,,,,,,,,,,,,,,,,,,,,,,,,,,,,,,
CF3,"JOHNSON, JAMES D", 2007 CF3 7149,03/28/2007,Assault With A Dangerous Weapon,Simple Assault,,,,,,,,,,,,,,,,,,,,,,,,,,,,,,,,,
CF3,"WILLIAMS, DARRYL J", 2007 CF3 7216,03/28/2007,Assault W/I to Kill While Armed,,,,,,,,,,,,,,,,,,,,,,,,,,,,,,,,,,
CF3,"BOLDEN, LEROY L", 2007 CF3 7262,03/29/2007,Robbery,,,,,,,,,,,,,,,,,,,,,,,,,,,,,,,,,,
CF3,"EVANS, BERRY CLINTON", 2007 CF3 7301,03/29/2007,Robbery While Armed,Attempted Robbery,,,,,,,,,,,,,,,,,,,,,,,,,,,,,,,,,
CF3,"RICHARDSON, RANDOLPH", 2007 CF3 7489,03/31/2007,Burglary Two,,,,,,,,,,,,,,,,,,,,,,,,,,,,,,,,,,
CF3,"WILKERSON, LESTER N", 2007 CF3 7673,04/04/2007,Kidnapping,(amended now to read kidnapping),,,,,,,,,,,,,,,,,,,,,,,,,,,,,,,,,
CF3,"GREENE, JOSEPH RAYZELL", 2007 CF3 7845,04/05/2007,Assault W/I to Kill While Armed,Poss Firearm During Crime of Violence,Aggravated Assault Knowingly While Armed,Poss Firearm During Crime of Violence,Carry Pistol W/O Lic -Outside Home/Business,,Unlawful Poss of A Firearm,Unlawful Poss Ammunition,Obstructing Justice,,,,,,,,,,,,,,,,,,,,,,,,,,
CF3,"GREENE, JOSEPH RAYZELL", 2007 CF3 7849,04/05/2007,Unlawful Entry,Simple Assault,Threat to Injure a Person-Fel,Assault W/I to Kill While Armed,Poss Firearm During Crime of Violence,,Destruction of Property over $200,Carry Pistol W/O Lic -Outside Home/Business,Unlawful Poss of A Firearm,Unlawful Poss Ammunition,,Obstructing Justice,,,,,,,,,,,,,,,,,,,,,,,
CF3,"KELLEM, HAZEL", 2007 CF3 7856,04/05/2007,Assault With A Dangerous Weapon,,,,,,,,,,,,,,,,,,,,,,,,,,,,,,,,,,
CF3,"BLANCO, JOSE MARVIN", 2007 CF3 7865,04/06/2007,Assault W/I to Kill While Armed,Aggravated Assault Knowingly While Armed,Threat to Injure a Person-Fel,Simple Assault,,,,,,,,,,,,,,,,,,,,,,,,,,,,,,,
CF3,"PAYNE Jr, HENRY C.", 2007 CF3 7890,04/06/2007,Assault With A Dangerous Weapon,Poss Firearm During Crime of Violence,Carry Pistol W/O Lic -Outside Home/Business,Unlawful Poss of A Firearm,Unlawful Poss Ammunition,Poss Prohibited Weapon,,,,,,,,,,,,,,,,,,,,,,,,,,,,,
CF3,"MCGLENN, ROBIN EDWARD", 2007 CF3 7896,04/06/2007,Burglary Two,,,,,,,,,,,,,,,,,,,,,,,,,,,,,,,,,,
CF3,"DOUGLAS, TRAVIS JEROME", 2007 CF3 7900,04/06/2007,Burglary One,,,,,,,,,,,,,,,,,,,,,,,,,,,,,,,,,,
CF3,"MCCARTNEY, JAMES FRANKLYN", 2007 CF3 7945,04/07/2007,Assault With A Dangerous Weapon,Carry Dang Weapon-Outside Home/Business,Lewd Indecent or Obscene Acts,Lewd Indecent or Obscene Acts,,,,,,,,,,,,,,,,,,,,,,,,,,,,,,,
CF3,"COLES, RONALD D", 2007 CF3 7957,04/07/2007,Aggravated Assault Knowingly While Armed,Assault On A Police Officer,Assault With A Dangerous Weapon,Poss Firearm During Crime of Violence,Poss Firearm During Crime of Violence,Poss Firearm During Crime of Violence,Carry Pistol W/O Lic -Outside Home/Business,Unlawful Poss of A Firearm,Unlawful Poss Ammunition,,,,,,,,,,,,,,,,,,,,,,,,,,
CF3,"CABELL, DWAYNE M", 2007 CF3 7987,04/07/2007,Burglary One,,,,,,,,,,,,,,,,,,,,,,,,,,,,,,,,,,
CF3,"PHILIPS, LAMONT", 2007 CF3 8019,04/07/2007,Burglary One While Armed,Poss Firearm During Crime of Violence,Robbery While Armed,Poss Firearm During Crime of Violence,Assault With A Dangerous Weapon,Poss Firearm During Crime of Violence,Assault With A Dangerous Weapon,Poss Firearm During Crime of Violence,Carry Pistol W/O Lic -Outside Home/Business,Unlawful Poss of A Firearm,Unlawful Poss Ammunition,Obstructing Justice,,,,,,,,,,,,,,,,,,,,,,,
CF3,"LINDSEY, RAYNARD J", 2007 CF3 8031,04/09/2007,Attempted Robbery While Armed,,,,,,,,,,,,,,,,,,,,,,,,,,,,,,,,,,
CF3,"BEY, MELVIN RAY", 2007 CF3 8070,04/09/2007,Assault With A Dangerous Weapon,Attempted Robbery,,,,,,,,,,,,,,,,,,,,,,,,,,,,,,,,,
CF3,"CHUBBS, JOSHUA NMN", 2007 CF3 8071,04/09/2007,Robbery,,,,,,,,,,,,,,,,,,,,,,,,,,,,,,,,,,
CF3,"KING, WELLINGTON", 2007 CF3 8194,04/10/2007,Robbery,,,,,,,,,,,,,,,,,,,,,,,,,,,,,,,,,,
CF3,"HECTOR, LOUIS L", 2007 CF3 8195,04/10/2007,Robbery,,,,,,,,,,,,,,,,,,,,,,,,,,,,,,,,,,
CF3,"KELLIBREW, DAVONE J", 2007 CF3 8223,04/10/2007,Assault W/I to Kill While Armed,Poss Firearm During Crime of Violence,Aggravated Aslt-Grave Risk,Poss Firearm During Crime of Violence,Kidnapping While Armed,Poss Firearm During Crime of Violence,Assault With A Dangerous Weapon,Poss Firearm During Crime of Violence,Threat to Injure a Person-Fel,First Degree Sex Abuse- Force  while armed (with aggravation circumstances ),Poss Firearm During Crime of Violence,Carry Pistol W/O Lic -Outside Home/Business,Unlawful Poss Ammunition,Unlawful Poss of A Firearm,,,,,,,,,,,,,,,,,,,,,
CF3,"SONG, YEON JA", 2007 CF3 8272,04/10/2007,Operating a House of Prostitution (felony),,,,,,,,,,,,,,,,,,,,,,,,,,,,,,,,,,
CF3,"LEE, WILLIAM", 2007 CF3 8281,04/11/2007,Assault With A Dangerous Weapon,Carry Pistol W/O Lic -Outside Home/Business,,,,,,,,,,,,,,,,,,,,,,,,,,,,,,,,,
CF3,"CRUZ-HUMBERO, LUIS", 2007 CF3 8369,04/12/2007,Robbery,,,,,,,,,,,,,,,,,,,,,,,,,,,,,,,,,,
CF3,"SILVA, CARLOS", 2007 CF3 8381,04/12/2007,Robbery,,,,,,,,,,,,,,,,,,,,,,,,,,,,,,,,,,
CF3,"JENKINS, ANTHONY M", 2007 CF3 8443,04/12/2007,Attempted Assault W/I to Rob While Armed,,,,,,,,,,,,,,,,,,,,,,,,,,,,,,,,,,
CF3,"RAWLINGS, FRANK", 2007 CF3 8493,04/13/2007,Assault With A Dangerous Weapon,,,,,,,,,,,,,,,,,,,,,,,,,,,,,,,,,,
CF3,"DELOATCH, JUSTIN", 2007 CF3 8510,04/13/2007,Carjacking,Robbery,,,,,,,,,,,,,,,,,,,,,,,,,,,,,,,,,
CF3,"WILLIAMS, DELAURANCE G", 2007 CF3 8511,04/13/2007,Carjacking,Robbery,,,,,,,,,,,,,,,,,,,,,,,,,,,,,,,,,
CF3,"CONLEY, TIBA SAKURI", 2007 CF3 8526,04/13/2007,Robbery While Armed,,,,,,,,,,,,,,,,,,,,,,,,,,,,,,,,,,
CF3,"JONES, ISAIAH", 2007 CF3 8528,04/13/2007,Robbery While Armed,,,,,,,,,,,,,,,,,,,,,,,,,,,,,,,,,,
CF3,"WILLIAMS, JAMES D", 2007 CF3 8715,04/16/2007,Mayhem While Armed,Malicious Disfigurement While Armed,Aggravated Assault Knowingly While Armed,Aggravated Assault Knowingly While Armed,Assault With A Dangerous Weapon,Assault With A Dangerous Weapon,Carry Dang Weapon-Outside Home/Business,,,,,,,,,,,,,,,,,,,,,,,,,,,,
CF3,"MARSHALL, BRUCE E", 2007 CF3 8859,04/18/2007,Assault W/I to Kill While Armed,Aggravated Aslt-Grave Risk While Armed,Mayhem While Armed,Poss Firearm During Crime of Violence,Poss Firearm During Crime of Violence,Poss Firearm During Crime of Violence,Carry Pistol W/O Lic -Outside Home/Business,Unlawful Poss of A Firearm,Unlawful Poss Ammunition,,,,,,,,,,,,,,,,,,,,,,,,,,
CF3,"SCHOFIELD, VINCENT", 2007 CF3 8876,04/18/2007,Burglary One,,,,,,,,,,,,,,,,,,,,,,,,,,,,,,,,,,
CF3,"MOORE, DE-ANGELO EVERICK", 2007 CF3 8975,04/20/2007,Robbery While Armed,,,,,,,,,,,,,,,,,,,,,,,,,,,,,,,,,,
CF3,"PEELE, CARLO ANTIONO", 2007 CF3 8981,04/20/2007,Burglary One,,,,,,,,,,,,,,,,,,,,,,,,,,,,,,,,,,
CF3,"KEYS, LAWRENCE R", 2007 CF3 9022,04/20/2007,Robbery,,,,,,,,,,,,,,,,,,,,,,,,,,,,,,,,,,
CF3,"MCILWAIN, JERRY", 2007 CF3 9068,04/21/2007,Flee Law Enforcement Officer,Reckless Driving,,,,,,,,,,,,,,,,,,,,,,,,,,,,,,,,,
CF3,"COLLINS, REGINALD", 2007 CF3 9070,04/21/2007,Robbery While Armed,,,,,,,,,,,,,,,,,,,,,,,,,,,,,,,,,,
CF3,"SCOTT, JARWON", 2007 CF3 9072,04/21/2007,Assault W/I to Rob While Armed,Assault With A Dangerous Weapon,Robbery While Armed,,,,,,,,,,,,,,,,,,,,,,,,,,,,,,,,
CF3,"FRANKLIN, MARQUIS ANGELD", 2007 CF3 9104,04/21/2007,Assault With A Dangerous Weapon,Assault With A Dangerous Weapon,Poss Firearm During Crime of Violence,Poss Firearm During Crime of Violence,Carry Pistol W/O Lic -Outside Home/Business,Unlawful Poss of A Firearm,Unlawful Poss Ammunition,Unlawful Entry,,,,,,,,,,,,,,,,,,,,,,,,,,,
CF3,"NOLEN, CURTIS", 2007 CF3 9129,04/21/2007,Carjacking Of a Senior Citizen While Armed,Poss Firearm During Crime of Violence,Robbery Of a Senior Citizen While Armed,Poss Firearm During Crime of Violence,Flee Law Enforcement Officer,Unauthorized Use of A Vehicle,,,,,,,,,,,,,,,,,,,,,,,,,,,,,
CF3,"CREEK, RICHARD ALLEN", 2007 CF3 9130,04/21/2007,Robbery While Armed,,,,,,,,,,,,,,,,,,,,,,,,,,,,,,,,,,
CF3,"HILL, SERGIO RAYNARD", 2007 CF3 9131,04/21/2007,Carjacking While Armed Of a Senior Citizen,Poss Firearm During Crime of Violence,Robbery While Armed Of a Senior Citizen,Poss Firearm During Crime of Violence,Flee Law Enforcement Officer,Unauthorized Use of A Vehicle,Robbery While Armed,,,,,,,,,,,,,,,,,,,,,,,,,,,,
CF3,"DIAZ, JOSE DOMINGO", 2007 CF3 9134,04/21/2007,Assault With A Dangerous Weapon,,,,,,,,,,,,,,,,,,,,,,,,,,,,,,,,,,
CF3,"WILLIAMS, CHRISTOPHER L", 2007 CF3 9160,04/23/2007,Arson,Burglary One,Threat to Injure a Person-Fel,Destruction of Property over $200,Theft First Degree,,,,,,,,,,,,,,,,,,,,,,,,,,,,,,
CF3,"VILLALTA, JOSE N", 2007 CF3 9198,04/23/2007,Aggravated Assault Knowingly While Armed,,,,,,,,,,,,,,,,,,,,,,,,,,,,,,,,,,
CF3,"FOREMAN, JOHN", 2007 CF3 9413,04/25/2007,Robbery While Armed,Poss Firearm During Crime of Violence,Poss Drug Paraphernalia-Misd,Poss W/I to Dist a Controlled Substance In a  Drug Free Zone,Poss Firearm During Crime of Violence,,,,,,,,,,,,,,,,,,,,,,,,,,,,,,
CF3,"RODRIGUEZ, JOSE IRAIN", 2007 CF3 9483,04/26/2007,Assault With A Dangerous Weapon,Carry Pistol W/O Lic -Outside Home/Business,,,,,,,,,,,,,,,,,,,,,,,,,,,,,,,,,
CF3,"TAYLOR, IVAN A", 2007 CF3 9570,04/27/2007,Robbery While Armed,,,,,,,,,,,,,,,,,,,,,,,,,,,,,,,,,,
CF3,"NESBITT, DANIEL", 2007 CF3 9663,04/28/2007,Robbery While Armed,Flee Law Enforcement Officer,,,,,,,,,,,,,,,,,,,,,,,,,,,,,,,,,
CF3,"JEFFERSON, GEORGE R", 2007 CF3 9748,04/30/2007,Aggravated Assault Knowingly,,,,,,,,,,,,,,,,,,,,,,,,,,,,,,,,,,
CF3,"LARKINS, ANTWAN", 2007 CF3 9801,04/30/2007,Robbery While Armed,,,,,,,,,,,,,,,,,,,,,,,,,,,,,,,,,,
CF3,"MITCHELL, JONATHAN ANTONIO", 2007 CF3 9846,05/01/2007,Attempted Robbery While Armed,,,,,,,,,,,,,,,,,,,,,,,,,,,,,,,,,,
CF3,"BANKS, JEROME", 2007 CF3 9883,05/01/2007,Assault W/I to Rob While Armed,,,,,,,,,,,,,,,,,,,,,,,,,,,,,,,,,,
CF3,"HYLAND, MICHELLE", 2007 CF3 10014,05/02/2007,Robbery While Armed,,,,,,,,,,,,,,,,,,,,,,,,,,,,,,,,,,
CF3,"DOE, JOHN", 2007 CF3 10113,05/03/2007,Robbery,,,,,,,,,,,,,,,,,,,,,,,,,,,,,,,,,,
CF3,"CARTER, MICHAEL JOVA", 2007 CF3 10174,05/04/2007,Aggravated Assault Knowingly,Threat to Injure a Person-Fel,Threat to Injure a Person-Fel,Threat to Injure a Person-Fel,Threat to Injure a Person-Fel,Obstructing Justice,Threat to Injure a Person-Fel,,,,,,,,,,,,,,,,,,,,,,,,,,,,
CF3,"FOREMAN, JULIS", 2007 CF3 10243,05/05/2007,Carjacking,Robbery,Unauthorized Use of A Vehicle,Theft First Degree,Destruction of Property over $200,Destruction of Property over $200,Robbery,,,,,,,,,,,,,,,,,,,,,,,,,,,,
CF3,"DARGIN, DUANE A", 2007 CF3 10253,05/05/2007,Burglary One,Aggravated Assault Knowingly While Armed,Mayhem While Armed,Carry Dang Weapon-Outside Home/Business,Obstructing Justice,Threat to Injure a Person-Fel,Destruction of Property over $200,,,,,,,,,,,,,,,,,,,,,,,,,,,,
CF3,"BOYD, ANTOINE EUGENE", 2007 CF3 10332,05/07/2007,Aggravated Assault Knowingly,,,,,,,,,,,,,,,,,,,,,,,,,,,,,,,,,,
CF3,"JOHNSON, DERMAINE", 2007 CF3 10353,05/07/2007,Aggravated Assault Knowingly,,,,,,,,,,,,,,,,,,,,,,,,,,,,,,,,,,
CF3,"MARTINEZ, JESUS REYES", 2007 CF3 10371,05/07/2007,Aggravated Assault Knowingly While Armed,,,,,,,,,,,,,,,,,,,,,,,,,,,,,,,,,,
CF3,"EDWARDS, MARQUETTE GREGORY", 2007 CF3 10379,05/07/2007,Carjacking,Robbery,Theft First Degree,Destruction of Property over $200,,,,,,,,,,,,,,,,,,,,,,,,,,,,,,,
CF3,"ZALDIVAR, OSCAR", 2007 CF3 10392,05/07/2007,Robbery,,,,,,,,,,,,,,,,,,,,,,,,,,,,,,,,,,
CF3,"RANKIN, ROBERT L", 2007 CF3 10561,05/09/2007,Robbery,,,,,,,,,,,,,,,,,,,,,,,,,,,,,,,,,,
CF3,"GARRETT, ROBERT L", 2007 CF3 10803,05/11/2007,Assault W/I to Kill While Armed,Aggravated Assault Knowingly While Armed,Assault With A Dangerous Weapon,Poss Firearm During Crime of Violence,Poss Firearm During Crime of Violence,Poss Firearm During Crime of Violence,Carry Pistol W/O Lic -Outside Home/Business,Unlawful Poss of A Firearm,Unlawful Poss Ammunition,Unlawful Poss Pistol -Felony,,,,,,,,,,,,,,,,,,,,,,,,,
CF3,"AJAYI, DELONTA", 2007 CF3 10847,05/12/2007,Robbery While Armed,,,,,,,,,,,,,,,,,,,,,,,,,,,,,,,,,,
CF3,"CHAVEZ ORELLANA, ULISES YONATAN", 2007 CF3 10915,05/12/2007,Assault With A Dangerous Weapon,,,,,,,,,,,,,,,,,,,,,,,,,,,,,,,,,,
CF3,"BATTLE, TARANA MICHELLE", 2007 CF3 10917,05/12/2007,Second Degree Cruelty to Children- Grave Risk,,,,,,,,,,,,,,,,,,,,,,,,,,,,,,,,,,
CF3,"KNIGHT, SEAN A", 2007 CF3 10918,05/12/2007,1st Degree Cruelty to Children (Grave Risk),,,,,,,,,,,,,,,,,,,,,,,,,,,,,,,,,,
CF3,"ROY, JAMES E", 2007 CF3 10941,05/12/2007,Burglary Two,Bail Reform Act -Misd,,,,,,,,,,,,,,,,,,,,,,,,,,,,,,,,,
CF3,"BOWLER, DENNIS NMN", 2007 CF3 11006,05/14/2007,Assault With A Dangerous Weapon,,,,,,,,,,,,,,,,,,,,,,,,,,,,,,,,,,
CF3,"MAKONNEN, ROMNEY PRINCE ANTHONY", 2007 CF3 11083,05/15/2007,Robbery While Armed,,,,,,,,,,,,,,,,,,,,,,,,,,,,,,,,,,
CF3,"BLANCO, HECTER", 2007 CF3 11272,05/17/2007,Robbery,Threats to Do Bodily Harm -Misd,,,,,,,,,,,,,,,,,,,,,,,,,,,,,,,,,
CF3,"MUNOZ, JORGE", 2007 CF3 11273,05/17/2007,Robbery While Armed,,,,,,,,,,,,,,,,,,,,,,,,,,,,,,,,,,
CF3,"RODRIGUEZ, PABLO", 2007 CF3 11274,05/17/2007,Robbery While Armed,,,,,,,,,,,,,,,,,,,,,,,,,,,,,,,,,,
CF3,"REYES, SANTOS ROQUES", 2007 CF3 11275,05/17/2007,Robbery While Armed,,,,,,,,,,,,,,,,,,,,,,,,,,,,,,,,,,
CF3,"RANSOM, DARNELL", 2007 CF3 11318,05/17/2007,Robbery While Armed,Poss Firearm During Crime of Violence,,,,,,,,,,,,,,,,,,,,,,,,,,,,,,,,,
CF3,"WARD, RAPHAEL", 2007 CF3 11325,05/17/2007,Robbery While Armed,Poss Firearm During Crime of Violence,Carjacking While Armed,Poss Firearm During Crime of Violence,Flee Law Enforcement Officer,Destruction of Property over $200,Destruction of Property over $200,Carry Dang Weapon-Outside Home/Business,,,,,,,,,,,,,,,,,,,,,,,,,,,
CF3,"DADE, LEROY P", 2007 CF3 11326,05/17/2007,Robbery While Armed,Poss Firearm During Crime of Violence,Carjacking While Armed,Poss Firearm During Crime of Violence,Flee Law Enforcement Officer,Destruction of Property over $200,Destruction of Property over $200,Carry Dang Weapon-Outside Home/Business,,,,,,,,,,,,,,,,,,,,,,,,,,,
CF3,"LUCAS, WANDA D", 2007 CF3 11341,05/18/2007,Robbery,,,,,,,,,,,,,,,,,,,,,,,,,,,,,,,,,,
CF3,"BYRD, WILLIE C", 2007 CF3 11473,05/19/2007,Robbery,,,,,,,,,,,,,,,,,,,,,,,,,,,,,,,,,,
CF3,"HUNT, HERBERT L", 2007 CF3 11483,05/19/2007,Assault With A Dangerous Weapon,,,,,,,,,,,,,,,,,,,,,,,,,,,,,,,,,,
CF3,"SIMS, PAUL EARL", 2007 CF3 11522,05/19/2007,Carjacking,,,,,,,,,,,,,,,,,,,,,,,,,,,,,,,,,,
CF3,"JACKSON, DONALD E", 2007 CF3 11550,05/21/2007,Aggravated Aslt-Grave Risk,,,,,,,,,,,,,,,,,,,,,,,,,,,,,,,,,,
CF3,"KAISER Jr, DAVID A", 2007 CF3 11551,05/21/2007,Burglary One While Armed,,,,,,,,,,,,,,,,,,,,,,,,,,,,,,,,,,
CF3,"MATTHEWS, GARY ALEXANDER", 2007 CF3 11587,05/21/2007,Robbery,Assault With A Dangerous Weapon,,,,,,,,,,,,,,,,,,,,,,,,,,,,,,,,,
CF3,"FREEMAN, CURTIS M", 2007 CF3 11591,05/21/2007,Robbery While Armed,Poss Firearm During Crime of Violence,Assault With A Dangerous Weapon,Poss Firearm During Crime of Violence,,Carry Pistol W/O Lic (Misd),Unlawful Poss of A Firearm,Unlawful Poss Ammunition,,,,,,,,,,,,,,,,,,,,,,,,,,,
CF3,"CHUN, ALVIN M", 2007 CF3 11593,05/21/2007,Robbery While Armed,,,,,,,,,,,,,,,,,,,,,,,,,,,,,,,,,,
CF3,"REID, DAMIEN S", 2007 CF3 11608,05/21/2007,Robbery,,,,,,,,,,,,,,,,,,,,,,,,,,,,,,,,,,
CF3,"WILLIAMS, LEVON D", 2007 CF3 11711,05/22/2007,Assault With A Dangerous Weapon,,,,,,,,,,,,,,,,,,,,,,,,,,,,,,,,,,
CF3,"ANTHONY, TRACEY", 2007 CF3 11714,05/22/2007,Assault With A Dangerous Weapon,,,,,,,,,,,,,,,,,,,,,,,,,,,,,,,,,,
CF3,"COLE, DEMITRIUS LAMONT", 2007 CF3 11715,05/22/2007,Robbery,,,,,,,,,,,,,,,,,,,,,,,,,,,,,,,,,,
CF3,"CREER, FRANK C", 2007 CF3 11750,05/22/2007,Assault With A Dangerous Weapon,Poss Prohibited Weapon -Other,,,,,,,,,,,,,,,,,,,,,,,,,,,,,,,,,
CF3,"MACE III, JAMES", 2007 CF3 11755,05/22/2007,Robbery While Armed,Poss Firearm During Crime of Violence,Assault With A Dangerous Weapon,Poss Firearm During Crime of Violence,Robbery While Armed,Poss Firearm During Crime of Violence,Assault With A Dangerous Weapon,Poss Firearm During Crime of Violence,Poss W/I to Dist a Controlled Substance While Armed,Carry Pistol W/O Lic (Misd),Unlawful Poss of A Firearm,Unlawful Poss Ammunition,,,,,,,,,,,,,,,,,,,,,,,
CF3,"FORD, JOSEPH CLIFTON", 2007 CF3 11756,05/22/2007,Robbery While Armed,Poss Firearm During Crime of Violence,Assault With A Dangerous Weapon,Poss Firearm During Crime of Violence,Robbery While Armed,Poss Firearm During Crime of Violence,Assault With A Dangerous Weapon,Poss Firearm During Crime of Violence,Poss W/I to Dist a Controlled Substance While Armed,Carry Pistol W/O Lic (Misd),Unlawful Poss of A Firearm,Unlawful Poss Ammunition,,Flee Law Enforcement Officer,,,,,,,,,,,,,,,,,,,,,
CF3,"JOHNSON, BOBBY", 2007 CF3 11757,05/22/2007,Receiving Stolen Property-Fel,,,,,,,,,,,,,,,,,,,,,,,,,,,,,,,,,,
CF3,"JENKINS, WALTER", 2007 CF3 11794,05/23/2007,Burglary One While Armed,Robbery While Armed,Robbery While Armed,Threat to Injure a Person-Fel,Poss Firearm During Crime of Violence,Poss Firearm During Crime of Violence,Poss Firearm During Crime of Violence,,,,,,,,,,,,,,,,,,,,,,,,,,,,
CF3,"EWINGS, RONNIE L", 2007 CF3 11808,05/23/2007,Aggravated Assault Knowingly While Armed,,,,,,,,,,,,,,,,,,,,,,,,,,,,,,,,,,
CF3,"RODRIGUEZ, MIGUEL", 2007 CF3 11863,05/23/2007,Robbery WHILE ARMED,,,,,,,,,,,,,,,,,,,,,,,,,,,,,,,,,,
CF3,"SIMPSON, SHEARIN L", 2007 CF3 11919,05/24/2007,Assault With A Dangerous Weapon,,Simple Assault,,,,,,,,,,,,,,,,,,,,,,,,,,,,,,,,
CF3,"HARRIS, CHARLES D", 2007 CF3 12025,05/25/2007,Robbery,,,,,,,,,,,,,,,,,,,,,,,,,,,,,,,,,,
CF3,"FISHER, ANTONIO DOMONIQUE", 2007 CF3 12035,05/25/2007,Robbery,,,,,,,,,,,,,,,,,,,,,,,,,,,,,,,,,,
CF3,"BROWN, CHARLES LORENZO", 2007 CF3 12064,05/26/2007,Burglary Two,,,,,,,,,,,,,,,,,,,,,,,,,,,,,,,,,,
CF3,"MIDDLETON, MICHAEL TYRONE", 2007 CF3 12075,05/26/2007,Robbery While Armed,Carry Dangerous Weapon- Felony,,,,,,,,,,,,,,,,,,,,,,,,,,,,,,,,,
CF3,"JENKINS, CALVIN LANARD", 2007 CF3 12105,05/26/2007,Robbery While Armed,Assault W/I to Rob While Armed,Robbery,,,,,,,,,,,,,,,,,,,,,,,,,,,,,,,,
CF3,"WILSON, DAMIEN R", 2007 CF3 12174,05/28/2007,Obstructing Justice,,,,,,,,,,,,,,,,,,,,,,,,,,,,,,,,,,
CF3,"ADDISON, STEPHEN", 2007 CF3 12191,05/28/2007,Assault On A Police Officer,,,,,,,,,,,,,,,,,,,,,,,,,,,,,,,,,,
CF3,"WYN, AARON", 2007 CF3 12197,05/28/2007,Robbery While Armed,,,,,,,,,,,,,,,,,,,,,,,,,,,,,,,,,,
CF3,"REYNOLDS, ANTHONY L", 2007 CF3 12199,05/28/2007,Robbery While Armed,,,,,,,,,,,,,,,,,,,,,,,,,,,,,,,,,,
CF3,"GOOLSBY, NICHOLAS A", 2007 CF3 12278,05/29/2007,Assault With A Dangerous Weapon,Carry Pistol W/O Lic -Outside Home/Business,,,,,,,,,,,,,,,,,,,,,,,,,,,,,,,,,
CF3,"WHITTED, JERAMIE J", 2007 CF3 12319,05/30/2007,Assault W/I to Kill,Poss Firearm During Crime of Violence,Assault W/I to Kill While Armed,Poss Firearm During Crime of Violence,Aggravated Assault Knowingly While Armed,Poss Firearm During Crime of Violence,Carry Pistol W/O Lic -Outside Home/Business,Unlawful Poss of A Firearm,Unlawful Poss Ammunition,,,,,,,,,,,,,,,,,,,,,,,,,,
CF3,"SPICER, DEONTE", 2007 CF3 12379,05/30/2007,Robbery While Armed,Poss Firearm During Crime of Violence,,Carry Pistol W/O Lic (Misd),Unlawful Poss of A Firearm,Unlawful Poss Ammunition,,,,,,,,,,,,,,,,,,,,,,,,,,,,,
CF3,"NICHOLS Jr, JAY EMMANUEL", 2007 CF3 12396,05/30/2007,Arrest Charge,Robbery While Armed,Robbery While Armed,,,,,,,,,,,,,,,,,,,,,,,,,,,,,,,,
CF3,"MCCULLOUGH, JARELL D", 2007 CF3 12399,05/30/2007,Carjacking While Armed,Robbery While Armed,Robbery While Armed,,,,,,,,,,,,,,,,,,,,,,,,,,,,,,,,
CF3,"MOSELEY, ANTHONY S", 2007 CF3 12478,05/31/2007,Robbery,,,,,,,,,,,,,,,,,,,,,,,,,,,,,,,,,,
CF3,"BATES, ANTIONE", 2007 CF3 12480,05/31/2007,Robbery,,,,,,,,,,,,,,,,,,,,,,,,,,,,,,,,,,
CF3,"GREEN, ANTONIO LAMONT", 2007 CF3 12517,05/31/2007,Carjacking,Robbery,,,,,,,,,,,,,,,,,,,,,,,,,,,,,,,,,
CF3,"THOMPSON, TYARN DAWAYNE", 2007 CF3 12564,06/01/2007,Obstructing Justice,Threat to Injure a Person-Fel,,,,,,,,,,,,,,,,,,,,,,,,,,,,,,,,,
CF3,"JOHNSON, TAHISHA", 2007 CF3 12619,06/02/2007,Robbery While Armed,,,,,,,,,,,,,,,,,,,,,,,,,,,,,,,,,,
CF3,"ROBINSON, RUENDO T", 2007 CF3 12625,06/02/2007,Carjacking While Armed,,,,,,,,,,,,,,,,,,,,,,,,,,,,,,,,,,
CF3,"WATTS, KENNETH M", 2007 CF3 12673,06/02/2007,Robbery,,,,,,,,,,,,,,,,,,,,,,,,,,,,,,,,,,
CF3,"BELL, TONYA N", 2007 CF3 12804,06/04/2007,Aggravated Assault Knowingly While Armed,,,,,,,,,,,,,,,,,,,,,,,,,,,,,,,,,,
CF3,"CHEADLE, LARRY", 2007 CF3 12909,06/05/2007,Robbery While Armed,,,,,,,,,,,,,,,,,,,,,,,,,,,,,,,,,,
CF3,"GODDARD, GARLAND", 2007 CF3 12910,06/05/2007,*Attempted Robbery,,,,,,,,,,,,,,,,,,,,,,,,,,,,,,,,,,
CF3,"JETER, BREION", 2007 CF3 12933,06/05/2007,Robbery While Armed,Robbery While Armed,,,,,,,,,,,,,,,,,,,,,,,,,,,,,,,,,
CF3,"FERNANDEZ, CARMEN BENITA", 2007 CF3 12959,06/06/2007,Burglary One,,,,,,,,,,,,,,,,,,,,,,,,,,,,,,,,,,
CF3,"GWALTNEY, NIKKO", 2007 CF3 13009,06/06/2007,Attempted Aggravated Assault Knowingly,,,,,,,,,,,,,,,,,,,,,,,,,,,,,,,,,,
CF3,"PEREZ, JAZMIN N", 2007 CF3 13023,06/06/2007,Robbery While Armed,,,,,,,,,,,,,,,,,,,,,,,,,,,,,,,,,,
CF3,"FOREMAN III, GEORGE P.", 2007 CF3 13226,06/06/2007,Murder I,,,,,,,,,,,,,,,,,,,,,,,,,,,,,,,,,,
CF3,"JACKSON, DOMINICK D", 2007 CF3 13350,06/09/2007,Robbery,,,,,,,,,,,,,,,,,,,,,,,,,,,,,,,,,,
CF3,"HALL, DONALD S", 2007 CF3 13443,06/11/2007,Assault With A Dangerous Weapon,,,,,,,,,,,,,,,,,,,,,,,,,,,,,,,,,,
CF3,"WILLIAMS, MARVIN", 2007 CF3 13457,06/11/2007,Robbery,,,,,,,,,,,,,,,,,,,,,,,,,,,,,,,,,,
CF3,"ALLEN, DERRICK JAMAL", 2007 CF3 13492,06/11/2007,Burglary One,Simple Assault,Unlawful Entry,Contempt,,,,,,,,,,,,,,,,,,,,,,,,,,,,,,,
CF3,"CUNNINGHAM, TRACY", 2007 CF3 13503,06/11/2007,Robbery,,,,,,,,,,,,,,,,,,,,,,,,,,,,,,,,,,
CF3,"TOLBERT, FEBRUIERRE VAURICE", 2007 CF3 13508,06/11/2007,Robbery,,,,,,,,,,,,,,,,,,,,,,,,,,,,,,,,,,
CF3,"PAYTON, MARK E", 2007 CF3 13513,06/11/2007,Robbery,,,,,,,,,,,,,,,,,,,,,,,,,,,,,,,,,,
CF3,"JOHNSON, FRANK D", 2007 CF3 13535,06/11/2007,Assault W/I to Kill While Armed,Poss Firearm During Crime of Violence,Aggravated Assault Knowingly While Armed,Poss Firearm During Crime of Violence,Mayhem While Armed,Poss Firearm During Crime of Violence,Carjacking While Armed,Poss Firearm During Crime of Violence,,,,,,,,,,,,,,,,,,,,,,,,,,,
CF3,"TOLBERT, TRACY", 2007 CF3 13633,06/12/2007,Robbery,,,,,,,,,,,,,,,,,,,,,,,,,,,,,,,,,,
CF3,"RICHARDSON, ELITE R", 2007 CF3 13679,06/13/2007,Assault With A Dangerous Weapon,,,,,,,,,,,,,,,,,,,,,,,,,,,,,,,,,,
CF3,"CARTHENS, DAVIS D", 2007 CF3 13743,06/13/2007,Burglary One While Armed,Theft Second Degree,Simple Assault,,,,,,,,,,,,,,,,,,,,,,,,,,,,,,,,
CF3,"TAYLOR, MELVIN J", 2007 CF3 13766,06/14/2007,Kidnapping While Armed,Robbery While Armed,Robbery While Armed,Robbery While Armed,Robbery While Armed,Robbery While Armed,Poss Firearm During Crime of Violence,Poss Firearm During Crime of Violence,Poss Firearm During Crime of Violence,Poss Firearm During Crime of Violence,Poss Firearm During Crime of Violence,Poss Firearm During Crime of Violence,,,,,,,,,,,,,,,,,,,,,,,
CF3,"CORTEZ, JULIO", 2007 CF3 13829,06/15/2007,Assault W/I to Rob While Armed,,,,,,,,,,,,,,,,,,,,,,,,,,,,,,,,,,
CF3,"BRUMMITT, CARLOS", 2007 CF3 13853,06/15/2007,Robbery While Armed,Poss Firearm During Crime of Violence,,,,,,,,,,,,,,,,,,,,,,,,,,,,,,,,,
CF3,"SIMMONS, MARIO D", 2007 CF3 13891,06/15/2007,Malicious Disfigurement While Armed,,,,,,,,,,,,,,,,,,,,,,,,,,,,,,,,,,
CF3,"QUEEN, GEORGE T", 2007 CF3 13905,06/15/2007,Assault With A Dangerous Weapon,Poss Firearm During Crime of Violence,Threat to Injure a Person-Fel,Carry Pistol W/O Lic -Outside Home/Business Violation of a Gun Free Zone,Carry Pistol W/O Lic (Misd),Carry Pistol W/O Lic (Misd),Unlawful Poss of A Firearm,Unlawful Poss Ammunition,,,,,,,,,,,,,,,,,,,,,,,,,,,
CF3,"SANCHEZ, ACENCION", 2007 CF3 14066,06/18/2007,Assault With A Dangerous Weapon,Assault With A Dangerous Weapon,Poss Firearm During Crime of Violence,Poss Firearm During Crime of Violence,Carry Pistol W/O Lic -Outside Home/Business In a  Drug Free Zone,Unlawful Poss of A Firearm,Unlawful Poss Ammunition,Threat to Injure a Person-Fel,,,,,,,,,,,,,,,,,,,,,,,,,,,
CF3,"TAYLOR, LEONARD", 2007 CF3 14142,06/19/2007,Introducing Female into Prostitution,,,,,,,,,,,,,,,,,,,,,,,,,,,,,,,,,,
CF3,"WHITFIELD JR., CURTIS L.", 2007 CF3 14225,06/19/2007,First Degree Sex Abuse- Force,,,,,,,,,,,,,,,,,,,,,,,,,,,,,,,,,,
CF3,"ROGERS JR., EUGENE", 2007 CF3 14248,06/19/2007,First Degree Sex Abuse- Force,,,,,,,,,,,,,,,,,,,,,,,,,,,,,,,,,,
CF3,"PIMPLE, MAURICE", 2007 CF3 14258,06/19/2007,Kidnapping,,,,,,,,,,,,,,,,,,,,,,,,,,,,,,,,,,
CF3,"BYRD, CHERRETTA NMN", 2007 CF3 14272,06/20/2007,Robbery While Armed,,,,,,,,,,,,,,,,,,,,,,,,,,,,,,,,,,
CF3,"THIGPEN, DWAN", 2007 CF3 14320,06/21/2007,Assault With A Dangerous Weapon,Poss Firearm During Crime of Violence,Assault With A Dangerous Weapon,Poss Firearm During Crime of Violence,Destruction of Property over $200,Destruction of Property over $200,,,,,,,,,,,,,,,,,,,,,,,,,,,,,
CF3,"JONAS, JOHNSON L", 2007 CF3 14377,06/21/2007,Robbery While Armed,,,,,,,,,,,,,,,,,,,,,,,,,,,,,,,,,,
CF3,"WELLS, CARLOS", 2007 CF3 14436,06/22/2007,Assault With A Dangerous Weapon,Theft First Degree,,,,,,,,,,,,,,,,,,,,,,,,,,,,,,,,,
CF3,"CLARK Jr, JEROME W", 2007 CF3 14519,06/23/2007,Assault W/I to Kill While Armed,Aggravated Assault Knowingly While Armed,Assault With A Dangerous Weapon,Poss Firearm During Crime of Violence,Poss Firearm During Crime of Violence,Poss Firearm During Crime of Violence,Carry Pistol W/O Lic -Outside Home/Business,Unlawful Poss of A Firearm,Unlawful Poss Ammunition,Carry Pistol W/O Lic -Outside Home/Business,Unlawful Poss of A Firearm,Unlawful Poss Ammunition,,,,,,,,,,,,,,,,,,,,,,,
CF3,"WILLIAMS, LINSEY B", 2007 CF3 14558,06/23/2007,Aggravated Assault Knowingly,Aggravated Assault Knowingly,Theft Second Degree,,,,,,,,,,,,,,,,,,,,,,,,,,,,,,,,
CF3,"THOMPSON, MAURICE MICHAEL", 2007 CF3 14690,06/25/2007,Robbery While Armed,Robbery While Armed,Assault W/I to Rob While Armed,Poss Firearm During Crime of Violence,Poss Firearm During Crime of Violence,Poss Firearm During Crime of Violence,Threat to Injure a Person-Fel,,,,,,,,,,,,,,,,,,,,,,,,,,,,
CF3,"BROWN, DEWAYNE T", 2007 CF3 14693,06/25/2007,First Degree Child Sex Abuse With Aggravating Circumstances,First Degree Child Sex Abuse With Aggravating Circumstances,Placing a Hoax Weapon of Mass Destruction w/Intent to Intimidate,Placing a Hoax Weapon of Mass Destruction w/Intent to Intimidate,Theft Second Degree,Kidnapping/ with Enhanced Penalty,Burglary One/with Enhanced Penalty,Violation of CPO,,,,,,,,,,,,,,,,,,,,,,,,,,,
CF3,"MATHEWS, JALJL", 2007 CF3 14694,06/25/2007,Assault On A Police Officer-Dang Weapon,"Escape, (From Officer)",Flee Law Enforcement Officer,Reckless Driving,,,,,,,,,,,,,,,,,,,,,,,,,,,,,,,
CF3,"JACOBS, ANTONIO", 2007 CF3 14778,06/26/2007,Aggravated Assault Knowingly While Armed,Poss Firearm During Crime of Violence,Assault With A Dangerous Weapon,Poss Firearm During Crime of Violence,Threat to Injure a Person-Fel,Threat to Injure a Person-Fel,Carry Pistol W/O Lic -Outside Home/Business,Unlawful Poss of A Firearm,Unlawful Poss Ammunition,,,,,,,,,,,,,,,,,,,,,,,,,,
CF3,"GREEN, LORENZO D.", 2007 CF3 14899,06/27/2007,Assault With A Dangerous Weapon,,,,,,,,,,,,,,,,,,,,,,,,,,,,,,,,,,
CF3,"WRICE, MARK K", 2007 CF3 14971,06/28/2007,Robbery While Armed,,,,,,,,,,,,,,,,,,,,,,,,,,,,,,,,,,
CF3,"WALLER, DAVID", 2007 CF3 14972,06/28/2007,Robbery While Armed,Carry Dangerous Weapon- Felony,,,,,,,,,,,,,,,,,,,,,,,,,,,,,,,,,
CF3,"WHITEHEAD, RONALD EDWARD", 2007 CF3 15044,06/29/2007,Robbery While Armed,,,,,,,,,,,,,,,,,,,,,,,,,,,,,,,,,,
CF3,"HERRION, ERIC JOHN MARZET", 2007 CF3 15068,06/29/2007,Robbery While Armed,,,,,,,,,,,,,,,,,,,,,,,,,,,,,,,,,,
CF3,"BIGESBY, DONTE A", 2007 CF3 15070,06/29/2007,Kidnapping,,,,,,,,,,,,,,,,,,,,,,,,,,,,,,,,,,
CF3,"JONES, ERIC ANTONIO", 2007 CF3 15107,06/29/2007,Robbery While Armed,,,,,,,,,,,,,,,,,,,,,,,,,,,,,,,,,,
CF3,"COOPER, WILLIAM", 2007 CF3 15108,06/29/2007,Robbery While Armed,,,,,,,,,,,,,,,,,,,,,,,,,,,,,,,,,,
CF3,"FLOWERS, JONCHARLES", 2007 CF3 15144,06/30/2007,Carjacking,Attempted Robbery,,,,,,,,,,,,,,,,,,,,,,,,,,,,,,,,,
CF3,"ANOMNACHI, PADMORED", 2007 CF3 15231,07/02/2007,Robbery,,,,,,,,,,,,,,,,,,,,,,,,,,,,,,,,,,
CF3,"VENTURA, VIRGILL", 2007 CF3 15264,07/02/2007,Carjacking While Armed,Robbery While Armed,Poss Firearm During Crime of Violence,Poss Firearm During Crime of Violence,Flee Law Enforcement Officer,Destruction of Property over $200,,,,,,,,,,,,,,,,,,,,,,,,,,,,,
CF3,"LEE, TERRANCE RAYMOND", 2007 CF3 15306,07/02/2007,Arrest Charge,OFFICER DID NOT SIGNED GEIRSTEIN SECOND PAGE. C-10 STAFF WAS NOTIFIED BY D. BROWN .,,,,,,,,,,,,,,,,,,,,,,,,,,,,,,,,,
CF3,, 2007 CF3 15308,07/02/2007,Burglary One While Armed,Robbery While Armed,Robbery While Armed,Poss Firearm During Crime of Violence,Poss Firearm During Crime of Violence,Poss Firearm During Crime of Violence,,,,,,,,,,,,,,,,,,,,,,,,,,,,,
CF3,"KELLY, TONEY N", 2007 CF3 15316,07/02/2007,Assault W/I to Kill While Armed,Aggravated Assault Knowingly While Armed,Mayhem While Armed,,Threat to Injure a Person-Fel,,,,,,,,,,,,,,,,,,,,,,,,,,,,,,
CF3,"PERONNEAU, ANDRE FINLEY", 2007 CF3 15398,07/03/2007,Assault With A Dangerous Weapon,Attempted Poss Prohibited Weapon,,,,,,,,,,,,,,,,,,,,,,,,,,,,,,,,,
CF3,"HOUSTON, DAVID A", 2007 CF3 15612,07/05/2007,Robbery,,,,,,,,,,,,,,,,,,,,,,,,,,,,,,,,,,
CF3,"SANCHEZ, ROSALIO F", 2007 CF3 15756,07/06/2007,Robbery While Armed,Poss Firearm During Crime of Violence,,,,,,,,,,,,,,,,,,,,,,,,,,,,,,,,,
CF3,"GUNN, MICHAEL", 2007 CF3 15757,07/06/2007,Pandering,Pandering,Pandering,Obstructing Justice,,,,,,,,,,,,,,,,,,,,,,,,,,,,,,,
CF3,"BRIDGES, ANGEL", 2007 CF3 15759,07/06/2007,Pandering,Pandering,Obstructing Justice,,,,,,,,,,,,,,,,,,,,,,,,,,,,,,,,
CF3,"BILAL, MALIK", 2007 CF3 15865,07/09/2007,Assault With A Dangerous Weapon,,,,,,,,,,,,,,,,,,,,,,,,,,,,,,,,,,
CF3,"MANNS, JASON EARL", 2007 CF3 15904,07/09/2007,Assault With A Dangerous Weapon,,,,,,,,,,,,,,,,,,,,,,,,,,,,,,,,,,
CF3,"TAYLOR, DENNIS A", 2007 CF3 15908,07/09/2007,Carjacking,Robbery While Armed,Robbery While Armed,Robbery While Armed,Assault W/I to Rob While Armed,Poss Firearm During Crime of Violence,Poss Firearm During Crime of Violence,Poss Firearm During Crime of Violence,Poss Firearm During Crime of Violence,Poss Firearm During Crime of Violence,,,,,,,,,,,,,,,,,,,,,,,,,
CF3,"VANDERHALL, MARK A", 2007 CF3 15924,07/09/2007,Carjacking,,,,,,,,,,,,,,,,,,,,,,,,,,,,,,,,,,
CF3,"SHAW, ADELL L.", 2007 CF3 15936,07/09/2007,Burglary Two,,,,,,,,,,,,,,,,,,,,,,,,,,,,,,,,,,
CF3,"SUTTON, RODNEY B", 2007 CF3 15937,07/09/2007,Burglary Two,,,,,,,,,,,,,,,,,,,,,,,,,,,,,,,,,,
CF3,"WILLIAMS, MARVIN", 2007 CF3 16016,07/10/2007,Robbery WHILE ARMED,,,,,,,,,,,,,,,,,,,,,,,,,,,,,,,,,,
CF3,"JONAS, JOHNSON L", 2007 CF3 16023,07/10/2007,Robbery,,,,,,,,,,,,,,,,,,,,,,,,,,,,,,,,,,
CF3,"HARRISON, ALPHONSO SHERMAN", 2007 CF3 16140,07/11/2007,Assault On A Police Officer-Dang Weapon,Poss Firearm During Crime of Violence,Unlawful Entry,,,,,,,,,,,,,,,,,,,,,,,,,,,,,,,,
CF3,"PEOPLES, ANTONIO", 2007 CF3 16149,07/11/2007,Assault With A Dangerous Weapon,,,,,,,,,,,,,,,,,,,,,,,,,,,,,,,,,,
CF3,"MARTIN, ANDRE J", 2007 CF3 16215,07/12/2007,Assault W/I to Rob,,,,,,,,,,,,,,,,,,,,,,,,,,,,,,,,,,
CF3,"JACKSON, MICHAEL", 2007 CF3 16238,07/12/2007,Robbery While Armed,,,,,,,,,,,,,,,,,,,,,,,,,,,,,,,,,,
CF3,"GODDARD, GARLAND", 2007 CF3 16277,07/12/2007,Robbery,Assault With A Dangerous Weapon,Assault With A Dangerous Weapon,Flee Law Enforcement Officer,Destruction of Property over $200,Destruction of Property over $200,Receiving Stolen Property-Fel,Unauthorized Use of A Vehicle,Reckless Driving,,,,,,,,,,,,,,,,,,,,,,,,,,
CF3,"SILVA, CARLOS", 2007 CF3 16298,07/13/2007,Burglary One,,,,,,,,,,,,,,,,,,,,,,,,,,,,,,,,,,
CF3,"WASHINGTON, ANTIONE", 2007 CF3 16317,07/13/2007,Assault With A Dangerous Weapon,Burglary Two,Destruction of Property less than $200,Destruction of Property over $200,Assault W/I to Kill While Armed,Assault W/I to Kill While Armed,Poss Firearm During Crime of Violence,Poss Firearm During Crime of Violence,Carry Pistol W/O Lic -Outside Home/Business,Unlawful Poss of A Firearm,Unlawful Poss of A Firearm,Destruction of Property over $200,Destruction of Property less than $200,Destruction of Property less than $200,Destruction of Property less than $200,Destruction of Property less than $200,,,,,,,,,,,,,,,,,,,
CF3,"GIBSON, TONY", 2007 CF3 16344,07/14/2007,Robbery While Armed,Poss Firearm During Crime of Violence,,,,,,,,,,,,,,,,,,,,,,,,,,,,,,,,,
CF3,"DAVIDSON, KEVIN D", 2007 CF3 16425,07/14/2007,Pandering,,,,,,,,,,,,,,,,,,,,,,,,,,,,,,,,,,
CF3,"PONDER, MARK KENNY", 2007 CF3 16486,07/16/2007,Carjacking,,,,,,,,,,,,,,,,,,,,,,,,,,,,,,,,,,
CF3,"INGRAM, DION ANJUAN", 2007 CF3 16498,07/16/2007,Robbery,,,,,,,,,,,,,,,,,,,,,,,,,,,,,,,,,,
CF3,"WEEMS, VINCENT", 2007 CF3 16504,07/16/2007,Assault With A Dangerous Weapon,Destruction of Property less than $200,Poss of a Controlled Substance -Misd,,,,,,,,,,,,,,,,,,,,,,,,,,,,,,,,
CF3,"GAPA, JONATHAN THOMAS", 2007 CF3 16519,07/16/2007,Assault W/I to Rob While Armed,Assault With A Dangerous Weapon,Carry Dang Weapon-Outside Home/Business,Threat to Injure a Person-Fel,Threat to Injure a Person-Fel,,,,,,,,,,,,,,,,,,,,,,,,,,,,,,
CF3,"DUBOSE, DONALD", 2007 CF3 16521,07/16/2007,Assault With A Dangerous Weapon,,,,,,,,,,,,,,,,,,,,,,,,,,,,,,,,,,
CF3,"SMITH, DONNELL W", 2007 CF3 16535,07/16/2007,Robbery While Armed,,,,,,,,,,,,,,,,,,,,,,,,,,,,,,,,,,
CF3,"THOMAS, JOHN P", 2007 CF3 16537,07/16/2007,Robbery While Armed,,,,,,,,,,,,,,,,,,,,,,,,,,,,,,,,,,
CF3,"LEE, SEAN MICHAEL", 2007 CF3 16589,07/17/2007,Robbery While Armed,,,,,,,,,,,,,,,,,,,,,,,,,,,,,,,,,,
CF3,"COBBS, DUAN", 2007 CF3 16596,07/17/2007,Burglary Two,Theft First Degree,,,,,,,,,,,,,,,,,,,,,,,,,,,,,,,,,
CF3,"NEAL, ROBERT A", 2007 CF3 16598,07/17/2007,Burglary Two,Theft First Degree,,,,,,,,,,,,,,,,,,,,,,,,,,,,,,,,,
CF3,"NEWTON, DEANGLO EUGENE", 2007 CF3 16608,07/17/2007,Unauthorized Use of A Vehicle,,,,,,,,,,,,,,,,,,,,,,,,,,,,,,,,,,
CF3,"WATTS, TERRY MCARTHUR", 2007 CF3 16609,07/17/2007,Robbery While Armed,,,,,,,,,,,,,,,,,,,,,,,,,,,,,,,,,,
CF3,"GLENN, TONY", 2007 CF3 16798,07/19/2007,Assault With A Dangerous Weapon,,,,,,,,,,,,,,,,,,,,,,,,,,,,,,,,,,
CF3,"RICHARDSON, ROBERT", 2007 CF3 16892,07/20/2007,Assault With A Dangerous Weapon,,,,,,,,,,,,,,,,,,,,,,,,,,,,,,,,,,
CF3,"WATSON, ANTONIAN", 2007 CF3 16904,07/20/2007,Assault With A Dangerous Weapon,,,,,,,,,,,,,,,,,,,,,,,,,,,,,,,,,,
CF3,"GREGORY, ANDRE LAMONT", 2007 CF3 16939,07/20/2007,Robbery While Armed,Attempted Robbery,,,,,,,,,,,,,,,,,,,,,,,,,,,,,,,,,
CF3,"LEWIS, KENNETH", 2007 CF3 16992,07/21/2007,Attempted Robbery,,,,,,,,,,,,,,,,,,,,,,,,,,,,,,,,,,
CF3,"GARVIN, DARON ANTOINE", 2007 CF3 17016,07/21/2007,Assault W/I to Kill While Armed,Assault W/I to Kill While Armed,Aggravated Assault Knowingly While Armed,Assault With A Dangerous Weapon,Assault With A Dangerous Weapon,Assault With A Dangerous Weapon,Assault With A Dangerous Weapon,Assault With A Dangerous Weapon,Poss Firearm During Crime of Violence,Poss Firearm During Crime of Violence,Poss Firearm During Crime of Violence,Poss Firearm During Crime of Violence,Poss Firearm During Crime of Violence,Poss Firearm During Crime of Violence,Poss Firearm During Crime of Violence,Poss Firearm During Crime of Violence,Carry Pistol W/O Lic -Outside Home/Business,Unlawful Poss Pistol -Felony,Unlawful Poss of A Firearm,Unlawful Poss Ammunition,Flee Law Enforcement Officer,Destruction of Property over $200,Destruction of Property over $200,,,,,,,,,,,,
CF3,"THOMPSON, MARKELE C", 2007 CF3 17042,07/23/2007,Assault With A Dangerous Weapon,Poss Firearm During Crime of Violence,Threat to Injure a Person-Fel,Carry Pistol W/O Lic (Misd),Unlawful Poss of A Firearm,Unlawful Poss Ammunition,,,,,,,,,,,,,,,,,,,,,,,,,,,,,
CF3,"ROGERS, VICTOR G", 2007 CF3 17150,07/23/2007,Robbery,,,,,,,,,,,,,,,,,,,,,,,,,,,,,,,,,,
CF3,"FLORES, JUAN CARLOS", 2007 CF3 17160,07/23/2007,Assault With A Dangerous Weapon,Attempted Carry Pistol W/O Lic (Misd),,,,,,,,,,,,,,,,,,,,,,,,,,,,,,,,,
CF3,"COATES, JAMAL RAHEEM", 2007 CF3 17316,07/25/2007,Robbery While Armed,Assault With A Dangerous Weapon,Poss Firearm During Crime of Violence,Poss Firearm During Crime of Violence,,,,,,,,,,,,,,,,,,,,,,,,,,,,,,,
CF3,"MCMILLIAN, ARTHUR L", 2007 CF3 17378,07/26/2007,Assault W/I to Rob While Armed,Carry Dangerous Weapon- Felony,,,,,,,,,,,,,,,,,,,,,,,,,,,,,,,,,
CF3,"DYSON, ARTHUR T", 2007 CF3 17380,07/26/2007,Assault W/I to Rob While Armed,,,,,,,,,,,,,,,,,,,,,,,,,,,,,,,,,,
CF3,"ROBINSON, TYSHEM LAMAR", 2007 CF3 17383,07/26/2007,Assault With A Dangerous Weapon,,,,,,,,,,,,,,,,,,,,,,,,,,,,,,,,,,
CF3,"MILLEDGE, EARL TYRONE", 2007 CF3 17435,07/27/2007,Burglary One,,,,,,,,,,,,,,,,,,,,,,,,,,,,,,,,,,
CF3,"WARTERS, JAYVEL", 2007 CF3 17454,07/27/2007,Robbery While Armed,,,,,,,,,,,,,,,,,,,,,,,,,,,,,,,,,,
CF3,"JAMES, LLOYD A", 2007 CF3 17492,07/27/2007,Robbery,,,,,,,,,,,,,,,,,,,,,,,,,,,,,,,,,,
CF3,"WEAVER, ERIC V", 2007 CF3 17512,07/27/2007,Carjacking While Armed,Robbery While Armed,Carry Dangerous Weapon- Felony,Unauthorized Use of A Vehicle,,,,,,,,,,,,,,,,,,,,,,,,,,,,,,,
CF3,"SMITH, MICHAEL D", 2007 CF3 17661,07/30/2007,Assault With A Dangerous Weapon,,,,,,,,,,,,,,,,,,,,,,,,,,,,,,,,,,
CF3,"COLUNGA, ESIQUEL ZEKE", 2007 CF3 17677,07/30/2007,Assault With A Dangerous Weapon,,,,,,,,,,,,,,,,,,,,,,,,,,,,,,,,,,
CF3,"EDWARDS, SEAN", 2007 CF3 17694,07/30/2007,Robbery While Armed,,,,,,,,,,,,,,,,,,,,,,,,,,,,,,,,,,
CF3,"SCOTT, HENRY JR", 2007 CF3 17713,07/30/2007,Assault With A Dangerous Weapon,Carry Pistol W/O Lic -Outside Home/Business,,,,,,,,,,,,,,,,,,,,,,,,,,,,,,,,,
CF3,"BROWN, VERNON", 2007 CF3 17722,07/30/2007,Simple Assault,Attempted Threats to Do Bodily Harm -Misd,Destruction of Property less than $200,Attempted Poss Prohibited Weapon,,,,,,,,,,,,,,,,,,,,,,,,,,,,,,,
CF3,"KIRBY, DESHAWN", 2007 CF3 17788,07/30/2007,Robbery While Armed,,,,,,,,,,,,,,,,,,,,,,,,,,,,,,,,,,
CF3,"PATTERSON, MARCUS M", 2007 CF3 17813,07/31/2007,Robbery While Armed,Robbery While Armed,Assault W/I to Rob While Armed,Poss Firearm During Crime of Violence,Poss Firearm During Crime of Violence,Poss Firearm During Crime of Violence,Assault With A Dangerous Weapon,Poss Firearm During Crime of Violence,,,,,,,,,,,,,,,,,,,,,,,,,,,
CF3,"EHIENULO, UGOCHUKWU NMN", 2007 CF3 17820,07/31/2007,Robbery While Armed,Poss Firearm During Crime of Violence,,,,,,,,,,,,,,,,,,,,,,,,,,,,,,,,,
CF3,"SCOTT, WAYNE F", 2007 CF3 17869,08/01/2007,Assault With A Dangerous Weapon,,,,,,,,,,,,,,,,,,,,,,,,,,,,,,,,,,
CF3,"HICKS, MARQUIS", 2007 CF3 17899,08/01/2007,Robbery While Armed,,,,,,,,,,,,,,,,,,,,,,,,,,,,,,,,,,
CF3,"NORWOOD, LEWIS F", 2007 CF3 17900,08/01/2007,Burglary Two While Armed,Robbery While Armed,Carry Dang Weapon-Outside Home/Business,,,,,,,,,,,,,,,,,,,,,,,,,,,,,,,,
CF3,"ALLEN, JAMES R", 2007 CF3 17982,08/02/2007,Assault W/I to Kill While Armed,Poss Firearm During Crime of Violence,Aggravated Assault Knowingly While Armed,Poss Firearm During Crime of Violence,Unlawful Poss Firearm -Felony,Assault With A Dangerous Weapon,Poss Firearm During Crime of Violence,,Unlawful Poss Firearm -Misd,Unlawful Poss Ammunition,,,,,,,,,,,,,,,,,,,,,,,,,
CF3,"REDMON, CLINTON NMN", 2007 CF3 17986,08/02/2007,Burglary Two While Armed,Robbery While Armed,Carry Dang Weapon-Outside Home/Business,,,,,,,,,,,,,,,,,,,,,,,,,,,,,,,,
CF3,"BARNES, JOSEPH PATRICK", 2007 CF3 18194,08/04/2007,Assault With A Dangerous Weapon,Unlawful Poss of A Firearm,Simple Assault,Simple Assault,,,,,,,,,,,,,,,,,,,,,,,,,,,,,,,
CF3,"MITCHELL, BRADLEY DON", 2007 CF3 18239,08/04/2007,Robbery While Armed,Poss Firearm During Crime of Violence,Robbery While Armed,Poss Firearm During Crime of Violence,Robbery While Armed,Poss Firearm During Crime of Violence,Assault W/I to Rob While Armed,Poss Firearm During Crime of Violence,Robbery While Armed,Poss Firearm During Crime of Violence,,,,,,,,,,,,,,,,,,,,,,,,,
CF3,"MITCHELL, BRANDI", 2007 CF3 18242,08/04/2007,Robbery While Armed,Poss Firearm During Crime of Violence,Robbery While Armed,Poss Firearm During Crime of Violence,Robbery While Armed,Poss Firearm During Crime of Violence,Robbery While Armed,Poss Firearm During Crime of Violence,Robbery While Armed,Poss Firearm During Crime of Violence,Robbery While Armed,Poss Firearm During Crime of Violence,,,,,,,,,,,,,,,,,,,,,,,
CF3,"KAMARA, MALIKA NENEH", 2007 CF3 18244,08/04/2007,Robbery While Armed,Poss Firearm During Crime of Violence,Robbery While Armed,Poss Firearm During Crime of Violence,Robbery While Armed,Poss Firearm During Crime of Violence,Assault W/I to Rob While Armed,Poss Firearm During Crime of Violence,Robbery While Armed,Poss Firearm During Crime of Violence,Robbery While Armed,Poss Firearm During Crime of Violence,Robbery While Armed,Poss Firearm During Crime of Violence,Robbery While Armed,Poss Firearm During Crime of Violence,,,,,,,,,,,,,,,,,,,
CF3,"COASTAL, CHARLES", 2007 CF3 18306,08/06/2007,Carjacking,Carjacking,Robbery,Unauthorized Use of A Vehicle,,,,,,,,,,,,,,,,,,,,,,,,,,,,,,,
CF3,"BRADEY Jr, PAUL S", 2007 CF3 18320,08/06/2007,Aggravated Aslt Knowingly Grave Risk While Armed Of a Senior Citizen,Assault With A Dangerous Weapon Of a Senior Citizen,Carry Pistol W/O Lic -Outside Home/Business,,,,,,,,,,,,,,,,,,,,,,,,,,,,,,,,
CF3,"DUGAR, MARQUETTE C", 2007 CF3 18428,08/07/2007,Assault W/I to Kill While Armed,Poss Firearm During Crime of Violence,Assault W/I to Kill While Armed,Poss Firearm During Crime of Violence,Assault W/I to Kill While Armed,Poss Firearm During Crime of Violence,Assault W/I to Kill While Armed,Poss Firearm During Crime of Violence,Assault W/I to Kill While Armed,Poss Firearm During Crime of Violence,Assault W/I to Kill While Armed,Poss Firearm During Crime of Violence,Assault W/I to Kill While Armed,Poss Firearm During Crime of Violence,Aggravated Assault Knowingly While Armed,Poss Firearm During Crime of Violence,Aggravated Assault Knowingly While Armed,Poss Firearm During Crime of Violence,Aggravated Assault Knowingly While Armed,Poss Firearm During Crime of Violence,Aggravated Assault Knowingly While Armed,Poss Firearm During Crime of Violence,Aggravated Assault Knowingly While Armed,,,,,,,,,,,,
CF3,"MORRIS, VAN", 2007 CF3 18493,08/07/2007,Burglary Two While Armed,Robbery While Armed,Carry Dang Weapon-Outside Home/Business,,,,,,,,,,,,,,,,,,,,,,,,,,,,,,,,
CF3,"SMITH, CORKEY", 2007 CF3 18591,08/08/2007,Attempted Burglary One,,,,,,,,,,,,,,,,,,,,,,,,,,,,,,,,,,
CF3,"JOHNSON, DONTE RENALD", 2007 CF3 18734,08/09/2007,Receiving Stolen Property-Fel,Carry Pistol W/O Lic -Outside Home/Business,Unlawful Poss of A Firearm,Unlawful Poss Ammunition,,,,,,,,,,,,,,,,,,,,,,,,,,,,,,,
CF3,"EDWARDS, MARQUETTE GREGORY", 2007 CF3 18833,08/10/2007,Robbery,,,,,,,,,,,,,,,,,,,,,,,,,,,,,,,,,,
CF3,"WALLER, HENRY NMN", 2007 CF3 18975,08/13/2007,Attempted Kidnapping,Attempted Kidnapping,,,,,,,,,,,,,,,,,,,,,,,,,,,,,,,,,
CF3,"HAM, MARKUS OCTAVIOUS", 2007 CF3 19111,08/14/2007,Assault W/I to Kill While Armed,,,,,,,,,,,,,,,,,,,,,,,,,,,,,,,,,,
CF3,"MCCOY, SHANITIA L", 2007 CF3 19118,08/14/2007,Aggravated Assault Knowingly,,,,,,,,,,,,,,,,,,,,,,,,,,,,,,,,,,
CF3,"JAMISON, RONNIE", 2007 CF3 19312,08/16/2007,Assault W/I to Kill While Armed,,,,,,,,,,,,,,,,,,,,,,,,,,,,,,,,,,
CF3,"WHITE, JAMES MARYLN", 2007 CF3 19404,08/17/2007,Robbery While Armed,Poss Firearm During Crime of Violence,Theft First Degree,Unlawful Poss Ammunition,,,,,,,,,,,,,,,,,,,,,,,,,,,,,,,
CF3,"FOSTER, MICHAEL", 2007 CF3 19518,08/18/2007,Assault W/I to Kill While Armed,Poss Firearm During Crime of Violence,Flee Law Enforcement Officer,,,,,,,,,,,,,,,,,,,,,,,,,,,,,,,,
CF3,"CARDWELL, DONALD", 2007 CF3 19601,08/20/2007,Assault With A Dangerous Weapon,,,,,,,,,,,,,,,,,,,,,,,,,,,,,,,,,,
CF3,"PARKER, JOSEPH", 2007 CF3 19794,08/22/2007,Assault W/I to Kill While Armed,Aggravated Assault Knowingly While Armed,Poss Firearm During Crime of Violence,Poss Firearm During Crime of Violence,Carry Pistol W/O Lic -Outside Home/Business,Unlawful Poss of A Firearm,Unlawful Poss Ammunition,Unlawful Poss Firearm -Felony,,,,,,,,,,,,,,,,,,,,,,,,,,,
CF3,"WILLIAMS, ERNEST L", 2007 CF3 19827,08/22/2007,Burglary One,Threat to Injure a Person-Fel,,,,,,,,,,,,,,,,,,,,,,,,,,,,,,,,,
CF3,"BULLOCK, DARRION NMN", 2007 CF3 19903,08/23/2007,Robbery While Armed,Poss Firearm During Crime of Violence,Poss of a Controlled Substance -Misd,,,,,,,,,,,,,,,,,,,,,,,,,,,,,,,,
CF3,"PORTER, DWAYNE", 2007 CF3 19917,08/24/2007,First Degree Murder While Armed,Amended Charge 1 filed.  Amended to read:,,,,,,,,,,,,,,,,,,,,,,,,,,,,,,,,,
CF3,"TURNER, DELONTE MARTAVIS", 2007 CF3 20092,08/25/2007,Carjacking While Armed,,,,,,,,,,Assault With A Dangerous Weapon,,,,,,,,,,,,,,,,,,,,,,,,
CF3,"PORCH, HOWARD", 2007 CF3 20249,08/28/2007,Robbery Of a Senior Citizen,,,,,,,,,,,,,,,,,,,,,,,,,,,,,,,,,,
CF3,"DAVIS, MICHAEL D", 2007 CF3 20449,08/30/2007,Assault W/I to Kill,,,,,,,,,,,,,,,,,,,,,,,,,,,,,,,,,,
CF3,"ANDERSON, ROBERT", 2007 CF3 20624,09/01/2007,Robbery,Theft Second Degree,,,,,,,,,,,,,,,,,,,,,,,,,,,,,,,,,
CF3,"HARRIS, CORNELL", 2007 CF3 20631,09/01/2007,Assault With A Dangerous Weapon,,,,,,,,,,,,,,,,,,,,,,,,,,,,,,,,,,
CF3,"THOMAS, KIA J", 2007 CF3 20637,09/01/2007,Aggravated Assault Knowingly While Armed,Aggravated Assault Knowingly While Armed,,,,,,,,,,,,,,,,,,,,,,,,,,,,,,,,,
CF3,"WILLIAMS, JULIAN ADELEMAN", 2007 CF3 20698,09/03/2007,Assault With A Dangerous Weapon,,,,,,,,,,,,,,,,,,,,,,,,,,,,,,,,,,
CF3,"CHEW, HOWARD", 2007 CF3 20699,09/03/2007,Assault With A Dangerous Weapon,,,,,,,,,,,,,,,,,,,,,,,,,,,,,,,,,,
CF3,"MCCOMB, JAMES R", 2007 CF3 20751,09/03/2007,Robbery While Armed,Carry Pistol W/O Lic -Outside Home/Business,,,,,,,,,,,,,,,,,,,,,,,,,,,,,,,,,
CF3,"NOWLIN, DAVID WARREN", 2007 CF3 20818,09/04/2007,Assault With A Dangerous Weapon,Carry Pistol W/O Lic -Outside Home/Business,Unlawful Poss of A Firearm,Unlawful Poss Ammunition,Unlawful Poss Pistol -Felony,,,,,,,,,,,,,,,,,,,,,,,,,,,,,,
CF3,"DAVIS, RAYNARD", 2007 CF3 20828,09/04/2007,Aggravated Assault Knowingly While Armed,Carry Dangerous Weapon- Felony,Bail Reform Act -Felony,,,,,,,,,,,,,,,,,,,,,,,,,,,,,,,,
CF3,"CURTIS, CHARLIE", 2007 CF3 20851,09/04/2007,Robbery While Armed,Robbery While Armed,Robbery While Armed,Robbery While Armed,Assault W/I to Rob While Armed,Assault W/I to Rob While Armed,Assault W/I to Rob While Armed,Poss Firearm During Crime of Violence,Flee Law Enforcement Officer,Carry Pistol W/O Lic -Outside Home/Business,Unlawful Poss of A Firearm,Unlawful Poss Ammunition,,,,,,,,,,,,,,,,,,,,,,,
CF3,"JOHNSON, ARTHUR S", 2007 CF3 20852,09/04/2007,Robbery While Armed,Robbery While Armed,Robbery While Armed,Robbery While Armed,Assault W/I to Rob While Armed,Assault W/I to Rob While Armed,Assault W/I to Rob While Armed,Poss Firearm During Crime of Violence,Flee Law Enforcement Officer,Carry Pistol W/O Lic -Outside Home/Business,Unlawful Poss Pistol -Felony,Unlawful Poss of A Firearm,Unlawful Poss Ammunition,,,,,,,,,,,,,,,,,,,,,,
CF3,"LEE, BRANDEN DEVEN", 2007 CF3 20853,09/04/2007,Robbery While Armed,Robbery While Armed,Robbery While Armed,Robbery While Armed,Assault W/I to Rob While Armed,Assault W/I to Rob While Armed,Assault W/I to Rob While Armed,Poss Firearm During Crime of Violence,Flee Law Enforcement Officer,Carry Pistol W/O Lic -Outside Home/Business,Unlawful Poss of A Firearm,Unlawful Poss Ammunition,,,,,,,,,,,,,,,,,,,,,,,
CF3,"SMITH, TERRENCE JONATHAN", 2007 CF3 20876,09/05/2007,Assault With A Dangerous Weapon,,,,,,,,,,,,,,,,,,,,,,,,,,,,,,,,,,
CF3,"MARSH, JACQUELINE DEMETRIA", 2007 CF3 20881,09/05/2007,Assault With A Dangerous Weapon,Poss Firearm During Crime of Violence,Carry Pistol W/O Lic -Outside Home/Business,Threat to Injure a Person-Fel,Unlawful Poss of A Firearm,Unlawful Poss Ammunition,,,,,,,,,,,,,,,,,,,,,,,,,,,,,
CF3,"COLEMAN, JAMES T", 2007 CF3 20930,09/05/2007,Burglary Two,Destruction of Property over $200,Theft First Degree,Burglary Two,Destruction of Property over $200,Theft First Degree,Theft First Degree,Poss of a Controlled Substance -Misd,,,,,,,,,,,,,,,,,,,,,,,,,,,
CF3,"MCGEE, CURTIS", 2007 CF3 20998,09/06/2007,Robbery While Armed,,,,,,,,,,,,,,,,,,,,,,,,,,,,,,,,,,
CF3,"MITCHELL, RICARDO A", 2007 CF3 21295,09/08/2007,Assault With A Dangerous Weapon,Assault With A Dangerous Weapon,,,,,,,,,,,,,,,,,,,,,,,,,,,,,,,,,
CF3,"BENSON, MARCUS", 2007 CF3 21379,09/10/2007,Carjacking While Armed,,,,,,,,,,,,,,,,,,,,,,,,,,,,,,,,,,
CF3,"THOMPSON, LAVAL A", 2007 CF3 21446,09/11/2007,Arrest Charge,MOTION TO UPDATE COMPLAINT,ROBBERY CHARGE ADDED TO COMPLAINT,,,,,,,,,,,,,,,,,,,,,,,,,,,,,,,,
CF3,"DAVIS, RAYON JEROME", 2007 CF3 21460,09/11/2007,Carjacking While Armed,,,,,,,,,,,,,,,,,,,,,,,,,,,,,,,,,,
CF3,"HARRIS, DESDEMONA F", 2007 CF3 21461,09/11/2007,Assault With A Dangerous Weapon,Poss Prohibited Weapon -Other,,,,,,,,,,,,,,,,,,,,,,,,,,,,,,,,,
CF3,"GUITERREZ, JOSE", 2007 CF3 21472,09/11/2007,Threat to Injure a Person-Fel,,,,,,,,,,,,,,,,,,,,,,,,,,,,,,,,,,
CF3,"HOWARD, EMMETT", 2007 CF3 21517,09/12/2007,Burglary Two Of a Senior Citizen,Destruction of Property over $200,Poss Implements of Crime,,,,,,,,,,,,,,,,,,,,,,,,,,,,,,,,
CF3,"KEARNEY, JACKIE L", 2007 CF3 21631,09/13/2007,Burglary One,,,,,,,,,,,,,,,,,,,,,,,,,,,,,,,,,,
CF3,"COUSINS, ARTHIA", 2007 CF3 21657,09/13/2007,Assault W/I to Kill While Armed,,,,,,,,,,,,,,,,,,,,,,,,,,,,,,,,,,
CF3,"HICKS, ANDRE", 2007 CF3 21667,09/13/2007,Aggravated Assault Knowingly,,,,,,,,,,,,,,,,,,,,,,,,,,,,,,,,,,
CF3,"ROSBOROUGH, TYRONE", 2007 CF3 21710,09/14/2007,Assault With A Dangerous Weapon,,,,,,,,,,,,,,,,,,,,,,,,,,,,,,,,,,
CF3,"CORDOVA, WILLIAM", 2007 CF3 21738,09/14/2007,Assault W/I to Kill While Armed,,,,,,,,,,,,,,,,,,,,,,,,,,,,,,,,,,
CF3,"WEAVER, WARREN", 2007 CF3 21825,09/15/2007,Robbery While Armed,,,,,,,,,,,,,,,,,,,,,,,,,,,,,,,,,,
CF3,"WILSON, WALT RICHARD", 2007 CF3 21859,09/15/2007,Assault With A Dangerous Weapon,Simple Assault,Gov't Motion to Reinstate,"Attorney: TAYLOR, JEFFREY A (498610)",,,,,,,,,,,,,,,,,,,,,,,,,,,,,,,
CF3,"THOMAS, JOSEPH D", 2007 CF3 21870,09/15/2007,Assault With A Dangerous Weapon,Simple Assault,,,,,,,,,,,,,,,,,,,,,,,,,,,,,,,,,
CF3,"THOMAS, JOSEPH D", 2007 CF3 21872,09/15/2007,Assault With A Dangerous Weapon,,,,,,,,,,,,,,,,,,,,,,,,,,,,,,,,,,
CF3,"ADAMS, DANNY LAMONT", 2007 CF3 21915,09/17/2007,Robbery While Armed,,,,,,,,,,,,,,,,,,,,,,,,,,,,,,,,,,
CF3,"SAUNDERS, DAWON TYREL", 2007 CF3 21921,09/17/2007,Robbery While Armed,,,,,,,,,,,,,,,,,,,,,,,,,,,,,,,,,,
CF3,"TAYLOR, RONALD", 2007 CF3 22010,09/18/2007,Robbery Of a Senior Citizen,Threat to Injure a Person-Fel,Assault With A Dangerous Weapon,,Poss Drug Paraphernalia-Misd,,,,,,,,,,,,,,,,,,,,,,,,,,,,,,
CF3,"WILLIAMS, MICHELLE", 2007 CF3 22027,09/18/2007,Assault With A Dangerous Weapon,,,,,,,,,,,,,,,,,,,,,,,,,,,,,,,,,,
CF3,"HARRIS, MARQUET RASHARD", 2007 CF3 22275,09/21/2007,Robbery While Armed,Attempted Robbery,,,,,,,,,,,,,,,,,,,,,,,,,,,,,,,,,
CF3,"SMITH, DELONTE", 2007 CF3 22287,09/21/2007,Robbery,,,,,,,,,,,,,,,,,,,,,,,,,,,,,,,,,,
CF3,"HOPKINS, DENARDO SEQUAN", 2007 CF3 22366,09/22/2007,Assault W/I to Murder While Armed,,,,,,,,,,,,,,,,,,,,,,,,,,,,,,,,,,
CF3,"GREGORY, DARRON J", 2007 CF3 22522,09/24/2007,Assault With A Dangerous Weapon,,,,,,,,,,,,,,,,,,,,,,,,,,,,,,,,,,
CF3,"ARGUETA-ANARIBA, ANGEL AGUSTIN", 2007 CF3 22523,09/24/2007,Assault W/I to Kill While Armed,Aggravated Assault Knowingly While Armed,Carry Dangerous Weapon- Misd,,,,,,,,,,,,,,,,,,,,,,,,,,,,,,,,
CF3,"DAVIS, JOSEPH LEE", 2007 CF3 22579,09/25/2007,Assault With A Dangerous Weapon,,,,,,,,,,,,,,,,,,,,,,,,,,,,,,,,,,
CF3,"WOOD, RICARDO EUGENE", 2007 CF3 22597,09/25/2007,Burglary One,,Assault With A Dangerous Weapon,Assault With A Dangerous Weapon--Scissors,Threat to Injure a Person-Fel,,,,,,,,,,,,,,,,,,,,,,,,,,,,,,
CF3,"BATES, DONALD CHOW", 2007 CF3 22757,09/27/2007,Robbery,Robbery,Robbery,,Credit Card Fraud-Misd,,,,,,,,,,,,,,,,,,,,,,,,,,,,,,
CF3,"PETROVIC, PEDRO", 2007 CF3 22854,09/28/2007,Assault On A Police Officer,Aggravated Assault Knowingly,,,,,,,,,,,,,,,,,,,,,,,,,,,,,,,,,
CF3,"RUFFIN, ELAINE", 2007 CF3 22882,09/28/2007,Assault With A Dangerous Weapon,,,,,,,,,,,,,,,,,,,,,,,,,,,,,,,,,,
CF3,"GRIER, ROBERT HAROLD", 2007 CF3 23011,10/01/2007,Assault With A Dangerous Weapon,,,,,,,,,,,,,,,,,,,,,,,,,,,,,,,,,,
CF3,"JOHNSON, RAINA", 2007 CF3 23081,10/01/2007,Assault W/I to Kill While Armed,,,,,,,,,,,,,,,,,,,,,,,,,,,,,,,,,,
CF3,"HARDING, DEANTE", 2007 CF3 23165,10/02/2007,Assault W/I to Kill While Armed,Unauthorized Use of A Vehicle,,,,,,,,,,,,,,,,,,,,,,,,,,,,,,,,,
CF3,"TOWNSEND, ANTHONY", 2007 CF3 23172,10/02/2007,Robbery While Armed,,,,,,,,,,,,,,,,,,,,,,,,,,,,,,,,,,
CF3,"BRITTON, DELONTE K", 2007 CF3 23174,10/02/2007,Robbery While Armed,,,,,,,,,,,,,,,,,,,,,,,,,,,,,,,,,,
CF3,"JOHNSON, JEREMY", 2007 CF3 23243,10/03/2007,Carjacking While Armed,,,,,,,,,,,,,,,,,,,,,,,,,,,,,,,,,,
CF3,"SESAY, DURAMANY", 2007 CF3 23254,10/02/2007,Armed Robbery,,,,,,,,,,,,,,,,,,,,,,,,,,,,,,,,,,
CF3,"TURNER, DELANTE", 2007 CF3 23273,10/02/2007,Armed Carjacking,,,,,,,,,,,,,,,,,,,,,,,,,,,,,,,,,,
CF3,"MCGILL, BRIAN C", 2007 CF3 23366,10/04/2007,Kidnapping with Enhanced Penalty,,,,,,,,,,,,,,,,,,,,,,,,,,,,,,,,,,
CF3,"DUMAR, JAMAL", 2007 CF3 23399,10/04/2007,Pandering,Pandering,Pandering,Pandering,Pandering,Pandering,Pandering,Pandering,Pandering,Pandering,Obstructing Justice,Obstructing Justice,,,,,,,,,,,,,,,,,,,,,,,
CF3,"COLLINS, ERIK V", 2007 CF3 23403,10/04/2007,Soliciting Murder,Conspiracy,,,,,,,,,,,,,,,,,,,,,,,,,,,,,,,,,
CF3,"MERCER, DEREK P", 2007 CF3 23455,10/05/2007,Robbery,,,,,,,,,,,,,,,,,,,,,,,,,,,,,,,,,,
CF3,"FORD, NATHAN MAURICE", 2007 CF3 23553,10/06/2007,Burglary One,Burglary One,Threat to Injure a Person-Fel,Assault W/I Any Offense,Kidnapping,Assault W/I Any Offense,,Threat to Injure a Person-Fel,Obstructing Justice,,,,,,,,,,,,,,,,,,,,,,,,,,
CF3,"PARTEE, DELANDO", 2007 CF3 23777,10/10/2007,Robbery,Robbery While Armed,Robbery While Armed,Robbery While Armed,Poss Firearm During Crime of Violence,Poss Firearm During Crime of Violence,Poss Firearm During Crime of Violence,Carry Pistol W/O Lic -Outside Home/Business,Unlawful Poss of A Firearm,Unlawful Poss Ammunition,Unauthorized Use of A Vehicle,Receiving Stolen Property-Fel,Assault W/I to Kill While Armed,Poss Firearm During Crime of Violence,Carry Pistol W/O Lic -Outside Home/Business,Unlawful Poss of A Firearm,Unlawful Poss Ammunition,Unauthorized Use of A Vehicle,Receiving Stolen Property-Fel,,,,,,,,,,,,,,,,
CF3,"HILL, JAMES H", 2007 CF3 23937,10/11/2007,Aggravated Assault Knowingly,,,,,,,,,,,,,,,,,,,,,,,,,,,,,,,,,,
CF3,"UBOM, UWANA", 2007 CF3 24133,10/15/2007,Robbery While Armed,,,,,,,,,,,,,,,,,,,,,,,,,,,,,,,,,,
CF3,"BOOZE, ANTONIO", 2007 CF3 24134,10/15/2007,Aggravated Assault Knowingly,,,,,,,,,,,,,,,,,,,,,,,,,,,,,,,,,,
CF3,"HINES, JIMMIE BERNARD", 2007 CF3 24165,10/15/2007,Assault W/I to Kill While Armed,Aggravated Assault Knowingly While Armed,Robbery While Armed,Kidnapping While Armed,Carry Dang Weapon-Outside Home/Business,,,,,,,,,,,,,,,,,,,,,,,,,,,,,,
CF3,"COLEMAN, CLIFTON", 2007 CF3 24238,10/16/2007,Assault With A Dangerous Weapon,Poss Firearm During Crime of Violence,,Unlawful Poss of A Firearm,Unlawful Poss Ammunition,Unlawful Poss of A Firearm,Unlawful Poss Ammunition,Obstructing Justice - Reporting,,,,,,,,,,,,,,,,,,,,,,,,,,,
CF3,"BPYCE, ANTIONE", 2007 CF3 24260,10/16/2007,Assault With A Dangerous Weapon,,,,,,,,,,,,,,,,,,,,,,,,,,,,,,,,,,
CF3,"PELLEW, LENTON", 2007 CF3 24268,10/16/2007,Conspiracy 22 DC Code 2805,Burglary Two While Armed,Poss Firearm During Crime of Violence,Threat to Injure a Person-Fel,Kidnapping While Armed,Poss Firearm During Crime of Violence,Kidnapping While Armed,Poss Firearm During Crime of Violence,Kidnapping While Armed,Poss Firearm During Crime of Violence,Assault W/I to Kill While Armed,Poss Firearm During Crime of Violence,Aggravated Aslt Knowingly Grave Risk While Armed,Poss Firearm During Crime of Violence,Robbery While Armed,Poss Firearm During Crime of Violence,Robbery While Armed,Poss Firearm During Crime of Violence,Robbery While Armed,Poss Firearm During Crime of Violence,Carry Pistol W/O Lic -Outside Home/Business,Unlawful Poss of A Firearm,Unlawful Poss Ammunition,,,,,,,,,,,,
CF3,"LUCAS, JOSE", 2007 CF3 24273,10/16/2007,Conspiracy 22DC 1805,Burglary Two While Armed,Poss Firearm During Crime of Violence,Threat to Injure a Person-Fel,Kidnapping While Armed,Poss Firearm During Crime of Violence,Kidnapping While Armed,Poss Firearm During Crime of Violence,Kidnapping While Armed,Poss Firearm During Crime of Violence,Robbery While Armed,Poss Firearm During Crime of Violence,Robbery While Armed,Poss Firearm During Crime of Violence,Robbery While Armed,Poss Firearm During Crime of Violence,Carry Pistol W/O Lic -Outside Home/Business,Unlawful Poss of A Firearm,Unlawful Poss Ammunition,,,,,,,,,,,,,,,,
CF3,"HAMILTON, DAMIAN", 2007 CF3 24275,10/16/2007,Conspiracy 22dc2805,Burglary Two While Armed,Poss Firearm During Crime of Violence,Threat to Injure a Person-Fel,Kidnapping While Armed,Poss Firearm During Crime of Violence,Kidnapping While Armed,Poss Firearm During Crime of Violence,Kidnapping While Armed,Poss Firearm During Crime of Violence,Robbery While Armed,Poss Firearm During Crime of Violence,Robbery While Armed,Poss Firearm During Crime of Violence,Robbery While Armed,Poss Firearm During Crime of Violence,Carry Pistol W/O Lic -Outside Home/Business,Unlawful Poss of A Firearm,Unlawful Poss Ammunition,,,,,,,,,,,,,,,,
CF3,"GRAY, RAMONA M", 2007 CF3 24319,10/17/2007,Arson,,,,,,,,,,,,,,,,,,,,,,,,,,,,,,,,,,
CF3,"WILLS, RONDELL LEEVON", 2007 CF3 24541,10/19/2007,Assault With A Dangerous Weapon,Simple Assault,Attempted Poss Prohibited Weapon -Other,,,,,,,,,,,,,,,,,,,,,,,,,,,,,,,,
CF3,"HUNTER, TRACY", 2007 CF3 24547,10/19/2007,Robbery,,,,,,,,,,,,,,,,,,,,,,,,,,,,,,,,,,
CF3,"THOMAS, FELICA N", 2007 CF3 24548,10/19/2007,Robbery,Simple Assault,Receiving Stolen Property-Misd,,,,,,,,,,,,,,,,,,,,,,,,,,,,,,,,
CF3,"WRIGHT, BERNETTA NMN", 2007 CF3 24550,10/19/2007,Robbery,,,,,,,,,,,,,,,,,,,,,,,,,,,,,,,,,,
CF3,"ROBERSON, MAURICE", 2007 CF3 24737,10/22/2007,Robbery,,,,,,,,,,,,,,,,,,,,,,,,,,,,,,,,,,
CF3,"ROBERSON, GARY", 2007 CF3 24783,10/23/2007,Robbery While Armed,,,,,,,,,,,,,,,,,,,,,,,,,,,,,,,,,,
CF3,"DAVIS, MICHAEL", 2007 CF3 24818,10/23/2007,Burglary Two,Theft First Degree,Receiving Stolen Property-Fel,Destruction of Property less than $200,Destruction of Property less than $200,Burglary Two,Theft First Degree,Receiving Stolen Property-Fel,Destruction of Property less than $200,Destruction of Property over $200,,,,,,,,,,,,,,,,,,,,,,,,,
CF3,"GREEN, CHRISTOPHER", 2007 CF3 24819,10/23/2007,Burglary Two,Theft First Degree,Receiving Stolen Property-Fel,Destruction of Property less than $200,Destruction of Property less than $200,Burglary Two,Theft First Degree,Receiving Stolen Property-Fel,Destruction of Property less than $200,Destruction of Property over $200,,,,,,,,,,,,,,,,,,,,,,,,,
CF3,"SWANGIN, KEITH", 2007 CF3 24908,10/24/2007,Burglary Two,,,,,,,,,,,,,,,,,,,,,,,,,,,,,,,,,,
CF3,"POWELL, TIMOTHY", 2007 CF3 24932,10/24/2007,Carjacking While Armed,Poss Firearm During Crime of Violence,Robbery While Armed,Poss Firearm During Crime of Violence,Assault With A Dangerous Weapon,Poss Firearm During Crime of Violence,Assault On A Police Officer While Armed,Poss Firearm During Crime of Violence,Unlawful Poss of A Firearm,Unlawful Poss Ammunition,Unauthorized Use of A Vehicle,,,,,,,,,,,,,,,,,,,,,,,,
