type,person,number,date,charge_1,charge_2,charge_3,charge_4,charge_5,charge_6,charge_7,charge_8,charge_9,charge_10,charge_11,charge_12,charge_13,charge_14,charge_15,charge_16,charge_17,charge_18,charge_19,charge_20,charge_21,charge_22,charge_23,charge_24,charge_25,charge_26,charge_27,charge_28,charge_29,charge_30,charge_31,charge_32,charge_33,charge_34,charge_35
CF3,"HOLLEY, SHERMAN", 2013 CF3 18,01/01/2013,Assault With A Dangerous Weapon,Assault With A Dangerous Weapon,Carry Dang Weapon-Outside Home/Business,,,,,,,,,,,,,,,,,,,,,,,,,,,,,,,,
CF3,"BROWN, KYLE D", 2013 CF3 19,01/01/2013,Carry Pistol W/O Lic -Prior Fel/CPOWL,Possession of Unregistered Firearm/Unlawful Possession of a Firearm or Destructive Device,Unlawful Poss Ammunition,,,,,,,,,,,,,,,,,,,,,,,,,,,,,,,,
CF3,"WILLIAMS, STEPHON", 2013 CF3 56,01/02/2013,Robbery While Armed,Threat to Kidnap or Injure a Person,Poss Prohibited Weapon -Other,,,,,,,,,,,,,,,,,,,,,,,,,,,,,,,,
CF3,"FORD, MALIK", 2013 CF3 57,01/02/2013,Robbery While Armed,,,,,,,,,,,,,,,,,,,,,,,,,,,,,,,,,,
CF3,"DAVENPORT, WILLIAM", 2013 CF3 70,01/02/2013,Robbery While Armed,Attempted Poss Prohibited Weapon -Other,,,,,,,,,,,,,,,,,,,,,,,,,,,,,,,,,
CF3,"BEAL, DARRIN", 2013 CF3 80,01/02/2013,Conspiracy,Accessory After the Fact,Robbery While Armed,Assault W/I to Commit Robbery While Armed,Assault W/I to Commit Robbery While Armed,,,,,,,,,,,,,,,,,,,,,,,,,,,,,,
CF3,"BARNES, TERELL S", 2013 CF3 82,01/02/2013,Burglary Two,,,,,,,,,,,,,,,,,,,,,,,,,,,,,,,,,,
CF3,"BROWN, JULIUS", 2013 CF3 83,01/02/2013,Burglary Two,,,,,,,,,,,,,,,,,,,,,,,,,,,,,,,,,,
CF3,"SHORES, DEREK", 2013 CF3 109,01/03/2013,Burglary One,,,,,,,,,,,,,,,,,,,,,,,,,,,,,,,,,,
CF3,"SMITH, NEIL", 2013 CF3 142,01/03/2013,Assault With A Dangerous Weapon,,,,,,,,,,,,,,,,,,,,,,,,,,,,,,,,,,
CF3,"FRANKLIN, ANTWAIN LEROY", 2013 CF3 181,01/04/2013,Aggravated Assault Knowingly While Armed,,,,,,,,,,,,,,,,,,,,,,,,,,,,,,,,,,
CF3,"MARSHALL, EMERY LAVON", 2013 CF3 209,01/04/2013,Robbery While Armed Against A Minor,,,,,,,,,,,,,,,,,,,,,,,,,,,,,,,,,,
CF3,"MASSEY, MICHAEL ANGELO", 2013 CF3 232,01/05/2013,Robbery While Armed,,,,,,,,,,,,,,,,,,,,,,,,,,,,,,,,,,
CF3,"GREEN, MICHAEL", 2013 CF3 248,01/05/2013,Robbery,Poss Prohibited Weapon -Other,,,,,,,,,,,,,,,,,,,,,,,,,,,,,,,,,
CF3,"CREWS, TOMMIE", 2013 CF3 271,01/05/2013,Assault With A Dangerous Weapon,Poss Prohibited Weapon -Other,,,,,,,,,,,,,,,,,,,,,,,,,,,,,,,,,
CF3,"SINCLAIR, TAYVAUGHN", 2013 CF3 284,01/05/2013,Robbery,,,,,,,,,,,,,,,,,,,,,,,,,,,,,,,,,,
CF3,"WRIGHT, JOHN", 2013 CF3 304,01/07/2013,Robbery,,,,,,,,,,,,,,,,,,,,,,,,,,,,,,,,,,
CF3,"WEERASINGHE, CHANAKA E", 2013 CF3 319,01/07/2013,Assault With A Dangerous Weapon,,,,,,,,,,,,,,,,,,,,,,,,,,,,,,,,,,
CF3,"EVANS, BARRY", 2013 CF3 324,01/07/2013,Assault With A Dangerous Weapon,,,,,,,,,,,,,,,,,,,,,,,,,,,,,,,,,,
CF3,"WILLIAMS, CHRISTOPHER EMMANUEL", 2013 CF3 358,01/07/2013,Assault With A Dangerous Weapon,Simple Assault,,,,,,,,,,,,,,,,,,,,,,,,,,,,,,,,,
CF3,"JOHNSON, DERRICK", 2013 CF3 360,01/07/2013,Robbery,,,,,,,,,,,,,,,,,,,,,,,,,,,,,,,,,,
CF3,"CUNNINGHAM, NIKIA", 2013 CF3 362,01/07/2013,Robbery,,,,,,,,,,,,,,,,,,,,,,,,,,,,,,,,,,
CF3,"PACE, WILLIAM", 2013 CF3 403,01/08/2013,Assault With A Dangerous Weapon,,,,,,,,,,,,,,,,,,,,,,,,,,,,,,,,,,
CF3,"BROCK, DEANGELO", 2013 CF3 490,01/09/2013,Robbery,,,,,,,,,,,,,,,,,,,,,,,,,,,,,,,,,,
CF3,"WELCH, JAMAR REGINALD", 2013 CF3 494,01/09/2013,Assault W/I to Kill while Armed,,,,,,,,,,,,,,,,,,,,,,,,,,,,,,,,,,
CF3,"YATES, DELANE", 2013 CF3 524,01/10/2013,Robbery While Armed Against A Minor,,,,,,,,,,,,,,,,,,,,,,,,,,,,,,,,,,
CF3,"CAMPBELL, XAVIER JAMALL", 2013 CF3 531,01/10/2013,Assault With A Dangerous Weapon,,,,,,,,,,,,,,,,,,,,,,,,,,,,,,,,,,
CF3,"HURD, SEAN", 2013 CF3 563,01/11/2013,Robbery,,,,,,,,,,,,,,,,,,,,,,,,,,,,,,,,,,
CF3,"WILLIAMS, KEITH DOMINIQUE", 2013 CF3 602,01/11/2013,Robbery,Receiving Stolen Property-Misd,,,,,,,,,,,,,,,,,,,,,,,,,,,,,,,,,
CF3,"WILLIAMS, DAMIAN", 2013 CF3 603,01/11/2013,Robbery,,,,,,,,,,,,,,,,,,,,,,,,,,,,,,,,,,
CF3,"HOLBROOK, DAVID", 2013 CF3 604,01/11/2013,Robbery,,,,,,,,,,,,,,,,,,,,,,,,,,,,,,,,,,
CF3,"ABNEY, DAVON", 2013 CF3 615,01/11/2013,Robbery,,,,,,,,,,,,,,,,,,,,,,,,,,,,,,,,,,
CF3,"MOORE, DENZELL", 2013 CF3 621,01/11/2013,Burglary One While Armed,Poss Firearm During Crime of Violence,Robbery While Armed,Poss Firearm During Crime of Violence,Assault W/I to Commit Robbery While Armed,Poss Firearm During Crime of Violence,Assault With A Dangerous Weapon,Poss Firearm During Crime of Violence,Assault W/I to Commit Robbery While Armed,Poss Firearm During Crime of Violence,Assault With A Dangerous Weapon,Poss Firearm During Crime of Violence,Assault with Significant Bodily Injury,Assault with Significant Bodily Injury,Carry Pistol Outside Home/Business,,,,,,,,,,,,,,,,,,,,
CF3,"NUNEZ, JESUS", 2013 CF3 635,01/12/2013,Burglary Two,,,,,,,,,,,,,,,,,,,,,,,,,,,,,,,,,,
CF3,"SPEARS, MAURICE ELLIOTT", 2013 CF3 658,01/12/2013,Aslt W/I to Commit First Deg Sex Abuse,Attempted Sex Abuse- Misd,,,,,,,,,,,,,,,,,,,,,,,,,,,,,,,,,
CF3,"BROWN, DAWAYNE ALTON", 2013 CF3 715,01/14/2013,Extortion,Assault W/I to Commit Robbery,Threat to Kidnap or Injure a Person,Burglary One While Armed,Poss Firearm During Crime of Violence,Kidnapping While Armed,Poss Firearm During Crime of Violence,Robbery While Armed,Poss Firearm During Crime of Violence,Extortion While Armed,Poss Firearm During Crime of Violence,Poss W/I to Dist a Controlled Substance While Armed,Poss Firearm During Crime of Violence,Poss of a Controlled Substance -Misd,Carry Pistol W/O Lic -Outside Home/Business,Failure To Register Firearm- 2nd Off,Unlawful Poss Ammunition,Unlawful Poss of Large CApacity Ammunition Feeding Device,Obstruction Justice (Due Administration),,,,,,,,,,,,,,,,
CF3,"BULLOCK, MATTHEW CURTIS", 2013 CF3 730,01/14/2013,Assault W/I to Kill While Armed,Poss Firearm During Crime of Violence,Aggravated Assault Knowingly,Poss Firearm During Crime of Violence,Assault With A Dangerous Weapon,Poss Firearm During Crime of Violence,,Assault W/I to Kill While Armed,Poss Firearm During Crime of Violence,Aggravated Assault Knowingly While Armed,Poss Firearm During Crime of Violence,Assault With A Dangerous Weapon,Poss Firearm During Crime of Violence,,Assault W/I to Kill While Armed,Poss Firearm During Crime of Violence,Aggravated Assault Knowingly While Armed,Poss Firearm During Crime of Violence,Assault With A Dangerous Weapon,Poss Firearm During Crime of Violence,,Carry Dang Weapon-Outside Home/Business (Prior Felony),Possession of Unregistered Firearm/Unlawful Possession of a Firearm or Destructive Device,Unlawful Poss Ammunition,,,,,,,,,,,
CF3,"CRUTCHFIELD, TERRENCE", 2013 CF3 751,01/15/2013,Burglary Two,,,,,,,,,,,,,,,,,,,,,,,,,,,,,,,,,,
CF3,"GUNN, NIGEL MAURICE", 2013 CF3 782,01/15/2013,Burglary Two,,,,,,,,,,,,,,,,,,,,,,,,,,,,,,,,,,
CF3,"BIRD, GARRETT", 2013 CF3 783,01/15/2013,,Simple Assault,,,,,,,,,,,,,,,,,,,,,,,,,,,,,,,,,
CF3,"SHARPE, DAMION", 2013 CF3 797,01/16/2013,Robbery,,,,,,,,,,,,,,,,,,,,,,,,,,,,,,,,,,
