type,person,number,date,charge_1,charge_2,charge_3,charge_4,charge_5,charge_6,charge_7,charge_8,charge_9,charge_10,charge_11,charge_12,charge_13,charge_14,charge_15,charge_16,charge_17,charge_18,charge_19,charge_20,charge_21,charge_22,charge_23,charge_24,charge_25,charge_26,charge_27,charge_28,charge_29,charge_30,charge_31,charge_32,charge_33,charge_34,charge_35
CF3,"BURNETTE, ANTONIO", 2013 CF3 20969,11/28/2013,Assault With A Dangerous Weapon,,,,,,,,,,,,,,,,,,,,,,,,,,,,,,,,,,
CF3,"COURTNEY, ERIC A", 2013 CF3 20971,11/28/2013,Burglary One,,,,,,,,,,,,,,,,,,,,,,,,,,,,,,,,,,
CF3,"DELOATCH, JOSEPH L", 2013 CF3 21011,11/29/2013,Robbery,,,,,,,,,,,,,,,,,,,,,,,,,,,,,,,,,,
CF3,"MORRIS, CLAYTON", 2013 CF3 21013,11/29/2013,Assault With A Dangerous Weapon,,,,,,,,,,,,,,,,,,,,,,,,,,,,,,,,,,
CF3,"TYLER, JERMEL", 2013 CF3 21015,11/30/2013,Conspiracy,Kidnapping While Armed,Poss Firearm During Crime of Violence,Aggravated Assault Knowingly While Armed,Poss Firearm During Crime of Violence,Aggravated Assault Knowingly While Armed,Poss Firearm During Crime of Violence,Robbery While Armed,Poss Firearm During Crime of Violence,Assault With A Dangerous Weapon,Poss Firearm During Crime of Violence,,,,,,,,,,,,,,,,,,,,,,,,
CF3,"ROBINSON, ANTHONY T", 2013 CF3 21017,11/30/2013,Burglary One,,,,,,,,,,,,,,,,,,,,,,,,,,,,,,,,,,
CF3,"REID, BRIAN T", 2013 CF3 21053,11/30/2013,Robbery,Assault W/I to Commit Robbery,Poss of a Controlled Substance -Misd,,,,,,,,,,,,,,,,,,,,,,,,,,,,,,,,
CF3,"JONES, JOSEPH W", 2013 CF3 21067,12/02/2013,Burglary One,Theft Second Degree,,,,,,,,,,,,,,,,,,,,,,,,,,,,,,,,,
CF3,"LAKE, WILLARD", 2013 CF3 21112,12/02/2013,Robbery,,,,,,,,,,,,,,,,,,,,,,,,,,,,,,,,,,
CF3,"PALMER, ADRIAN", 2013 CF3 21121,12/02/2013,Burglary Two,,,,,,,,,,,,,,,,,,,,,,,,,,,,,,,,,,
CF3,"JONES, DARRYL S", 2013 CF3 21123,12/02/2013,Burglary Two,,,,,,,,,,,,,,,,,,,,,,,,,,,,,,,,,,
CF3,"WILSON, ANISHA", 2013 CF3 21140,12/02/2013,Robbery,,,,,,,,,,,,,,,,,,,,,,,,,,,,,,,,,,
CF3,"HAGANS, ANTOWAN", 2013 CF3 21157,12/02/2013,Burglary Two,,,,,,,,,,,,,,,,,,,,,,,,,,,,,,,,,,
CF3,"TAYLOR, JONATHAN", 2013 CF3 21175,12/02/2013,Assault W/I to Commit Robbery,,,,,,,,,,,,,,,,,,,,,,,,,,,,,,,,,,
CF3,"JACKSON, JAMAL R", 2013 CF3 21177,12/02/2013,Assault W/I to Commit Robbery,,,,,,,,,,,,,,,,,,,,,,,,,,,,,,,,,,
CF3,"DARR, DAVON", 2013 CF3 21191,12/02/2013,Assault With A Dangerous Weapon,Bail Reform Act -Misd,,,,,,,,,,,,,,,,,,,,,,,,,,,,,,,,,
CF3,"HINKLE, BRIAN", 2013 CF3 21212,12/03/2013,Assault With A Dangerous Weapon,,,,,,,,,,,,,,,,,,,,,,,,,,,,,,,,,,
CF3,"GILGEOURS, RAKEEM A", 2013 CF3 21224,12/03/2013,Assault With A Dangerous Weapon,,,,,,,,,,,,,,,,,,,,,,,,,,,,,,,,,,
CF3,"SILLS, KENNETH", 2013 CF3 21272,12/04/2013,Burglary One,,,,,,,,,,,,,,,,,,,,,,,,,,,,,,,,,,
CF3,"ARTIS, DARYL", 2013 CF3 21280,12/04/2013,Assault With A Dangerous Weapon,Threat to Kidnap or Injure a Person,,,,,,,,,,,,,,,,,,,,,,,,,,,,,,,,,
CF3,"PHIFER, THOMAS", 2013 CF3 21293,12/04/2013,Robbery,,,,,,,,,,,,,,,,,,,,,,,,,,,,,,,,,,
CF3,"DRUMMOND, MICHAEL", 2013 CF3 21295,12/04/2013,Robbery While Armed,,,,,,,,,,,,,,,,,,,,,,,,,,,,,,,,,,
CF3,"SILVER, BOBBY", 2013 CF3 21322,12/05/2013,Aggravated Assault Knowingly While Armed,,,,,,,,,,,,,,,,,,,,,,,,,,,,,,,,,,
CF3,"BANKS, LEROY WARDELL", 2013 CF3 21328,12/05/2013,Assault With A Dangerous Weapon,Threats to Do Bodily Harm -Misd,Poss Prohibited Weapon -Other,,,,,,,,,,,,,,,,,,,,,,,,,,,,,,,,
CF3,"THOMAS, TYIANNE N", 2013 CF3 21333,12/05/2013,Burglary One While Armed,,,,,,,,,,,,,,,,,,,,,,,,,,,,,,,,,,
CF3,"MITCHELL, SHAWN", 2013 CF3 21337,12/05/2013,Aggravated Aslt-Grave Risk,,,,,,,,,,,,,,,,,,,,,,,,,,,,,,,,,,
CF3,"MCCOY, TIAIRRA A", 2013 CF3 21338,12/05/2013,Assault With A Dangerous Weapon,Possess Prohibited Weapon,,,,,,,,,,,,,,,,,,,,,,,,,,,,,,,,,
CF3,"DAVENPORT, RHONDA", 2013 CF3 21365,12/05/2013,Aggravated Assault Knowingly While Armed,Assault With A Dangerous Weapon,Assault with Significant Bodily Injury,,,,,,,,,,,,,,,,,,,,,,,,,,,,,,,,
CF3,"RENWICK, ANTUAN LAMAR", 2013 CF3 21428,12/06/2013,Robbery,,,,,,,,,,,,,,,,,,,,,,,,,,,,,,,,,,
CF3,"RENWICK, ANTUAN LAMAR", 2013 CF3 21429,12/06/2013,Robbery While Armed,,,,,,,,,,,,,,,,,,,,,,,,,,,,,,,,,,
CF3,"MCKNIGHT, ROMAIR", 2013 CF3 21430,12/06/2013,Assault With A Dangerous Weapon,,,,,,,,,,,,,,,,,,,,,,,,,,,,,,,,,,
CF3,"FUNDERBURK, MIKISHA R", 2013 CF3 21431,12/06/2013,Kidnapping,Obstruction Justice (Due Administration),,,,,,,,,,,,,,,,,,,,,,,,,,,,,,,,,
CF3,"ROBINSON, TORREY C", 2013 CF3 21449,12/06/2013,Burglary Two,Poss Firearm During Crime of Violence,Robbery While Armed,Poss Firearm During Crime of Violence,Assault With A Dangerous Weapon,Poss Firearm During Crime of Violence,Theft First Degree,Unlawful Poss Ammunition,Obstruction Justice (Due Administration),,,,,,,,,,,,,,,,,,,,,,,,,,
CF3,"BARNES, LEON", 2013 CF3 21451,12/06/2013,Burglary One,Burglary Two,Burglary Two,,,,,,,,,,,,,,,,,,,,,,,,,,,,,,,,
CF3,"BOOKARD, TYRONE", 2013 CF3 21454,12/06/2013,Robbery,,,,,,,,,,,,,,,,,,,,,,,,,,,,,,,,,,
CF3,"RAY, JARON D", 2013 CF3 21459,12/06/2013,Assault W/I to Kill While Armed,Poss Firearm During Crime of Violence,Assault W/I to Kill While Armed,Poss Firearm During Crime of Violence,Assault With A Dangerous Weapon,Poss Firearm During Crime of Violence,Assault With A Dangerous Weapon,Poss Firearm During Crime of Violence,Unlawful Possession of a Firearm (Prior Conviction),Possession of Unregistered Firearm/Unlawful Possession of a Firearm or Destructive Device,Unlawful Poss Ammunition,,Destruction of Property less than $1000,Destruction of Property less than $1000,,,,,,,,,,,,,,,,,,,,,
CF3,"GAMBLE, LARNELL J", 2013 CF3 21473,12/07/2013,Robbery,,,,,,,,,,,,,,,,,,,,,,,,,,,,,,,,,,
CF3,"HARRIS, LORENZO LEROY", 2013 CF3 21483,12/07/2013,Robbery,,,,,,,,,,,,,,,,,,,,,,,,,,,,,,,,,,
CF3,"JACKSON, ANDREW", 2013 CF3 21511,12/07/2013,Carry Pistol Outside Home/Business,Simple Assault,Poss of a Controlled Substance -Misd,,,,,,,,,,,,,,,,,,,,,,,,,,,,,,,,
CF3,"YATES, ANTONIO", 2013 CF3 21643,12/10/2013,Assault With A Dangerous Weapon,Assault with Significant Bodily Injury,Obstructing Preventing Interfg W/Reports/Reqsts for Assist frm Law Enforce Med Prov Child Wlfr Agncy,,,,,,,,,,,,,,,,,,,,,,,,,,,,,,,,
CF3,"WILSON, ANISHA", 2013 CF3 21648,12/10/2013,Robbery,,,,,,,,,,,,,,,,,,,,,,,,,,,,,,,,,,
CF3,"VAUGHN, RICHARD", 2013 CF3 21680,12/11/2013,Robbery,,,,,,,,,,,,,,,,,,,,,,,,,,,,,,,,,,
CF3,"BELL, RONNIE", 2013 CF3 21682,12/11/2013,Assault With A Dangerous Weapon,,,,,,,,,,,,,,,,,,,,,,,,,,,,,,,,,,
CF3,"BARNHILL, LINWOOD", 2013 CF3 21684,12/11/2013,Pandering,Pandering,,,,,,,,,,,,,,,,,,,,,,,,,,,,,,,,,
CF3,"BARNETT, MELVIN R", 2013 CF3 21801,12/13/2013,Simple Assault,Poss Prohibited Weapon -Other,,,,,,,,,,,,,,,,,,,,,,,,,,,,,,,,,
CF3,"POWELL, FREDRICK", 2013 CF3 21862,12/13/2013,Assault With A Dangerous Weapon,Poss Prohibited Weapon -Other,,,,,,,,,,,,,,,,,,,,,,,,,,,,,,,,,
CF3,"JOHNSON, MARQUIS D", 2013 CF3 21892,12/14/2013,Assault With A Dangerous Weapon,,,,,,,,,,,,,,,,,,,,,,,,,,,,,,,,,,
CF3,"WALKER, DETRON C", 2013 CF3 21895,12/14/2013,Burglary Two,Destruction of Property less than $1000,,,,,,,,,,,,,,,,,,,,,,,,,,,,,,,,,
CF3,"HALL, DIAMANTE M", 2013 CF3 21900,12/14/2013,Carry Pistol Outside Home/Business,,,,,,,,,,,,,,,,,,,,,,,,,,,,,,,,,,
CF3,"WARTMAN, KEITH", 2013 CF3 21911,12/14/2013,Robbery,,,,,,,,,,,,,,,,,,,,,,,,,,,,,,,,,,
CF3,"HALL, KAMAU A", 2013 CF3 21912,12/14/2013,Burglary Two,Destruction of Property $1000 or More,Theft First Degree,,,,,,,,,,,,,,,,,,,,,,,,,,,,,,,,
CF3,"GREGORY, DAVID D", 2013 CF3 21985,12/16/2013,Assault W/I to Commit Robbery,Assault With A Dangerous Weapon,Poss W/I to Dist a Controlled Substance,Destruction of Property less than $1000,,,,,,,,,,,,,,,,,,,,,,,,,,,,,,,
CF3,"DAVIS, ANTHONY", 2013 CF3 21997,12/16/2013,Conspiracy,Robbery While Armed,Poss Firearm During Crime of Violence,Unlawful Possession of a Firearm (Crime of Violence),Carry Dang Weapon-Outside Home/Business (Prior Felony),Possession of Unregistered Firearm/Unlawful Possession of a Firearm or Destructive Device,Unlawful Poss Ammunition,,,,,,,,,,,,,,,,,,,,,,,,,,,,
CF3,"ANKROM, EUGENE D", 2013 CF3 21998,12/16/2013,Conspiracy,Robbery While Armed,Poss Firearm During Crime of Violence,Unlawful Possesion of a Firmarm (Crime of Violence),Carry Pistol-Prior Fel/CP,Possession of Unregistered Firearm/Unlawful Possession of a Firearm or Destructive Device,Unlawful Poss Ammunition,,,,,,,,,,,,,,,,,,,,,,,,,,,,
CF3,"BRYANT, MARCUS", 2013 CF3 22051,12/17/2013,Burglary Two,,,,,,,,,,,,,,,,,,,,,,,,,,,,,,,,,,
CF3,"HINTON, DANIEL", 2013 CF3 22052,12/17/2013,Burglary Two,,,,,,,,,,,,,,,,,,,,,,,,,,,,,,,,,,
CF3,"WILLIAMS, JOVON J", 2013 CF3 22054,12/17/2013,Robbery While Armed,,,,,,,,,,,,,,,,,,,,,,,,,,,,,,,,,,
CF3,"KELSEY, DEANDRE J", 2013 CF3 22085,12/18/2013,Armed Carjacking,,,,,,,,,,,,,,,,,,,,,,,,,,,,,,,,,,
CF3,"MOORE, ALANTE", 2013 CF3 22105,12/18/2013,Robbery While Armed,Carry Pistol Outside Home/Business,,,,,,,,,,,,,,,,,,,,,,,,,,,,,,,,,
CF3,"BUSKEY, LAMONT L", 2013 CF3 22133,12/18/2013,Conspiracy,Burglary Two,Kidnapping,Kidnapping,Robbery,Robbery,Burglary One While Armed,Kidnapping While Armed,Robbery While Armed,Robbery While Armed,Carry Dangerous Weapon- Felony,,,,,,,,,,,,,,,,,,,,,,,,
CF3,"CAMPBELL, LEONARD", 2013 CF3 22149,12/19/2013,Burglary One,,,,,,,,,,,,,,,,,,,,,,,,,,,,,,,,,,
CF3,"TILLMAN, MICHAEL", 2013 CF3 22157,12/19/2013,Conspiracy,Assault W/I to Commit Robbery,Burglary One While Armed,Poss Firearm During Crime of Violence,Kidnapping While Armed,Poss Firearm During Crime of Violence,Robbery While Armed,Poss Firearm During Crime of Violence,Kidnapping While Armed,Poss Firearm During Crime of Violence,Robbery While Armed,Poss Firearm During Crime of Violence,Kidnapping While Armed,Poss Firearm During Crime of Violence,Assault W/I to Commit Robbery While Armed,Poss Firearm During Crime of Violence,Kidnapping While Armed,Poss Firearm During Crime of Violence,Robbery While Armed,Poss Firearm During Crime of Violence,Threat to Kidnap or Injure a Person,Unlawful Possession of a Firearm (Prior Conviction),Carry Pistol Outside Home/Business,Robbery While Armed,Poss Firearm During Crime of Violence,Unlawful Possession of a Firearm (Prior Conviction),Carry Pistol Outside Home/Business,Robbery,Kidnapping,Simple Assault,Destruction of Property less than $1000,,,,
CF3,"ROCKINGHAM, DARRYL", 2013 CF3 22158,12/19/2013,Assault W/I to Commit Robbery,,,,,,,,,,,,,,,,,,,,,,,,,,,,,,,,,,
CF3,"JONES, ANGELIA S", 2013 CF3 22166,12/19/2013,Aggravated Assault Knowingly,,,,,,,,,,,,,,,,,,,,,,,,,,,,,,,,,,
CF3,"GREEN, DEMETRIUS J", 2013 CF3 22171,12/19/2013,Assault With A Dangerous Weapon,,,,,,,,,,,,,,,,,,,,,,,,,,,,,,,,,,
CF3,"SMITH, ERIC D", 2013 CF3 22214,12/20/2013,Robbery While Armed,,,,,,,,,,,,,,,,,,,,,,,,,,,,,,,,,,
CF3,"WATTS, BRANDON A", 2013 CF3 22215,12/20/2013,Robbery While Armed,,,,,,,,,,,,,,,,,,,,,,,,,,,,,,,,,,
CF3,"EVANS, BERNARD WILLIAM", 2013 CF3 22227,12/20/2013,Assault With A Dangerous Weapon,Carry Dang Weapon-Outside Home/Business (Prior Felony),Poss W/I to Dist a Controlled Substance,Poss Firearm During Crime of Violence,Possession of Unregistered Firearm/Unlawful Possession of a Firearm or Destructive Device,Unlawful Poss Ammunition,,,,,,,,,,,,,,,,,,,,,,,,,,,,,
CF3,"DAVENPORT, DAWAN", 2013 CF3 22273,12/21/2013,Aggravated Assault Knowingly,Assault with Significant Bodily Injury,,,,,,,,,,,,,,,,,,,,,,,,,,,,,,,,,
CF3,"MIRANDA, ADALBERTO", 2013 CF3 22278,12/21/2013,Robbery,Assault With A Dangerous Weapon,Assault With A Dangerous Weapon,Assault with Significant Bodily Injury,,,,,,,,,,,,,,,,,,,,,,,,,,,,,,,
CF3,"MATHISON, CRYSTAL", 2013 CF3 22279,12/21/2013,Robbery,Assault With A Dangerous Weapon,Assault With A Dangerous Weapon,Assault with Significant Bodily Injury,,,,,,,,,,,,,,,,,,,,,,,,,,,,,,,
CF3,"ROSS, ANTHONY L", 2013 CF3 22358,12/23/2013,Robbery,,,,,,,,,,,,,,,,,,,,,,,,,,,,,,,,,,
CF3,"GLANVILLE, NAJAE J", 2013 CF3 22390,12/23/2013,Robbery While Armed,Assault With A Dangerous Weapon,Carrying A Pistol Outside Home/Business,,,,,,,,,,,,,,,,,,,,,,,,,,,,,,,,
CF3,"WILIAMS, GERALD", 2013 CF3 22450,12/23/2013,Kidnapping,Assault with Significant Bodily Injury,,,,,,,,,,,,,,,,,,,,,,,,,,,,,,,,,
CF3,"CONDRAY, KEVIN A", 2013 CF3 22625,12/27/2013,Burglary Two Offenses Committed During Release,Simple Assault Offenses Committed During Release,Contempt - Condition of Release Violation,,,,,,,,,,,,,,,,,,,,,,,,,,,,,,,,
CF3,"GILLIS, DAVID", 2013 CF3 22647,12/28/2013,Burglary One,,,,,,,,,,,,,,,,,,,,,,,,,,,,,,,,,,
CF3,"MCNAIR, TIMOTHY W", 2013 CF3 22669,12/30/2013,Theft Second Degree - Felony,,,,,,,,,,,,,,,,,,,,,,,,,,,,,,,,,,
CF3,"MURCHISON, ANTONIO", 2013 CF3 22671,12/30/2013,Robbery,Contempt - Condition of Release Violation,,,,,,,,,,,,,,,,,,,,,,,,,,,,,,,,,
CF3,"JOHNSON, ANTONIO", 2013 CF3 22686,12/30/2013,Robbery,,,,,,,,,,,,,,,,,,,,,,,,,,,,,,,,,,
CF3,"HUDNALL, MILYK", 2013 CF3 22694,12/30/2013,Carry Pistol Outside Home/Business,Possession of Unregistered Firearm/Unlawful Possession of a Firearm or Destructive Device,Unlawful Poss Ammunition,,,,,,,,,,,,,,,,,,,,,,,,,,,,,,,,
CF3,"HUNTER, LUTHER E", 2013 CF3 22710,12/30/2013,ARMED ROBBERY,,,,,,,,,,,,,,,,,,,,,,,,,,,,,,,,,,
CF3,"PETERSON, RONALD L", 2013 CF3 22712,12/30/2013,ARMED ROBBERY,,,,,,,,,,,,,,,,,,,,,,,,,,,,,,,,,,
CF3,"CHACONAS, LEWIS W", 2013 CF3 22724,12/30/2013,Assault With A Dangerous Weapon,,,,,,,,,,,,,,,,,,,,,,,,,,,,,,,,,,
CF3,"WISE, ROY D", 2013 CF3 22746,12/31/2013,Assault With A Dangerous Weapon,,,,,,,,,,,,,,,,,,,,,,,,,,,,,,,,,,
CF3,"COOPER, MARQUETTE", 2013 CF3 22759,12/31/2013,Robbery While Armed,,,,,,,,,,,,,,,,,,,,,,,,,,,,,,,,,,
CF3,"CARTER, MICHAEL A", 2013 CF3 22760,12/31/2013,Robbery While Armed,,,,,,,,,,,,,,,,,,,,,,,,,,,,,,,,,,
CF3,"MORGAN, EVERETT", 2013 CF3 22761,12/31/2013,Robbery While Armed,,,,,,,,,,,,,,,,,,,,,,,,,,,,,,,,,,
