type,person,number,date,charge_1,charge_2,charge_3,charge_4,charge_5,charge_6,charge_7,charge_8,charge_9,charge_10,charge_11,charge_12,charge_13,charge_14,charge_15,charge_16,charge_17,charge_18,charge_19,charge_20,charge_21,charge_22,charge_23,charge_24,charge_25,charge_26,charge_27,charge_28,charge_29,charge_30,charge_31,charge_32,charge_33,charge_34,charge_35
CRW,"MCBRIDE, JULIUS ERVIN", 2014 CRW 2,01/02/2014,,,,,,,,,,,,,,,,,,,,,,,,,,,,,,,,,,,
CRW,"ROBINSON, KEITH", 2014 CRW 3,01/02/2014,,,,,,,,,,,,,,,,,,,,,,,,,,,,,,,,,,,
CRW,"WILSON, MARIAH", 2014 CRW 4,01/02/2014,,,,,,,,,,,,,,,,,,,,,,,,,,,,,,,,,,,
CRW,"TYSON, NERTHANIEL E", 2014 CRW 5,01/02/2014,,,,,,,,,,,,,,,,,,,,,,,,,,,,,,,,,,,
CRW,"WATTS, BRANDON ALLEN", 2014 CRW 6,01/02/2014,,,,,,,,,,,,,,,,,,,,,,,,,,,,,,,,,,,
CRW,"SMITH, ERIC D", 2014 CRW 7,01/02/2014,,,,,,,,,,,,,,,,,,,,,,,,,,,,,,,,,,,
CRW,2420 ELVANS ROAD #104 SE WASHINGTON DC 20020, 2014 CRW 10,01/02/2014,,,,,,,,,,,,,,,,,,,,,,,,,,,,,,,,,,,
CRW,"GOSWEILER, CHRISTIANA MARIE", 2014 CRW 11,01/02/2014,,,,,,,,,,,,,,,,,,,,,,,,,,,,,,,,,,,
CRW,1240 A SIMMS PLACE SE WDC, 2014 CRW 12,01/02/2014,,,,,,,,,,,,,,,,,,,,,,,,,,,,,,,,,,,
CRW,4340 BLAGDEN AVE NW WASHINGTON DC, 2014 CRW 13,01/02/2014,,,,,,,,,,,,,,,,,,,,,,,,,,,,,,,,,,,
CRW,WHITE LEXUS 300 LX 4-DOOR, 2014 CRW 14,01/02/2014,,,,,,,,,,,,,,,,,,,,,,,,,,,,,,,,,,,
CRW,"JACKSON, TRE", 2014 CRW 15,01/02/2014,,,,,,,,,,,,,,,,,,,,,,,,,,,,,,,,,,,
CRW,"HALL, SHAREEM", 2014 CRW 16,01/02/2014,,,,,,,,,,,,,,,,,,,,,,,,,,,,,,,,,,,
CRW,"YOUNG, MARIO", 2014 CRW 18,01/02/2014,,,,,,,,,,,,,,,,,,,,,,,,,,,,,,,,,,,
CRW,"HAIRSTON, ANTONIO LEE", 2014 CRW 19,01/02/2014,,,,,,,,,,,,,,,,,,,,,,,,,,,,,,,,,,,
CRW,1420 R STREET NW #304 WASHINGTON DC, 2014 CRW 20,01/02/2014,,,,,,,,,,,,,,,,,,,,,,,,,,,,,,,,,,,
CRW,917 VARNEY STREET SE WASHINGTON DC, 2014 CRW 21,01/02/2014,,,,,,,,,,,,,,,,,,,,,,,,,,,,,,,,,,,
CRW,50 M STREET NW WASHINGTON DC, 2014 CRW 23,01/02/2014,,,,,,,,,,,,,,,,,,,,,,,,,,,,,,,,,,,
CRW,2031 2ND STREET NE WASHINGTON DC, 2014 CRW 24,01/03/2014,,,,,,,,,,,,,,,,,,,,,,,,,,,,,,,,,,,
CRW,"DUNN, TYMELL", 2014 CRW 25,01/03/2014,,,,,,,,,,,,,,,,,,,,,,,,,,,,,,,,,,,
CRW,1993 JEEP CHEROKEE, 2014 CRW 26,01/03/2014,,,,,,,,,,,,,,,,,,,,,,,,,,,,,,,,,,,
CRW,151 RIDGE ROAD SE WASHINGTON DC, 2014 CRW 27,01/03/2014,,,,,,,,,,,,,,,,,,,,,,,,,,,,,,,,,,,
CRW,2005 WHITE ISUZU TOW TRUCK JALE5B16557300944, 2014 CRW 28,01/03/2014,,,,,,,,,,,,,,,,,,,,,,,,,,,,,,,,,,,
CRW,"SCOTT, DEMONT N", 2014 CRW 29,01/03/2014,,,,,,,,,,,,,,,,,,,,,,,,,,,,,,,,,,,
CRW,"SCOTT, DEMONT", 2014 CRW 30,01/03/2014,,,,,,,,,,,,,,,,,,,,,,,,,,,,,,,,,,,
CRW,"HARRIS, TORIA RENEE", 2014 CRW 32,01/03/2014,,,,,,,,,,,,,,,,,,,,,,,,,,,,,,,,,,,
CRW,2701 LANGSTON PLACE SE WASHINGTON DC, 2014 CRW 33,01/03/2014,,,,,,,,,,,,,,,,,,,,,,,,,,,,,,,,,,,
CRW,423 BURBANK STREET SE #1 WASHINGTON DC, 2014 CRW 34,01/03/2014,,,,,,,,,,,,,,,,,,,,,,,,,,,,,,,,,,,
CRW,"SIMMONS, JIMMY EARL", 2014 CRW 35,01/01/2014,,,,,,,,,,,,,,,,,,,,,,,,,,,,,,,,,,,
