type,person,number,date,charge_1,charge_2,charge_3,charge_4,charge_5,charge_6,charge_7,charge_8,charge_9,charge_10,charge_11,charge_12,charge_13,charge_14,charge_15,charge_16,charge_17,charge_18,charge_19,charge_20,charge_21,charge_22,charge_23,charge_24,charge_25,charge_26,charge_27,charge_28,charge_29,charge_30,charge_31,charge_32,charge_33,charge_34,charge_35
CF1,"DAVIS, ALLEN", 2014 CF1 5,01/01/2014,First Degree Child Sex Abuse,,,,,,,,,,,,,,,,,,,,,,,,,,,,,,,,,,
CF1,"STODDARD, COREY", 2014 CF1 13,01/01/2014,Murder II While Armed,,,,,,,,,,,,,,,,,,,,,,,,,,,,,,,,,,
CF1,"JOHNSON, QUINN E", 2014 CF1 22,01/01/2014,Murder I While Armed,Poss Firearm During Crime of Violence,Unlawful Possession of a Firearm (Prior Conviction),,,,,,,,,,,,,,,,,,,,,,,,,,,,,,,,
CF1,"BLOUNT, CHARLES", 2014 CF1 106,01/02/2014,Assault W/I To Commit Any Other Offense While Armed,,,,,,,,,,,,,,,,,,,,,,,,,,,,,,,,,,
CF1,"BETTS, DEONTE", 2014 CF1 183,01/23/2014,First Degree Sexual Abuse,,,,,,,,,,,,,,,,,,,,,,,,,,,,,,,,,,
CF1,"REDWOOD, DION M", 2014 CF1 254,01/04/2014,Murder I,,,,,,,,,,,,,,,,,,,,,,,,,,,,,,,,,,
CF1,"CLEVELAND, ALPHONSO", 2014 CF1 360,01/06/2014,Murder II,,,,,,,,,,,,,,,,,,,,,,,,,,,,,,,,,,
CF1,"CONARTE, AUBREY", 2014 CF1 712,01/11/2014,Assault W/I to Kill While Armed Offenses Committed During Release,Poss Firearm During Crime of Violence Offenses Committed During Release,Robbery While Armed Offenses Committed During Release,Poss Firearm During Crime of Violence Offenses Committed During Release,Unlawful Possession of a Firearm (Prior Conviction) Offenses Committed During Release,Possession of Unregistered Firearm/Unlawful Possession of a Firearm or Destructive Device Offenses Committed During Release,Unlawful Poss Ammunition Offenses Committed During Release,,,,,,,,,,,,,,,,,,,,,,,,,,,,
CF1,"FRANK, DAVID A", 2014 CF1 713,01/11/2014,Assault W/I to Kill,,,,,,,,,,,,,,,,,,,,,,,,,,,,,,,,,,
CF1,"COOPER, TAI", 2014 CF1 1064,01/17/2014,Negligent Homicide -Felony,,,,,,,,,,,,,,,,,,,,,,,,,,,,,,,,,,
CF1,"WILLIAMSON, JASON R", 2014 CF1 1144,01/18/2014,First Degree Child Sex Abuse,First Degree Child Sex Abuse,,,,,,,,,,,,,,,,,,,,,,,,,,,,,,,,,
CF1,"SHAW, ANTONIO N", 2014 CF1 1145,01/18/2014,Assault W/I to Kill While Armed,See Indictment Phase,Carry Pistol-Prior Fel/CP,,,,,,,,,,,,,,,,,,,,,,,,,,,,,,,,
CF1,"BROWN, TISHEENA L", 2014 CF1 1214,01/20/2014,1st Degree Cruelty to Children,,,,,,,,,,,,,,,,,,,,,,,,,,,,,,,,,,
CF1,"RICHARDSON, HOWARD", 2014 CF1 1312,01/23/2014,1st Degree Cruelty to Children,,,,,,,,,,,,,,,,,,,,,,,,,,,,,,,,,,
CF1,"FLEMING, BERNARD JERRY", 2014 CF1 1328,01/23/2014,Murder I,Poss Firearm During Crime of Violence,Assault W/I to Kill While Armed,Poss Firearm During Crime of Violence,Assault W/I to Kill While Armed,Poss Firearm During Crime of Violence,Assault W/I to Kill While Armed,Poss Firearm During Crime of Violence,Carry Pistol Outside Home/Business,Tampering With Physical Evidence,,,,,,,,,,,,,,,,,,,,,,,,,
CF1,"HAMLIN, JAMES", 2014 CF1 1329,01/23/2014,Unlawful Possession of a Firearm (Prior Conviction),Carry Pistol-Prior Fel/CP,,,,,,,,,,,,,,,,,,,,,,,,,,,,,,,,,
CF1,"ALVARADO, LILLIAN", 2014 CF1 1333,01/24/2014,Cruelty to Children,Murder I,,,,,,,,,,,,,,,,,,,,,,,,,,,,,,,,,
CF1,"REYES, JOSE", 2014 CF1 1369,01/24/2014,First Degree Sexual Abuse,First Degree Sexual Abuse,Threat to Kidnap or Injure a Person,,,,,,,,,,,,,,,,,,,,,,,,,,,,,,,,
CF1,"OSBORNE, ROBERT LEE", 2014 CF1 1544,01/27/2014,Second Degree Murder While Armed,,,,,,,,,,,,,,,,,,,,,,,,,,,,,,,,,,
CF1,"TOLSON, SHELBY", 2014 CF1 1545,01/27/2014,First Degree Sexual Abuse,,,,,,,,,,,,,,,,,,,,,,,,,,,,,,,,,,
CF1,"WILLIS, RAKEEM", 2014 CF1 1667,01/29/2014,Assault W/I to Kill While Armed,Assault With A Dangerous Weapon,Carry Dangerous Weapon- Felony,,,,,,,,,,,,,,,,,,,,,,,,,,,,,,,,
CF1,"HUNT, WILLIAM S", 2014 CF1 1927,02/01/2014,Murder I While Armed,Obstruction Justice (Due Administration),,,,,,,,,,,,,,,,,,,,,,,,,,,,,,,,,
CF1,, 2014 CF1 2021,02/03/2014,First Degree Sexual Abuse,Assault With A Dangerous Weapon,,,,,,,,,,,,,,,,,,,,,,,,,,,,,,,,,
CF1,"TERRY, TERRILL ANTHONY", 2014 CF1 2109,02/05/2014,Assault With A Dangerous Weapon,Assault W/I to Kill While Armed,Aggravated Assault Knowingly,Carry Dang Weapon-Outside Home/Business (Prior Felony),,,,,,,,,,,,,,,,,,,,,,,,,,,,,,,
CF1,"BLADES, JONATHAN", 2014 CF1 2153,02/06/2014,Assault W/I to Kill While Armed,Poss Firearm During Crime of Violence,Assault W/I to Kill While Armed,Poss Firearm During Crime of Violence,Aggravated Assault Knowingly While Armed,Poss Firearm During Crime of Violence,Possession of Unregistered Firearm/Unlawful Possession of a Firearm or Destructive Device,Unlawful Poss Ammunition,,,,,,,,,,,,,,,,,,,,,,,,,,,
CF1,"WINSTON, JOHNATHAN", 2014 CF1 2170,02/06/2014,Assault W/I to Kill While Armed,Assault With A Dangerous Weapon,Carry Dangerous Weapon- Felony,,,,,,,,,,,,,,,,,,,,,,,,,,,,,,,,
CF1,"STANARD, RONALD", 2014 CF1 2265,02/08/2014,First Degree Sexual Abuse,Fourth Degree Sex Abuse- Intoxicant,,,,,,,,,,,,,,,,,,,,,,,,,,,,,,,,,
CF1,"WASHINGTON, DAVID", 2014 CF1 2272,02/08/2014,Murder I While Armed,Poss Firearm During Crime of Violence,Assault W/I to Kill While Armed,Poss Firearm During Crime of Violence,,,,,,,,,,,,,,,,,,,,,,,,,,,,,,,
CF1,"CAVALLERO, TSIHNIK", 2014 CF1 2444,02/12/2014,Murder I While Armed,Poss Firearm During Crime of Violence,,,,,,,,,,,,,,,,,,,,,,,,,,,,,,,,,
CF1,"PATTEN, NATHANIEL", 2014 CF1 2716,02/15/2014,Assault W/I to Kill,Aggravated Assault Knowingly,Unlawful Possession of a Firearm (Crime of Violence),,,,,,,,,,,,,,,,,,,,,,,,,,,,,,,,
CF1,"BROWN, KARIE", 2014 CF1 2717,02/15/2014,Assault W/I to Kill,Aggravated Assault Knowingly,Unlawful Possession of a Firearm (Crime of Violence),,,,,,,,,,,,,,,,,,,,,,,,,,,,,,,,
CF1,"POWELL, STERLING WILLIAM", 2014 CF1 2780,02/18/2014,First Degree Sexual Abuse of a Minor,,,,,,,,,,,,,,,,,,,,,,,,,,,,,,,,,,
CF1,"JOHNSON, KEVIN M", 2014 CF1 3133,02/22/2014,Murder I While Armed,,,,,,,,,,,,,,,,,,,,,,,,,,,,,,,,,,
CF1,"SMITH, ARNELL", 2014 CF1 3340,02/26/2014,Conspiracy to Commit a Crime of Violence,Assault W/I to Kill,,,,,,,,,,,,,,,,,,,,,,,,,,,,,,,,,
CF1,"ABDUL-MUWWAKIL, JIBRIL", 2014 CF1 3519,03/01/2014,Murder II While Armed,Offenses Committed During Release,,,,,,,,,,,,,,,,,,,,,,,,,,,,,,,,,
CF1,"JOHNSON, DONZELL", 2014 CF1 3947,03/08/2014,Attempted Second Degree Child Sex Abuse,,,,,,,,,,,,,,,,,,,,,,,,,,,,,,,,,,
CF1,"GARVIN, VERDELL", 2014 CF1 3973,03/08/2014,Second Degree Sex Abuse- Incompetent,,,,,,,,,,,,,,,,,,,,,,,,,,,,,,,,,,
CF1,"SAXTON, COREY LAMONT", 2014 CF1 4117,03/11/2014,Murder II While Armed,,,,,,,,,,,,,,,,,,,,,,,,,,,,,,,,,,
CF1,"CANTY, GERALD LAMONT", 2014 CF1 4407,03/14/2014,First Degree Sexual Abuse,Kidnapping,Kidnapping,,,,,,,,,,,,,,,,,,,,,,,,,,,,,,,,
CF1,"BROADUS, TYRONE", 2014 CF1 4622,03/18/2014,First Degree Sexual Abuse,Sex Abuse- Misd,Sex Abuse- Misd,Simple Assault,,,,,,,,,,,,,,,,,,,,,,,,,,,,,,,
CF1,"CAVANAUGH, DAVID", 2014 CF1 4776,03/20/2014,First Degree Sexual Abuse,,,,,,,,,,,,,,,,,,,,,,,,,,,,,,,,,,
CF1,"PRATT, SEAN ENOCH", 2014 CF1 5250,03/27/2014,Assault w/Intent to Commit First Degree Sexual Abuse (Force),,,,,,,,,,,,,,,,,,,,,,,,,,,,,,,,,,
CF1,"RAMIREZ, RAFAEL", 2014 CF1 5328,03/28/2014,Pandering,,,,,,,,,,,,,,,,,,,,,,,,,,,,,,,,,,
CF1,"PENA, LEOPOLDO A", 2014 CF1 5329,03/28/2014,Pandering,,,,,,,,,,,,,,,,,,,,,,,,,,,,,,,,,,
CF1,"WILLIAMS, ANTONIO J", 2014 CF1 5414,03/29/2014,Murder II,,,,,,,,,,,,,,,,,,,,,,,,,,,,,,,,,,
CF1,"SANDERS, CHRISTOPHER", 2014 CF1 5697,04/02/2014,Assault w/Intent to Commit First Degree Sexual Abuse (Force),Aslt W/I to Commit 3rd Degree Sex Abuse,,,,,,,,,,,,,,,,,,,,,,,,,,,,,,,,,
CF1,"GREEN, GREGORY", 2014 CF1 5741,04/03/2014,Robbery While Armed,Poss Firearm During Crime of Violence,Murder I While Armed,Poss Firearm During Crime of Violence,Unlawful Possession of a Firearm (Prior Conviction),,,,,,,,,,,,,,,,,,,,,,,,,,,,,,
CF1,"MELGAR, NELSON", 2014 CF1 5759,04/03/2014,First Degree Child Sex Abuse,,,,,,,,,,,,,,,,,,,,,,,,,,,,,,,,,,
CF1,"CANTY, GERALD L", 2014 CF1 5908,04/04/2014,Kidnapping,,,,,,,,,,,,,,,,,,,,,,,,,,,,,,,,,,
CF1,"RAMOTAR, RYAN", 2014 CF1 6256,04/10/2014,First Degree Sexual Abuse,Aggravated Assault Knowingly,,,,,,,,,,,,,,,,,,,,,,,,,,,,,,,,,
CF1,"TAYLOR, DENNIS", 2014 CF1 6638,04/15/2014,First Degree Sexual Abuse,,,,,,,,,,,,,,,,,,,,,,,,,,,,,,,,,,
CF1,"JOHNSON, CARLTON M.", 2014 CF1 6673,04/16/2014,Murder I While Armed More than 1 Offense of Murder in First Degree Arose from Incident,Poss Firearm During Crime of Violence,Murder I While Armed,Poss Firearm During Crime of Violence,Assault W/I to Kill While Armed,Poss Firearm During Crime of Violence,,,,,,,,,,,,,,,,,,,,,,,,,,,,,
CF1,"FRANCIS, GEORGE", 2014 CF1 6915,04/19/2014,Assault w/Intent to Commit First Degree Sexual Abuse (Force),Kidnapping,Robbery,Contempt - Felony,Obstruction Justice (Due Administration),Conspiracy,,,,,,,,,,,,,,,,,,,,,,,,,,,,,
CF1,"MATHIS, TRACY J", 2014 CF1 7021,04/21/2014,Murder II,,,,,,,,,,,,,,,,,,,,,,,,,,,,,,,,,,
CF1,"ALEXANDER-JACKSON, CHRISTOPHER W", 2014 CF1 7088,04/23/2014,First Degree Child Sex Abuse,,,,,,,,,,,,,,,,,,,,,,,,,,,,,,,,,,
CF1,"WHEELER, ALAN DUVON", 2014 CF1 7096,04/23/2014,First Degree Child Sex Abuse,,,,,,,,,,,,,,,,,,,,,,,,,,,,,,,,,,
CF1,"YATES, JAMES W", 2014 CF1 7487,04/29/2014,Murder II While Armed,,,,,,,,,,,,,,,,,,,,,,,,,,,,,,,,,,
CF1,"HESTER, ANTONIO", 2014 CF1 7569,04/30/2014,Murder I While Armed,Poss Firearm During Crime of Violence,Unlawful Possession of a Firearm (Prior Conviction),,,,,,,,,,,,,,,,,,,,,,,,,,,,,,,,
CF1,"LEIGH, LORENZO SAMUEL", 2014 CF1 7737,05/02/2014,First Degree Child Sex Abuse,,,,,,,,,,,,,,,,,,,,,,,,,,,,,,,,,,
CF1,"JACKSON, HENRY A", 2014 CF1 7808,05/03/2014,First Degree Child Sex Abuse,,,,,,,,,,,,,,,,,,,,,,,,,,,,,,,,,,
CF1,"FOSTER, BRYAN E", 2014 CF1 7907,05/05/2014,Attempted First Degree Child Sex Abuse,Second Degree Child Sex Abuse,,,,,,,,,,,,,,,,,,,,,,,,,,,,,,,,,
CF1,"JONES, RYNELL", 2014 CF1 8061,05/08/2014,1st Degree Cruelty to Children,,,,,,,,,,,,,,,,,,,,,,,,,,,,,,,,,,
CF1,"BERNIER, MICHAEL", 2014 CF1 8100,05/08/2014,First Degree Sexual Abuse,,,,,,,,,,,,,,,,,,,,,,,,,,,,,,,,,,
CF1,"FLORES, JUAN MANUEL", 2014 CF1 8210,05/10/2014,First Degree Child Sex Abuse,,,,,,,,,,,,,,,,,,,,,,,,,,,,,,,,,,
CF1,"CAMACHO, MELANIE KAMELIA", 2014 CF1 8211,05/10/2014,Assault With A Dangerous Weapon,,,,,,,,,,,,,,,,,,,,,,,,,,,,,,,,,,
CF1,"CHRIS, JOHN B", 2014 CF1 8484,05/14/2014,Trafficking in Commercial Sex Acts,,,,,,,,,,,,,,,,,,,,,,,,,,,,,,,,,,
CF1,"KINSALE, SEAN", 2014 CF1 8548,05/15/2014,First Degree Sex Abuse (Threatening),Kidnapping While Armed,,,,,,,,,,,,,,,,,,,,,,,,,,,,,,,,,
CF1,"BROWN, ZERRICK LAMONT", 2014 CF1 8618,05/16/2014,Murder I,,,,,,,,,,,,,,,,,,,,,,,,,,,,,,,,,,
CF1,"MORALES, JOSEPH A", 2014 CF1 8726,05/17/2014,Enticing a Child-Felony,,,,,,,,,,,,,,,,,,,,,,,,,,,,,,,,,,
CF1,"PATRICK, EARL L", 2014 CF1 8812,05/20/2014,Felony Murder,,,,,,,,,,,,,,,,,,,,,,,,,,,,,,,,,,
CF1,"BUSH, YUSUF O", 2014 CF1 8930,05/21/2014,First Degree Sexual Abuse,First Degree Sexual Abuse,Kidnapping,Simple Assault,Simple Assault,,,,,,,,,,,,,,,,,,,,,,,,,,,,,,
CF1,"HUGHES, ANDRE", 2014 CF1 9209,05/26/2014,First Degree Child Sex Abuse,,,,,,,,,,,,,,,,,,,,,,,,,,,,,,,,,,
CF1,"BERNAL, ANGEL", 2014 CF1 9213,05/26/2014,First Degree Child Sex Abuse,First Degree Child Sex Abuse,First Degree Child Sex Abuse,First Degree Sexual Abuse,First Degree Child Sex Abuse,First Degree Child Sex Abuse,,,,,,,,,,,,,,,,,,,,,,,,,,,,,
CF1,"LOPEZ, JOSE ZAMORA", 2014 CF1 9333,05/28/2014,Second Degree Child Sex Abuse Victim Was Under Age 12 At Time of Offense Victim Was Under Age 18 and Actor Had Significant Relationship with Victim,Second Degree Child Sex Abuse Victim Was Under Age 12 At Time of Offense Victim Was Under Age 18 and Actor Had Significant Relationship with Victim,Second Degree Child Sex Abuse Victim Was Under Age 12 At Time of Offense Victim Was Under Age 18 and Actor Had Significant Relationship with Victim,Second Degree Child Sex Abuse Victim Was Under Age 12 At Time of Offense Victim Was Under Age 18 and Actor Had Significant Relationship with Victim,First Degree Child Sex Abuse Victim Was Under Age 18 and Actor Had Significant Relationship with Victim,First Degree Child Sex Abuse Victim Was Under Age 18 and Actor Had Significant Relationship with Victim,Attempted First Degree Child Sex Abuse Victim Was Under Age 18 and Actor Had Significant Relationship with Victim,,,,,,,,,,,,,,,,,,,,,,,,,,,,
CF1,"BALTIMORE, ANDRE", 2014 CF1 9471,05/30/2014,Assault W/I to Kill While Armed,Aggravated Assault Knowingly While Armed,Carry Dang Weapon-Outside Home/Business (Prior Felony),,,,,,,,,,,,,,,,,,,,,,,,,,,,,,,,
CF1,"HAWKINS, JEREMIAH", 2014 CF1 10071,06/09/2014,Attempted Second Degree Sex Abuse- Incompetent,,,,,,,,,,,,,,,,,,,,,,,,,,,,,,,,,,
CF1,"MERHAUT, CHRISTOPHER D", 2014 CF1 10128,06/09/2014,Assault w/Intent to Commit First Degree Sexual Abuse (Force),,,,,,,,,,,,,,,,,,,,,,,,,,,,,,,,,,
CF1,"SMALLWOOD, WILLIAM D", 2014 CF1 10265,06/11/2014,Felony Murder While Armed,Poss Firearm During Crime of Violence,Attempt to Commit Robbery While Armed,Poss Firearm During Crime of Violence,Unlawful Possession of a Firearm (Crime of Violence),,,,,,,,,,,,,,,,,,,,,,,,,,,,,,
CF1,"THOMAS, ALLEN", 2014 CF1 10373,06/12/2014,Murder II While Armed,,,,,,,,,,,,,,,,,,,,,,,,,,,,,,,,,,
CF1,"JONES, DEMITRICH", 2014 CF1 10388,06/12/2014,Felony Murder While Armed,Poss Firearm During Crime of Violence,SeeAttempt to Commit Robbery While Armed,Poss Firearm During Crime of Violence,Robbery,,,,,,,,,,,,,,,,,,,,,,,,,,,,,,
CF1,"JOHNSON, DONALD E", 2014 CF1 10474,06/14/2014,Assault w/Intent to Commit First Degree Sexual Abuse (Force),,,,,,,,,,,,,,,,,,,,,,,,,,,,,,,,,,
CF1,"NEAL, JEFFREY BERNARD", 2014 CF1 10507,06/14/2014,Murder II,,,,,,,,,,,,,,,,,,,,,,,,,,,,,,,,,,
CF1,"HELMS, ERIC", 2014 CF1 10514,06/14/2014,First Degree Child Sex Abuse,First Degree Sexual Abuse Victim Was Under Age 12 At Time of Offense Victim Was Under Age 18 and Actor Had Significant Relationship with Victim,,,,,,,,,,,,,,,,,,,,,,,,,,,,,,,,,
CF1,"STACKHOUSE, ALBERT", 2014 CF1 10732,06/19/2014,Second Degree Child Sex Abuse,,,,,,,,,,,,,,,,,,,,,,,,,,,,,,,,,,
CF1,"JONES, DONALD T", 2014 CF1 10769,06/19/2014,Assault w/Intent to Commit First Degree Sexual Abuse (Force),Kidnapping,Threat to Kidnap or Injure a Person,Simple Assault,Contempt - Felony,Obstruction Justice (Due Administration),,,,,,,,,,,,,,,,,,,,,,,,,,,,,
CF1,"SHARPERSON, LATEEF RASHAD", 2014 CF1 10770,06/19/2014,Kidnapping,First Degree Sexual Abuse,First Degree Sexual Abuse,Assault w/Intent to Commit First Degree Sexual Abuse (Force),,,,,,,,,,,,,,,,,,,,,,,,,,,,,,,
CF1,"SINCLAIRE, JERMAINE", 2014 CF1 10771,06/19/2014,First Degree Sexual Abuse,,,,,,,,,,,,,,,,,,,,,,,,,,,,,,,,,,
CF1,"JACKSON, LESTER O", 2014 CF1 10775,06/19/2014,1st Degree Cruelty to Children (Grave Risk),,,,,,,,,,,,,,,,,,,,,,,,,,,,,,,,,,
CF1,"ROBINSON, RAYMOND D", 2014 CF1 10789,06/20/2014,First Degree Sexual Abuse,,,,,,,,,,,,,,,,,,,,,,,,,,,,,,,,,,
CF1,"POPE, MAURICE", 2014 CF1 10878,06/21/2014,Murder I While Armed,,,,,,,,,,,,,,,,,,,,,,,,,,,,,,,,,,
CF1,"TOLBERT, MARCEL N", 2014 CF1 10882,06/21/2014,First Degree Sexual Abuse,,,,,,,,,,,,,,,,,,,,,,,,,,,,,,,,,,
CF1,"THREATT, BETTY TAIRS", 2014 CF1 10907,06/21/2014,Cruelty to Children,,,,,,,,,,,,,,,,,,,,,,,,,,,,,,,,,,
CF1,"BROWN, KELLY D", 2014 CF1 10969,06/23/2014,First Degree Sexual Abuse,,,,,,,,,,,,,,,,,,,,,,,,,,,,,,,,,,
CF1,"NGUYEN, TAO V", 2014 CF1 11209,06/26/2014,Second Degree Child Sex Abuse,,,,,,,,,,,,,,,,,,,,,,,,,,,,,,,,,,
CF1,"BOYKINS, KEVIN", 2014 CF1 11223,06/27/2014,Murder I While Armed,Poss Firearm During Crime of Violence,Unlawful Possession of a Firearm (Crime of Violence),,,,,,,,,,,,,,,,,,,,,,,,,,,,,,,,
CF1,"JOHNSON, JAMES N", 2014 CF1 11438,06/30/2014,Murder II While Armed,,,,,,,,,,,,,,,,,,,,,,,,,,,,,,,,,,
CF1,"FREEMAN, WILLIAM K", 2014 CF1 11586,07/02/2014,First Degree Sexual Abuse,,,,,,,,,,,,,,,,,,,,,,,,,,,,,,,,,,
CF1,"SPENCER, JAMES", 2014 CF1 11641,07/02/2014,First Degree Sexual Abuse,Attempted First Degree Sexual Abuse,First Degree Sexual Abuse,Kidnapping,Fourth Degree Sex Abuse- Others,,,,,,,,,,,,,,,,,,,,,,,,,,,,,,
CF1,"MALDONADO, NILSON JARY", 2014 CF1 11666,07/03/2014,Murder II While Armed,,,,,,,,,,,,,,,,,,,,,,,,,,,,,,,,,,
CF1,"GARCIA, MANUEL", 2014 CF1 11675,07/03/2014,Murder II,,,,,,,,,,,,,,,,,,,,,,,,,,,,,,,,,,
CF1,"JOHNSON, KHALFANI TAMIKO", 2014 CF1 11680,07/03/2014,Second Degree Child Sex Abuse,Assault w/Intent to Commit First Degree Sexual Abuse (Force),,,,,,,,,,,,,,,,,,,,,,,,,,,,,,,,,
CF1,"STROMAN Seaman Recruit, THOMAS L", 2014 CF1 11936,07/08/2014,First Degree Child Sex Abuse,First Degree Child Sex Abuse,,,,,,,,,,,,,,,,,,,,,,,,,,,,,,,,,
CF1,"BILAL, MALIK", 2014 CF1 11967,07/09/2014,Murder II While Armed,,,,,,,,,,,,,,,,,,,,,,,,,,,,,,,,,,
CF1,"BLANDING, FRANK LEE", 2014 CF1 12186,07/11/2014,Involuntary Manslaughter,,,,,,,,,,,,,,,,,,,,,,,,,,,,,,,,,,
CF1,"FLEMING, JIMMIE D", 2014 CF1 12340,07/14/2014,Murder II,,Aggravated Assault Knowingly While Armed,,,,,,,,,,,,,,,,,,,,,,,,,,,,,,,,
CF1,"WILKERSON, LAWRENCE", 2014 CF1 12377,07/15/2014,Murder I While Armed,,,,,,,,,,,,,,,,,,,,,,,,,,,,,,,,,,
CF1,"HUGGINS, CHRISTOPHER", 2014 CF1 12394,07/15/2014,Kidnapping,First Degree Sexual Abuse,,,,,,,,,,,,,,,,,,,,,,,,,,,,,,,,,
CF1,"GHILAZGHI, AMLOSOM D", 2014 CF1 12574,07/17/2014,Third Degree Sex Abuse- Force,,,,,,,,,,,,,,,,,,,,,,,,,,,,,,,,,,
CF1,"ROBERTS, ORLANDO", 2014 CF1 12916,07/23/2014,First Degree Child Sex Abuse,First Degree Child Sex Abuse,First Degree Child Sex Abuse,First Degree Child Sex Abuse,First Degree Child Sex Abuse,First Degree Child Sex Abuse,First Degree Child Sex Abuse,Obstruction Justice (Due Administration),,,,,,,,,,,,,,,,,,,,,,,,,,,
CF1,"DARBY, GREGORY", 2014 CF1 12961,07/24/2014,First Degree Child Sex Abuse,,,,,,,,,,,,,,,,,,,,,,,,,,,,,,,,,,
CF1,"MCBRIDE, JULIUS ERVIN", 2014 CF1 13023,07/25/2014,First Degree Sexual Abuse While Armed,,,,,,,,,,,,,,,,,,,,,,,,,,,,,,,,,,
CF1,"HENSON, JAVON RARASHAWN", 2014 CF1 13025,07/25/2014,First Degree Child Sex Abuse,,,,,,,,,,,,,,,,,,,,,,,,,,,,,,,,,,
CF1,"QUARLES, GEORGE G", 2014 CF1 13116,07/26/2014,Assault W/I to Kill While Armed,,,,,,,,,,,,,,,,,,,,,,,,,,,,,,,,,,
CF1,"CHAKARI, RESHAD", 2014 CF1 13135,07/26/2014,Second Degree Sex Abuse- Incompetent,,,,,,,,,,,,,,,,,,,,,,,,,,,,,,,,,,
CF1,"JONES, DARRIUS", 2014 CF1 13137,07/26/2014,Robbery While Armed,Poss Firearm During Crime of Violence,Unlawful Possession of a Firearm (Crime of Violence),Possession of Unregistered Firearm/Unlawful Possession of a Firearm or Destructive Device,Unlawful Poss Ammunition,Theft First Degree,Unauthorized Use of A Vehicle,,,,,,,,,,,,,,,,,,,,,,,,,,,,
CF1,"BULLOCK, ANTHONY", 2014 CF1 13337,07/30/2014,Obstructing Justice,Obstructing Justice,,,,,,,,,,,,,,,,,,,,,,,,,,,,,,,,,
CF1,"HOOKS, KIEVA L", 2014 CF1 13523,08/01/2014,Murder II While Armed,,,,,,,,,,,,,,,,,,,,,,,,,,,,,,,,,,
CF1,"QUEEN, ANDRE J", 2014 CF1 13648,08/04/2014,First Degree Sex Abuse- Force,,,,,,,,,,,,,,,,,,,,,,,,,,,,,,,,,,
CF1,"MORTON, DAVID E", 2014 CF1 13755,08/06/2014,Second Degree Child Sex Abuse,Assault w/Intent to Commit First Degree Sexual Abuse (Force),,,,,,,,,,,,,,,,,,,,,,,,,,,,,,,,,
CF1,"RUFFIN, LEVI M", 2014 CF1 13804,08/07/2014,Kidnapping While Armed,Aslt W/I to Commit 3rd Degree Sex Abuse,,,,,,,,,,,,,,,,,,,,,,,,,,,,,,,,,
CF1,"HAITH, RECKAY", 2014 CF1 13851,08/08/2014,Pandering,Pandering,Pandering,Pandering of a Minor,Sex Trafficking of Children,Sex Trafficking of Children,Sex Trafficking of Children,,,,,,,,,,,,,,,,,,,,,,,,,,,,
CF1,"ROBINSON, CARL S", 2014 CF1 13909,08/09/2014,Second Degree Child Sex Abuse,,,,,,,,,,,,,,,,,,,,,,,,,,,,,,,,,,
CF1,"SOTO, CESAR", 2014 CF1 14130,08/13/2014,First Degree Sexual Abuse,First Degree Child Sex Abuse,,,,,,,,,,,,,,,,,,,,,,,,,,,,,,,,,
CF1,"GAYLE, MICHAEL COSBY", 2014 CF1 14275,08/15/2014,Murder II While Armed,,,,,,,,,,,,,,,,,,,,,,,,,,,,,,,,,,
CF1,"MOORE, MAYA", 2014 CF1 14713,08/22/2014,Assault W/I to Kill While Armed,,,,,,,,,,,,,,,,,,,,,,,,,,,,,,,,,,
CF1,"HOUSER, BRANDON", 2014 CF1 14830,08/23/2014,First Degree Child Sex Abuse,,,,,,,,,,,,,,,,,,,,,,,,,,,,,,,,,,
CF1,"DARBY, GREGORY", 2014 CF1 15162,08/28/2014,Contempt - Felony,Bail Reform Act -Felony,,,,,,,,,,,,,,,,,,,,,,,,,,,,,,,,,
CF1,"EVANS, SAEVE E", 2014 CF1 15196,08/29/2014,Assault W/I to Kill While Armed,,,,,,,,,,,,,,,,,,,,,,,,,,,,,,,,,,
CF1,"TAYLOR, PORSHA C", 2014 CF1 15510,09/02/2014,Assault W/I to Kill While Armed,Assault W/I to Kill,Assault With A Dangerous Weapon,,,,,,,,,,,,,,,,,,,,,,,,,,,,,,,,
CF1,"WASHINGTON, ANGELA M", 2014 CF1 15512,09/02/2014,Third Degree Sex Abuse- Force While Armed,,,,,,,,,,,,,,,,,,,,,,,,,,,,,,,,,,
CF1,"BARNETT, JAZMINE", 2014 CF1 15513,09/02/2014,Third Degree Sex Abuse- Force While Armed,,,,,,,,,,,,,,,,,,,,,,,,,,,,,,,,,,
CF1,"YOUNG, JONATHAN N", 2014 CF1 15556,09/03/2014,Assault W/I to Kill While Armed,Assault W/I to Kill,,,,,,,,,,,,,,,,,,,,,,,,,,,,,,,,,
CF1,"NYAMAA, AMARBAYASGALAN", 2014 CF1 15558,09/03/2014,First Degree Sexual Abuse,,,,,,,,,,,,,,,,,,,,,,,,,,,,,,,,,,
CF1,"YOUNG, JAMES D", 2014 CF1 15616,09/04/2014,Murder I While Armed,,,,,,,,,,,,,,,,,,,,,,,,,,,,,,,,,,
CF1,"HEIGHT, TYRONE", 2014 CF1 15617,09/04/2014,Murder I While Armed,,,,,,,,,,,,,,,,,,,,,,,,,,,,,,,,,,
CF1,"BUTLER-ROSS, JOSE E", 2014 CF1 15631,09/05/2014,Assault W/I to Kill,,,,,,,,,,,,,,,,,,,,,,,,,,,,,,,,,,
CF1,"SPENCER, MICHAEL EUGENE", 2014 CF1 15720,09/06/2014,First Degree Child Sex Abuse,,,,,,,,,,,,,,,,,,,,,,,,,,,,,,,,,,
CF1,"SCALES, DARIOUS ANTONIO", 2014 CF1 16076,09/11/2014,Murder II While Armed,Poss Firearm During Crime of Violence,Assault W/I to Kill While Armed,Poss Firearm During Crime of Violence,Assault W/I to Kill While Armed,Poss Firearm During Crime of Violence,Carry Pistol Outside Home/Business,,,,,,,,,,,,,,,,,,,,,,,,,,,,
CF1,"HARRIS, REGINALD", 2014 CF1 16138,09/12/2014,First Degree Sexual Abuse,,,,,,,,,,,,,,,,,,,,,,,,,,,,,,,,,,
CF1,"SIMMS, YVONNE", 2014 CF1 16266,09/13/2014,Murder II While Armed,,,,,,,,,,,,,,,,,,,,,,,,,,,,,,,,,,
CF1,"PRESSLEY, GARCIA W", 2014 CF1 16480,09/17/2014,First Degree Sexual Abuse,,,,,,,,,,,,,,,,,,,,,,,,,,,,,,,,,,
CF1,"LYLES, FRANCES", 2014 CF1 16503,09/17/2014,1st Degree Cruelty to Children,1st Degree Cruelty to Children,1st Degree Cruelty to Children,"Murder I Murder was Especially Heinous, Atrocious or Cruel","Murder I Murder was Especially Heinous, Atrocious or Cruel",Obstruction Justice (Due Administration),,,,,,,,,,,,,,,,,,,,,,,,,,,,,
CF1,"FARMER, CURTIS O", 2014 CF1 16537,09/18/2014,Murder I While Armed,,,,,,,,,,,,,,,,,,,,,,,,,,,,,,,,,,
CF1,"CARPENTER, TONY", 2014 CF1 16585,09/18/2014,First Degree Sexual Abuse,,,,,,,,,,,,,,,,,,,,,,,,,,,,,,,,,,
CF1,"PASSEE, ALEXANDER M", 2014 CF1 16610,09/19/2014,Murder I While Armed (Premeditated),,,,,,,,,,,,,,,,,,,,,,,,,,,,,,,,,,
CF1,"SWEENEY, LENNARD", 2014 CF1 16690,09/20/2014,Murder I,,,,,,,,,,,,,,,,,,,,,,,,,,,,,,,,,,
CF1,"RUDISILL, KENNETH A", 2014 CF1 16730,09/20/2014,First Degree Child Sex Abuse,,,,,,,,,,,,,,,,,,,,,,,,,,,,,,,,,,
CF1,"BOWSER, MARK K", 2014 CF1 16764,09/22/2014,Murder II,,,,,,,,,,,,,,,,,,,,,,,,,,,,,,,,,,
CF1,"WILLIAMS, DWAYNE HENRY", 2014 CF1 16818,09/23/2014,Murder I,,,,,,,,,,,,,,,,,,,,,,,,,,,,,,,,,,
CF1,"LARKINS, ANTWAN", 2014 CF1 16823,09/23/2014,Assault W/I to Kill While Armed,,,,,,,,,,,,,,,,,,,,,,,,,,,,,,,,,,
CF1,"GARCIA, MARCOS", 2014 CF1 16836,09/23/2014,Assault W/I To Commit Any Other Offense While Armed,Assault W/I to Kill While Armed,,,,,,,,,,,,,,,,,,,,,,,,,,,,,,,,,
CF1,"SHULER, SEAN", 2014 CF1 16857,09/24/2014,Assault W/I to Kill,,,,,,,,,,,,,,,,,,,,,,,,,,,,,,,,,,
CF1,"MACHADO-RODRIGUEZ, HAROLD", 2014 CF1 16897,09/24/2014,Assault W/I to Kill While Armed,Assault W/I To Commit Any Other Offense While Armed,,,,,,,,,,,,,,,,,,,,,,,,,,,,,,,,,
CF1,"GEORGE, MELVIN", 2014 CF1 16907,09/25/2014,Murder II,,,,,,,,,,,,,,,,,,,,,,,,,,,,,,,,,,
CF1,"JONES, RAHEEM ALI", 2014 CF1 16923,09/25/2014,Murder II While Armed,,,,,,,,,,,,,,,,,,,,,,,,,,,,,,,,,,
CF1,"MACHADO-RODRIGUEZ, HAROLD", 2014 CF1 16969,09/26/2014,Assault W/I to Kill While Armed,Assault W/I To Commit Any Other Offense While Armed,,,,,,,,,,,,,,,,,,,,,,,,,,,,,,,,,
CF1,"REYES, CARLOS", 2014 CF1 16971,09/26/2014,Assault W/I To Commit Any Other Offense While Armed,Assault W/I to Kill While Armed,,,,,,,,,,,,,,,,,,,,,,,,,,,,,,,,,
CF1,"BROOKS, MARCUS C", 2014 CF1 17129,09/29/2014,Enticing a Child-Felony,Enticing a Child-Felony,,,,,,,,,,,,,,,,,,,,,,,,,,,,,,,,,
CF1,"BARNES, TITUS", 2014 CF1 17154,09/29/2014,Second Degree Child Sex Abuse,Second Degree Child Sex Abuse,,,,,,,,,,,,,,,,,,,,,,,,,,,,,,,,,
CF1,"HOCKADAY, ANDRE D", 2014 CF1 17310,10/01/2014,Murder I,,,,,,,,,,,,,,,,,,,,,,,,,,,,,,,,,,
CF1,"CANARTIE, MICHAEL E", 2014 CF1 17327,10/01/2014,Assault W/I to Kill While Armed Offenses Committed During Release,Poss Firearm During Crime of Violence Offenses Committed During Release,Robbery While Armed Offenses Committed During Release,Unlawful Possession of a Firearm (Prior Conviction) Offenses Committed During Release,Unlawful Possession of a Firearm (Crime of Violence) Offenses Committed During Release,Possession of Unregistered Firearm/Unlawful Possession of a Firearm or Destructive Device Offenses Committed During Release,Unlawful Poss Ammunition Offenses Committed During Release,,,,,,,,,,,,,,,,,,,,,,,,,,,,
CF1,"GLOVER, WILLIE M", 2014 CF1 17403,10/02/2014,First Degree Sexual Abuse,,,,,,,,,,,,,,,,,,,,,,,,,,,,,,,,,,
CF1,"SETH, MARKELLE A", 2014 CF1 17497,10/03/2014,First Degree Child Sex Abuse,,,,,,,,,,,,,,,,,,,,,,,,,,,,,,,,,,
CF1,"TONG, ZHENKAI", 2014 CF1 17667,10/06/2014,First Degree Sexual Abuse of A Patient/Client,,,,,,,,,,,,,,,,,,,,,,,,,,,,,,,,,,
CF1,"IZLAR, JAMES NMN", 2014 CF1 17770,10/08/2014,Second Degree Child Sex Abuse,,,,,,,,,,,,,,,,,,,,,,,,,,,,,,,,,,
CF1,"JONES, JOHNATHAN", 2014 CF1 17914,10/09/2014,First Degree Sexual Abuse Defendant Has Been Found Guilty of Committing Sex Offenses Against 2 or More Victims,Kidnapping While Armed,Third Degree Sex Abuse- Force While Armed Defendant Has Been Found Guilty of Committing Sex Offenses Against 2 or More Victims,Threat to Kidnap or Injure a Person,,,,,,,,,,,,,,,,,,,,,,,,,,,,,,,
CF1,"WILLIAMS, ERNEST L", 2014 CF1 18018,10/11/2014,Assault w/Intent to Commit First Degree Sexual Abuse (Force),First Degree Sexual Abuse,Kidnapping,,,,,,,,,,,,,,,,,,,,,,,,,,,,,,,,
CF1,"HOLMES, DOMINIQUE", 2014 CF1 18063,10/11/2014,Murder II While Armed,,,,,,,,,,,,,,,,,,,,,,,,,,,,,,,,,,
CF1,"SMITHWICK, GREGORY KELVIN", 2014 CF1 18064,10/11/2014,Murder II While Armed,Armed Carjacking,,,,,,,,,,,,,,,,,,,,,,,,,,,,,,,,,
CF1,"WALLACE, CHRISTOPHER C", 2014 CF1 18165,10/14/2014,First Degree Sexual Abuse,,,,,,,,,,,,,,,,,,,,,,,,,,,,,,,,,,
CF1,"PARRISH, LAMAR", 2014 CF1 18229,10/15/2014,Assault W/I to Kill,,,,,,,,,,,,,,,,,,,,,,,,,,,,,,,,,,
CF1,"HUMPHRIES, REGINALD", 2014 CF1 18248,10/15/2014,First Degree Child Sex Abuse,,,,,,,,,,,,,,,,,,,,,,,,,,,,,,,,,,
CF1,, 2014 CF1 18525,10/20/2014,Assault w/Intent to Commit First Degree Sexual Abuse (Force),Kidnapping,Kidnapping,Threat to Kidnap or Injure a Person,Simple Assault,,,,,,,,,,,,,,,,,,,,,,,,,,,,,,
CF1,"THOMAS, DAJANE D", 2014 CF1 18608,10/22/2014,Murder II,,,,,,,,,,,,,,,,,,,,,,,,,,,,,,,,,,
CF1,"GREENE, SYMONE", 2014 CF1 18626,10/22/2014,First Degree Sexual Abuse of a Minor,,,,,,,,,,,,,,,,,,,,,,,,,,,,,,,,,,
CF1,"SANDOVAL MATA, KEVIN", 2014 CF1 18701,10/23/2014,Second Degree Child Sex Abuse,,,,,,,,,,,,,,,,,,,,,,,,,,,,,,,,,,
CF1,"HAMMOND, CARLTON DEVON", 2014 CF1 18810,10/24/2014,Murder II While Armed,,,,,,,,,,,,,,,,,,,,,,,,,,,,,,,,,,
CF1,"WINGFIELD, DENISHA KATHLEEN", 2014 CF1 18839,10/25/2014,Assault With A Dangerous Weapon,,,,,,,,,,,,,,,,,,,,,,,,,,,,,,,,,,
CF1,"BARTON, ANTHONY EUGENE", 2014 CF1 18843,10/25/2014,Assault W/I to Kill While Armed,,,,,,,,,,,,,,,,,,,,,,,,,,,,,,,,,,
CF1,"MCCANTS, DANIEL", 2014 CF1 18886,10/25/2014,Robbery,Theft Second Degree,,,,,,,,,,,,,,,,,,,,,,,,,,,,,,,,,
CF1,"MOODY, TYRELL", 2014 CF1 18887,10/25/2014,1st Degree Cruelty to Children,,,,,,,,,,,,,,,,,,,,,,,,,,,,,,,,,,
CF1,"JONES, ANTHONY", 2014 CF1 18892,10/25/2014,First Degree Sexual Abuse,,,,,,,,,,,,,,,,,,,,,,,,,,,,,,,,,,
CF1,"HORTON, EMMANUEL CHARLES", 2014 CF1 19057,10/29/2014,Assault w/Intent to Commit First Degree Sexual Abuse (Force),Burglary Two,,,,,,,,,,,,,,,,,,,,,,,,,,,,,,,,,
CF1,"HOLMES, DOMINIQUE", 2014 CF1 19231,11/01/2014,Assault W/I to Kill While Armed,,,,,,,,,,,,,,,,,,,,,,,,,,,,,,,,,,
CF1,"SWEENY, TYRRON NMN", 2014 CF1 19583,11/08/2014,Murder I While Armed,Murder I While Armed,,,,,,,,,,,,,,,,,,,,,,,,,,,,,,,,,
CF1,"BLANCO, EDGAR", 2014 CF1 19831,11/12/2014,Murder II While Armed,,,,,,,,,,,,,,,,,,,,,,,,,,,,,,,,,,
CF1,"CAMPBELL, LAMONT T", 2014 CF1 19862,11/13/2014,Assault W/I to Kill While Armed,,,,,,,,,,,,,,,,,,,,,,,,,,,,,,,,,,
CF1,"MCGAINEY, AHMAL", 2014 CF1 19915,11/13/2014,Murder II While Armed,,,,,,,,,,,,,,,,,,,,,,,,,,,,,,,,,,
CF1,"BROWN, TYRESE", 2014 CF1 19993,11/14/2014,Felony Murder,,,,,,,,,,,,,,,,,,,,,,,,,,,,,,,,,,
CF1,"BRINGIER, TERRELL", 2014 CF1 20100,11/17/2014,Assault W/I to Kill While Armed,,,,,,,,,,,,,,,,,,,,,,,,,,,,,,,,,,
CF1,"YORKSHIRE, JAROD", 2014 CF1 20185,11/18/2014,Murder I,Obstruction Justice (Due Administration),,,,,,,,,,,,,,,,,,,,,,,,,,,,,,,,,
CF1,"DAVIS, DAVON", 2014 CF1 20186,11/18/2014,Murder II While Armed,,,,,,,,,,,,,,,,,,,,,,,,,,,,,,,,,,
CF1,"KLINE, JARED NATHAN", 2014 CF1 20221,11/19/2014,Second Degree Sexual Abuse of a Patient or Client Defendant Has Been Found Guilty of Committing Sex Offenses Against 2 or More Victims,Second Degree Sexual Abuse of a Patient or Client Defendant Has Been Found Guilty of Committing Sex Offenses Against 2 or More Victims,Second Degree Sexual Abuse of a Patient or Client Defendant Has Been Found Guilty of Committing Sex Offenses Against 2 or More Victims,,,,,,,,,,,,,,,,,,,,,,,,,,,,,,,,
CF1,"ELLIS, DAVON ANTHONY", 2014 CF1 20372,11/21/2014,Murder II While Armed,,,,,,,,,,,,,,,,,,,,,,,,,,,,,,,,,,
CF1,"YOUNG, CHARLES ALLEN", 2014 CF1 20413,11/22/2014,First Degree Child Sex Abuse,Second Degree Child Sex Abuse,,,,,,,,,,,,,,,,,,,,,,,,,,,,,,,,,
CF1,"HENDRICK, VERNON P", 2014 CF1 20427,11/22/2014,Murder I While Armed,,,,,,,,,,,,,,,,,,,,,,,,,,,,,,,,,,
CF1,"MANCIA, ROBERTO", 2014 CF1 20626,11/25/2014,First Degree Sexual Abuse,,,,,,,,,,,,,,,,,,,,,,,,,,,,,,,,,,
CF1,"SPARROW, ALI", 2014 CF1 20663,11/26/2014,Assault W/I to Kill While Armed,,,,,,,,,,,,,,,,,,,,,,,,,,,,,,,,,,
CF1,"NORDE, CARLA A", 2014 CF1 20664,11/26/2014,First Degree Sexual Abuse of a Minor,,,,,,,,,,,,,,,,,,,,,,,,,,,,,,,,,,
CF1,"WILLIAMS, PAUL X", 2014 CF1 20762,11/28/2014,First Degree Sex Abuse- Force While Armed,,,,,,,,,,,,,,,,,,,,,,,,,,,,,,,,,,
CF1,"DOWNING, JESUS MUMBLE", 2014 CF1 20904,12/02/2014,First Degree Child Sex Abuse,,,,,,,,,,,,,,,,,,,,,,,,,,,,,,,,,,
CF1,"JONES, HERITAGE", 2014 CF1 21001,12/04/2014,Murder II,,,,,,,,,,,,,,,,,,,,,,,,,,,,,,,,,,
CF1,"CARTER, JOSHUA R", 2014 CF1 21068,12/05/2014,Assault w/Intent to Commit First Degree Sexual Abuse (Force),,,,,,,,,,,,,,,,,,,,,,,,,,,,,,,,,,
CF1,"JOHNSON, GARY NELSON", 2014 CF1 21080,12/05/2014,Distribution Of a Controlled Substance,Felony Murder,,,,,,,,,,,,,,,,,,,,,,,,,,,,,,,,,
CF1,"JUAREZ, MARVIN E", 2014 CF1 21084,12/05/2014,First Degree Child Sex Abuse,,,,,,,,,,,,,,,,,,,,,,,,,,,,,,,,,,
CF1,"DAWSON, ROGER", 2014 CF1 21279,12/10/2014,Second Degree Child Sex Abuse,Attempted Second Degree Sex Abuse-Threats,,,,,,,,,,,,,,,,,,,,,,,,,,,,,,,,,
CF1,"EASON, DEVANTE", 2014 CF1 21280,12/10/2014,Assault W/I to Kill While Armed,,,,,,,,,,,,,,,,,,,,,,,,,,,,,,,,,,
CF1,"KING, ALISHA", 2014 CF1 21292,12/10/2014,Murder II While Armed,,,,,,,,,,,,,,,,,,,,,,,,,,,,,,,,,,
CF1,"DYSON, JOHN F", 2014 CF1 21293,12/10/2014,Murder II,,,,,,,,,,,,,,,,,,,,,,,,,,,,,,,,,,
CF1,"WILLIAMS, JAMAR L", 2014 CF1 21422,12/12/2014,First Degree Sexual Abuse,,,,,,,,,,,,,,,,,,,,,,,,,,,,,,,,,,
CF1,"SMITH, MARQUIE NMN", 2014 CF1 21544,12/16/2014,Assault w/Intent to Commit First Degree Sexual Abuse (Force),Burglary One,Kidnapping,,,,,,,,,,,,,,,,,,,,,,,,,,,,,,,,
CF1,"JACKSON, WILLIAM", 2014 CF1 21713,12/19/2014,Murder II While Armed,,,,,,,,,,,,,,,,,,,,,,,,,,,,,,,,,,
CF1,"STREET, LAMONT", 2014 CF1 21762,12/20/2014,Assault W/I to Kill While Armed,,,,,,,,,,,,,,,,,,,,,,,,,,,,,,,,,,
CF1,"REID, LEWIS", 2014 CF1 21777,12/20/2014,Assault W/I to Kill While Armed,,,,,,,,,,,,,,,,,,,,,,,,,,,,,,,,,,
CF1,"KINGSBURY, ANTONIO D", 2014 CF1 21910,12/23/2014,Assault W/I to Kill While Armed,,,,,,,,,,,,,,,,,,,,,,,,,,,,,,,,,,
CF1,"COLLIER, SHERIDAN", 2014 CF1 21950,12/24/2014,First Degree Sexual Abuse,,,,,,,,,,,,,,,,,,,,,,,,,,,,,,,,,,
CF1,"COLE, DEON E", 2014 CF1 22125,12/30/2014,Murder II While Armed,,,,,,,,,,,,,,,,,,,,,,,,,,,,,,,,,,
