type,person,number,date,charge_1,charge_2,charge_3,charge_4,charge_5,charge_6,charge_7,charge_8,charge_9,charge_10,charge_11,charge_12,charge_13,charge_14,charge_15,charge_16,charge_17,charge_18,charge_19,charge_20,charge_21,charge_22,charge_23,charge_24,charge_25,charge_26,charge_27,charge_28,charge_29,charge_30,charge_31,charge_32,charge_33,charge_34,charge_35
CF2,"HOLMAN, KEVIN", 2014 CF2 4,01/01/2014,Poss W/I to Dist a Controlled Substance,Poss of a Controlled Substance -Misd,,,,,,,,,,,,,,,,,,,,,,,,,,,,,,,,,
CF2,"GARLIC, DOMINIQUE", 2014 CF2 10,01/01/2014,Carry Pistol Outside Home/Business,,,,,,,,,,,,,,,,,,,,,,,,,,,,,,,,,,
CF2,"JOHNSON, TERRANCE B", 2014 CF2 42,01/01/2014,Poss W/I to Dist a Controlled Substance,Possession of Open Container of Alcohol - Vehicle,,,,,,,,,,,,,,,,,,,,,,,,,,,,,,,,,
CF2,"LEE-THOMAS, GARY J", 2014 CF2 44,01/01/2014,Carry Pistol Outside Home/Business,Unlawful Possession of a Firearm (Prior Conviction),Possession of Unregistered Firearm/Unlawful Possession of a Firearm or Destructive Device,Unlawful Poss Ammunition,,,,,,,,,,,,,,,,,,,,,,,,,,,,,,,
CF2,"SIMMONS, JIMMY E", 2014 CF2 45,01/01/2014,Carry Pistol Outside Home/Business,Unlawful Discharge of a Firearm,Possession of Unregistered Firearm/Unlawful Possession of a Firearm or Destructive Device,Unlawful Poss Ammunition,Poss of a Controlled Substance -Misd,,,,,,,,,,,,,,,,,,,,,,,,,,,,,,
CF2,"MASON, STEVEN", 2014 CF2 46,01/01/2014,Carry Pistol Outside Home/Business,Possession of Unregistered Firearm/Unlawful Possession of a Firearm or Destructive Device,,,,,,,,,,,,,,,,,,,,,,,,,,,,,,,,,
CF2,"JOHNSON, KAYLA", 2014 CF2 48,01/01/2014,Theft First Degree,Unauthorized Use of A Vehicle,No Permit,Poss of Open Container of Alcohol/Public Intoxication,,,,,,,,,,,,,,,,,,,,,,,,,,,,,,,
CF2,"PARKER, KIM M", 2014 CF2 53,01/01/2014,Unlawful Possession of a Firearm (Prior Conviction),Carry Pistol Outside Home/Business,Possession of Unregistered Firearm/Unlawful Possession of a Firearm or Destructive Device,Possession of Open Container of Alcohol - Vehicle,,,,,,,,,,,,,,,,,,,,,,,,,,,,,,,
CF2,"RANDO, RICO D", 2014 CF2 56,01/01/2014,Poss W/I to Dist a Controlled Substance,Unlawful Possession of Liquid PCP,Possession of Drug Paraphernalia,Tampering With Physical Evidence,Possession of Open Container of Alcohol - Vehicle,Poss W/I to Dist a Controlled Substance,Unlawful Possession of Liquid PCP,Unlawful Poss Ammunition,Unlawful Poss Ammunition,,,,,,,,,,,,,,,,,,,,,,,,,,
CF2,"KAVANAUGH, DESEAN A", 2014 CF2 58,01/01/2014,Carry Pistol Outside Home/Business,Unlawful Possession of a Firearm (Prior Conviction),Possession of Unregistered Firearm/Unlawful Possession of a Firearm or Destructive Device,Unlawful Poss Ammunition,,,,,,,,,,,,,,,,,,,,,,,,,,,,,,,
CF2,"BROWN, BENJAMIN", 2014 CF2 77,01/02/2014,Carry Pistol Outside Home/Business,Possession of Unregistered Firearm/Unlawful Possession of a Firearm or Destructive Device,Unlawful Poss Ammunition,Poss of a Controlled Substance -Misd,,,,,,,,,,,,,,,,,,,,,,,,,,,,,,,
CF2,"ANAYA, CARLOS", 2014 CF2 79,01/02/2014,Assault On A Police Officer,Assault On A Police Officer,Attempted Threats to Do Bodily Harm -Misd,,,,,,,,,,,,,,,,,,,,,,,,,,,,,,,,
CF2,"THOMPSON, RECO A", 2014 CF2 83,01/02/2014,Flee Law Enforcement Officer,Reckless Driving,Destruction of Property $1000 or More,LV After Collid Injury,Unlawful Entry,Poss of a Controlled Substance -Misd,,,,,,,,,,,,,,,,,,,,,,,,,,,,,
CF2,"PRIDGEN, CIAN", 2014 CF2 98,01/02/2014,Poss W/I to Dist a Controlled Substance While Armed,Poss Firearm During Crime of Violence,Carry Pistol Outside Home/Business,Unlawful Possession of a Firearm (Crime of Violence),Possession of Unregistered Firearm/Unlawful Possession of a Firearm or Destructive Device,Unlawful Poss Ammunition,,,,,,,,,,,,,,,,,,,,,,,,,,,,,
CF2,"ROBINSON, KEITH", 2014 CF2 102,01/02/2014,Carry Pistol Outside Home/Business,,,,,,,,,,,,,,,,,,,,,,,,,,,,,,,,,,
CF2,"BRAGG, LAWRENCE", 2014 CF2 110,01/02/2014,Carry Pistol Outside Home/Business,Possession of Unregistered Firearm,Unlawful Poss Ammunition,,,,,,,,,,,,,,,,,,,,,,,,,,,,,,,,
CF2,"FLOYD, DEMETRIUS", 2014 CF2 111,01/02/2014,Carry Pistol Outside Home/Business,,,,,,,,,,,,,,,,,,,,,,,,,,,,,,,,,,
CF2,"PAYNE, DAVON J", 2014 CF2 182,01/03/2014,Flee Law Enforcement Officer,LV After Collid Damage,Second Degree Cruelty to Children,Destruction of Property less than $1000,Destruction of Property less than $1000,Reckless Driving,No Permit,,,,,,,,,,,,,,,,,,,,,,,,,,,,
CF2,"HICKS, DAYVON", 2014 CF2 222,01/03/2014,Carry Pistol Outside Home/Business,Possession of Unregistered Firearm/Unlawful Possession of a Firearm or Destructive Device,Possession of Unregistered Firearm/Unlawful Possession of a Firearm or Destructive Device,,,,,,,,,,,,,,,,,,,,,,,,,,,,,,,,
CF2,"WILLIAMS, JALIL", 2014 CF2 233,01/03/2014,Receiving Stolen Property $1000 or More,Unauthorized Use of A Vehicle,Flee Law Enforcement Officer,Destruction of Property $1000 or More,Destruction of Property $1000 or More,Destruction of Property less than $1000,Reckless Driving,LV After Collid Damage,No Permit,,,,,,,,,,,,,,,,,,,,,,,,,,
CF2,"LOWERY, GARY", 2014 CF2 236,01/03/2014,Prison Breach,,,,,,,,,,,,,,,,,,,,,,,,,,,,,,,,,,
CF2,"GAYTON, RONREGUS", 2014 CF2 238,01/03/2014,Contempt - Felony,,,,,,,,,,,,,,,,,,,,,,,,,,,,,,,,,,
CF2,"KNIGHT, AVERY", 2014 CF2 239,01/03/2014,Poss W/I to Dist a Controlled Substance,Poss of a Controlled Substance -Misd,,,,,,,,,,,,,,,,,,,,,,,,,,,,,,,,,
CF2,"ECCLES, JEROME", 2014 CF2 256,01/04/2014,Carry Pistol Outside Home/Business,Possession of Unregistered Firearm/Unlawful Possession of a Firearm or Destructive Device,Unlawful Poss Ammunition,Poss Prohibited Weapon,Carry Dangerous Weapon- Felony,Poss of a Controlled Substance -Misd,Possession of Drug Paraphernalia,,,,,,,,,,,,,,,,,,,,,,,,,,,,
CF2,"ROGERS, BERNARD", 2014 CF2 259,01/04/2014,Carry Pistol Outside Home/Business,Possession of Unregistered Firearm/Unlawful Possession of a Firearm or Destructive Device,Unlawful Poss Ammunition,,,,,,,,,,,,,,,,,,,,,,,,,,,,,,,,
CF2,"LEONARD, ARTEMUIS", 2014 CF2 266,01/04/2014,Unlawful Possession of Liquid PCP,,,,,,,,,,,,,,,,,,,,,,,,,,,,,,,,,,
CF2,"PARIS, ERIC L", 2014 CF2 284,01/04/2014,Unlawful Entry,Possession of Drug Paraphernalia,,,,,,,,,,,,,,,,,,,,,,,,,,,,,,,,,
CF2,"ELLISON, GEORGE C", 2014 CF2 293,01/04/2014,Poss W/I to Dist a Controlled Substance,,,,,,,,,,,,,,,,,,,,,,,,,,,,,,,,,,
CF2,"ROSS, GERALD E", 2014 CF2 303,01/06/2014,Assault With A Dangerous Weapon,,,,,,,,,,,,,,,,,,,,,,,,,,,,,,,,,,
CF2,"SCOTT, DEMONT", 2014 CF2 317,01/06/2014,Prison Breach,,,,,,,,,,,,,,,,,,,,,,,,,,,,,,,,,,
CF2,"MACK, TONYA C", 2014 CF2 356,01/06/2014,Prison Breach,,,,,,,,,,,,,,,,,,,,,,,,,,,,,,,,,,
CF2,"JOHNSON, DEANDRE", 2014 CF2 417,01/07/2014,Poss W/I to Dist a Controlled Substance,Unlawful Entry,,,,,,,,,,,,,,,,,,,,,,,,,,,,,,,,,
CF2,"JONES, MARK N", 2014 CF2 433,01/07/2014,Prison Breach,,,,,,,,,,,,,,,,,,,,,,,,,,,,,,,,,,
CF2,"HODGE, VAUGHN E", 2014 CF2 461,01/08/2014,Carry Pistol Outside Home/Business,Unlawful Poss Ammunition,,,,,,,,,,,,,,,,,,,,,,,,,,,,,,,,,
CF2,"FORD, DONALD A", 2014 CF2 464,01/08/2014,Prison Breach,,,,,,,,,,,,,,,,,,,,,,,,,,,,,,,,,,
CF2,"REYES, WILDER", 2014 CF2 468,01/08/2014,Unlawful Possession of Liquid PCP,Poss W/I to Dist a Controlled Substance,,,,,,,,,,,,,,,,,,,,,,,,,,,,,,,,,
CF2,"STEWART, TIERA", 2014 CF2 470,01/08/2014,Assault W/I to Commit Robbery,,,,,,,,,,,,,,,,,,,,,,,,,,,,,,,,,,
CF2,"ELLISON, GEORGE C", 2014 CF2 483,01/08/2014,Poss W/I to Dist a Controlled Substance While Armed,Failure To Register Firearm,,,,,,,,,,,,,,,,,,,,,,,,,,,,,,,,,
CF2,"WALLACE, KEYONTAYE", 2014 CF2 498,01/09/2014,Receiving Stolen Property $1000 or More,Unauthorized Use of A Vehicle,,,,,,,,,,,,,,,,,,,,,,,,,,,,,,,,,
CF2,"BELLAMY, TYSEAN T", 2014 CF2 504,01/09/2014,Unlawful Possession of a Firearm (Prior Conviction),Unlawful Possession of a Firearm (Intrafamily Offense),Carry Pistol Outside Home/Business,Possession of Unregistered Firearm/Unlawful Possession of a Firearm or Destructive Device,Unlawful Poss Ammunition,,,,,,,,,,,,,,,,,,,,,,,,,,,,,,
CF2,"TODD, EBONY", 2014 CF2 511,01/09/2014,Flee Law Enforcement Officer,Reckless Driving,Destruction of Property $1000 or More,LV After Collid Damage,Receiving Stolen Property-Misd,No Permit,,,,,,,,,,,,,,,,,,,,,,,,,,,,,
CF2,"STEVENSON, DONTAY", 2014 CF2 512,01/09/2014,Flee Law Enforcement Officer,,,,,,,,,,,,,,,,,,,,,,,,,,,,,,,,,,
CF2,"WILLIAMS, JEFFERY W", 2014 CF2 516,01/09/2014,Assault on a Police Officer,,,,,,,,,,,,,,,,,,,,,,,,,,,,,,,,,,
CF2,"KNIGHT, KENNETH", 2014 CF2 539,01/09/2014,Unlawful Possession of a Firearm (Prior Conviction),Carry Pistol Outside Home/Business,Possession of Unregistered Firearm/Unlawful Possession of a Firearm or Destructive Device,Unlawful Poss Ammunition,,,,,,,,,,,,,,,,,,,,,,,,,,,,,,,
CF2,"HARRIS, TORIA RENEE", 2014 CF2 542,01/09/2014,Maintaining a Place for Storage and Distribution of Narcotic and Abusive Drugs,,,,,,,,,,,,,,,,,,,,,,,,,,,,,,,,,,
CF2,"HALL, JUWAN T", 2014 CF2 546,01/09/2014,Unauthorized Use of A Vehicle,,,,,,,,,,,,,,,,,,,,,,,,,,,,,,,,,,
CF2,"HASKINS, TYREK", 2014 CF2 547,01/09/2014,Unauthorized Use of A Vehicle,Possession of Unregistered Firearm/Unlawful Possession of a Firearm or Destructive Device,Unlawful Poss Ammunition,,,,,,,,,,,,,,,,,,,,,,,,,,,,,,,,
CF2,"RIDDICK, MAQUAN D", 2014 CF2 548,01/09/2014,Distribution Of a Controlled Substance,,,,,,,,,,,,,,,,,,,,,,,,,,,,,,,,,,
CF2,"TOLSON, DAVID V", 2014 CF2 566,01/10/2014,Burglary Two,,,,,,,,,,,,,,,,,,,,,,,,,,,,,,,,,,
CF2,"LEE, SEAN D", 2014 CF2 579,01/10/2014,Poss W/I to Dist a Controlled Substance,Tampering With Physical Evidence,,,,,,,,,,,,,,,,,,,,,,,,,,,,,,,,,
CF2,"HODGE, VAUGHN E", 2014 CF2 582,01/10/2014,Contempt - Condition of Release Violation,,,,,,,,,,,,,,,,,,,,,,,,,,,,,,,,,,
CF2,"MARTIN, ADRIAN", 2014 CF2 583,01/10/2014,Prison Breach,,,,,,,,,,,,,,,,,,,,,,,,,,,,,,,,,,
CF2,"CUTHBERTSON, ERIC", 2014 CF2 599,01/10/2014,Assault With A Dangerous Weapon,,,,,,,,,,,,,,,,,,,,,,,,,,,,,,,,,,
CF2,"BUTLER, VICTOR S", 2014 CF2 607,01/10/2014,Assault With A Dangerous Weapon,,,,,,,,,,,,,,,,,,,,,,,,,,,,,,,,,,
CF2,"BAKER, MAURICE", 2014 CF2 611,01/10/2014,Assault With A Dangerous Weapon,,,,,,,,,,,,,,,,,,,,,,,,,,,,,,,,,,
CF2,"GOSWEILER, CHRISTIANA MARIE", 2014 CF2 620,01/10/2014,Prisoner Escape,,,,,,,,,,,,,,,,,,,,,,,,,,,,,,,,,,
CF2,"FUENTES, LUIS A", 2014 CF2 623,01/10/2014,Poss W/I to Dist a Controlled Substance,,,,,,,,,,,,,,,,,,,,,,,,,,,,,,,,,,
CF2,"MONROE, AARON", 2014 CF2 632,01/10/2014,Unlawful Possession of a Firearm (Prior Conviction),Carry Pistol W/O Lic -Outside Home/Business,Possession of Unregistered Firearm/Unlawful Possession of a Firearm or Destructive Device,,,,,,,,,,,,,,,,,,,,,,,,,,,,,,,,
CF2,"PERKINS, EBONY T", 2014 CF2 636,01/10/2014,Prisoner Escape,,,,,,,,,,,,,,,,,,,,,,,,,,,,,,,,,,
CF2,"JOYNER, CARLTON", 2014 CF2 652,01/11/2014,Poss W/I to Dist a Controlled Substance,,,,,,,,,,,,,,,,,,,,,,,,,,,,,,,,,,
CF2,"MOORE, DARRELL", 2014 CF2 670,01/11/2014,Theft First Degree,Unauthorized Use of A Vehicle,Receiving Stolen Property-Misd,Fleeing - Misdemeanor,No Permit,,,,,,,,,,,,,,,,,,,,,,,,,,,,,,
CF2,"MOBLEY, CHARLES", 2014 CF2 677,01/11/2014,Robbery,,,,,,,,,,,,,,,,,,,,,,,,,,,,,,,,,,
CF2,"DOBLERRY, RODNEY G", 2014 CF2 681,01/11/2014,Poss W/I to Dist a Controlled Substance,Reckless Driving,,,,,,,,,,,,,,,,,,,,,,,,,,,,,,,,,
CF2,"NDAOU, MOHAMED A", 2014 CF2 699,01/11/2014,Unauthorized Use of A Vehicle,Receiving Stolen Property $1000 or More,No Permit,,,,,,,,,,,,,,,,,,,,,,,,,,,,,,,,
CF2,"ANDERSON, DEJUAN", 2014 CF2 703,01/11/2014,Poss W/I to Dist a Controlled Substance Offenses Committed During Release,Poss W/I to Dist a Controlled Substance,Unlawful Possession of a Firearm (Prior Conviction),Poss Firearm During Crime of Violence Offenses Committed During Release,Possession of Unregistered Firearm/Unlawful Possession of a Firearm or Destructive Device,Possession of Ammunition,Possession of Drug Paraphernalia,,,,,,,,,,,,,,,,,,,,,,,,,,,,
CF2,"FAISON, LETITIA", 2014 CF2 704,01/11/2014,Poss of a Controlled Substance -Misd,Possession of Drug Paraphernalia,,,,,,,,,,,,,,,,,,,,,,,,,,,,,,,,,
CF2,"JACKSON, TRE", 2014 CF2 719,01/13/2014,Threat to Kidnap or Injure a Person Offenses Committed During Release,Threat to Kidnap or Injure a Person Offenses Committed During Release,,,,,,,,,,,,,,,,,,,,,,,,,,,,,,,,,
CF2,"HARRIS, JOHN P", 2014 CF2 749,01/13/2014,Carry Pistol Outside Home/Business,Possession of Unregistered Firearm/Unlawful Possession of a Firearm or Destructive Device,Unlawful Poss Ammunition,,,,,,,,,,,,,,,,,,,,,,,,,,,,,,,,
CF2,"MCNAIR, TIMOTHY W", 2014 CF2 751,01/13/2014,Prison Breach,,,,,,,,,,,,,,,,,,,,,,,,,,,,,,,,,,
CF2,"WALKER, CURTIS", 2014 CF2 756,01/13/2014,Poss W/I to Dist a Controlled Substance,,,,,,,,,,,,,,,,,,,,,,,,,,,,,,,,,,
CF2,"LOMAX, VINCENZO", 2014 CF2 758,01/13/2014,Threat to Kidnap or Injure a Person Offenses Committed During Release,Contempt - Felony,,,,,,,,,,,,,,,,,,,,,,,,,,,,,,,,,
CF2,"SEARLES, KENNETH", 2014 CF2 759,01/13/2014,Burglary One,,,,,,,,,,,,,,,,,,,,,,,,,,,,,,,,,,
CF2,"EZELL, GERALD R", 2014 CF2 763,01/13/2014,Poss W/I to Dist a Controlled Substance While Armed,Poss Firearm During Crime of Violence,Unlawful Possession of a Firearm (Prior Conviction),Carry Pistol W/O Lic -Outside Home/Business,Possession of Unregistered Firearm/Unlawful Possession of a Firearm or Destructive Device,Unlawful Poss Ammunition,Flee Law Enforcement Officer,Reckless Driving,Possession of Drug Paraphernalia,,,,,,,,,,,,,,,,,,,,,,,,,,
CF2,"MONTS, DONNELL", 2014 CF2 765,01/13/2014,Unlawful Possession of Liquid PCP,Possession of Drug Paraphernalia,,,,,,,,,,,,,,,,,,,,,,,,,,,,,,,,,
CF2,"SMITH, JAVON", 2014 CF2 767,01/13/2014,Unauthorized Use of A Vehicle,,,,,,,,,,,,,,,,,,,,,,,,,,,,,,,,,,
CF2,"BENJAMIN, CARLOS", 2014 CF2 768,01/13/2014,Unauthorized Use of A Vehicle,,,,,,,,,,,,,,,,,,,,,,,,,,,,,,,,,,
CF2,"ENNELS, DONNELL F", 2014 CF2 769,01/13/2014,Poss W/I to Dist a Controlled Substance,Poss W/I to Dist a Controlled Substance,,,,,,,,,,,,,,,,,,,,,,,,,,,,,,,,,
CF2,"JACKSON, TRE", 2014 CF2 770,01/13/2014,Poss W/I to Dist a Controlled Substance Offenses Committed During Release,Poss of a Controlled Substance -Misd,,,,,,,,,,,,,,,,,,,,,,,,,,,,,,,,,
CF2,"TYNDLE, ATORRIN", 2014 CF2 776,01/14/2014,Carry Pistol Outside Home/Business,Possession of Unregistered Firearm/Unlawful Possession of a Firearm or Destructive Device,Unlawful Poss Ammunition,,,,,,,,,,,,,,,,,,,,,,,,,,,,,,,,
CF2,"CAMPBELL, VELANTE", 2014 CF2 806,01/14/2014,Carry Pistol Outside Home/Business,Unlawful Possession of a Firearm (Prior Conviction),Possession of Unregistered Firearm/Unlawful Possession of a Firearm or Destructive Device,Unlawful Poss Ammunition,Poss of a Controlled Substance -Misd,,,,,,,,,,,,,,,,,,,,,,,,,,,,,,
CF2,"ARRINGTON, STEPHEN D", 2014 CF2 808,01/14/2014,Carry Pistol Outside Home/Business,Possession of Unregistered Firearm/Unlawful Possession of a Firearm or Destructive Device,Unlawful Poss Ammunition,Assault On A Police Officer,,,,,,,,,,,,,,,,,,,,,,,,,,,,,,,
CF2,"MALDONADO, ALFREDO R", 2014 CF2 811,01/14/2014,Poss W/I to Dist a Controlled Substance,,,,,,,,,,,,,,,,,,,,,,,,,,,,,,,,,,
CF2,"HARRIS, CHRISTINE E", 2014 CF2 813,01/14/2014,Assault With A Dangerous Weapon,Poss Prohibited Weapon -Other,,,,,,,,,,,,,,,,,,,,,,,,,,,,,,,,,
CF2,"BROWN, TERRANCE", 2014 CF2 836,01/14/2014,Burglary Two,,,,,,,,,,,,,,,,,,,,,,,,,,,,,,,,,,
CF2,"JACKSON, DERRICK A", 2014 CF2 874,01/15/2014,Poss W/I to Dist a Controlled Substance,,,,,,,,,,,,,,,,,,,,,,,,,,,,,,,,,,
CF2,"WALLICE, BRANDI C", 2014 CF2 888,01/15/2014,Bail Reform Act -Misd,,,,,,,,,,,,,,,,,,,,,,,,,,,,,,,,,,
CF2,"BARCLIFT, REYSHAD", 2014 CF2 896,01/15/2014,Poss W/I to Dist a Controlled Substance,,,,,,,,,,,,,,,,,,,,,,,,,,,,,,,,,,
CF2,"DORSEY, JOSEPH", 2014 CF2 903,01/15/2014,Receiving Stolen Property $1000 or More,Unauthorized Use of A Vehicle,Flee Law Enforcement Officer,Reckless Driving,Destruction of Property $1000 or More,Destruction of Property less than $1000,LV After Collid Damage,No Permit,,,,,,,,,,,,,,,,,,,,,,,,,,,
CF2,"PAGE, DUANE M", 2014 CF2 911,01/15/2014,Threat to Kidnap or Injure a Person,,,,,,,,,,,,,,,,,,,,,,,,,,,,,,,,,,
CF2,"WASHINGTON, CURTIS D", 2014 CF2 931,01/16/2014,Burglary Two,,,,,,,,,,,,,,,,,,,,,,,,,,,,,,,,,,
CF2,"COCKRELL, ANTONIO T", 2014 CF2 932,01/16/2014,Burglary Two,,,,,,,,,,,,,,,,,,,,,,,,,,,,,,,,,,
CF2,"BENSON, RAYMOND D", 2014 CF2 943,01/16/2014,Carry Pistol Outside Home/Business,Possession of Unregistered Firearm/Unlawful Possession of a Firearm or Destructive Device,Unlawful Poss Ammunition,,,,,,,,,,,,,,,,,,,,,,,,,,,,,,,,
CF2,"GARY, TAMARA P", 2014 CF2 957,01/16/2014,Theft First Degree,,,,,,,,,,,,,,,,,,,,,,,,,,,,,,,,,,
CF2,"WICKHAM, MAXIMILIAN A", 2014 CF2 962,01/16/2014,Prison Breach,,,,,,,,,,,,,,,,,,,,,,,,,,,,,,,,,,
CF2,"PARSON, MICHAEL", 2014 CF2 963,01/16/2014,Prison Breach,,,,,,,,,,,,,,,,,,,,,,,,,,,,,,,,,,
CF2,"VINCENT, KENNETH L", 2014 CF2 993,01/16/2014,Distribution Of a Controlled Substance,,,,,,,,,,,,,,,,,,,,,,,,,,,,,,,,,,
CF2,"ROSS, CHIRVETTE C", 2014 CF2 1006,01/16/2014,Assault with Significant Bodily Injury,,,,,,,,,,,,,,,,,,,,,,,,,,,,,,,,,,
CF2,"BELT, DANIEL ALFRED", 2014 CF2 1040,01/17/2014,Threat to Kidnap or Injure a Person,,,,,,,,,,,,,,,,,,,,,,,,,,,,,,,,,,
CF2,"WILLIAMS, CHRISTOPHER", 2014 CF2 1058,01/17/2014,Bail Reform Act -Felony,,,,,,,,,,,,,,,,,,,,,,,,,,,,,,,,,,
CF2,"WHITFIELD, TAMIKA", 2014 CF2 1059,01/17/2014,Assault With A Dangerous Weapon,,,,,,,,,,,,,,,,,,,,,,,,,,,,,,,,,,
CF2,"HAGINS, MARQUEL", 2014 CF2 1060,01/17/2014,Assault W/I to Commit Robbery,,,,,,,,,,,,,,,,,,,,,,,,,,,,,,,,,,
CF2,"HOLLIWAY, DALONTA", 2014 CF2 1073,01/17/2014,Poss W/I to Dist a Controlled Substance,,,,,,,,,,,,,,,,,,,,,,,,,,,,,,,,,,
CF2,"JONES, GREGORY T", 2014 CF2 1109,01/18/2014,Robbery,Credit Card Fraud-Fel,Credit Card Fraud-Misd,First Degree Identity Theft,Identity Theft Second Degree,,,,,,,,,,,,,,,,,,,,,,,,,,,,,,
CF2,"BRADFORD, DONALD", 2014 CF2 1121,01/18/2014,Poss W/I to Dist a Controlled Substance,Possession of Unregistered Firearm/Unlawful Possession of a Firearm or Destructive Device,,,,,,,,,,,,,,,,,,,,,,,,,,,,,,,,,
CF2,"WALLACE, KEVIN R", 2014 CF2 1141,01/18/2014,Distribution Of a Controlled Substance,,,,,,,,,,,,,,,,,,,,,,,,,,,,,,,,,,
CF2,"WILLIS, DONOVAN T", 2014 CF2 1143,01/18/2014,Distribution Of a Controlled Substance,,,,,,,,,,,,,,,,,,,,,,,,,,,,,,,,,,
CF2,"CHESTNUT, NHIAHI A", 2014 CF2 1147,01/18/2014,Theft First Degree,,,,,,,,,,,,,,,,,,,,,,,,,,,,,,,,,,
CF2,"WILLIAMS, JALIL", 2014 CF2 1149,01/18/2014,Bail Reform Act -Misd,,,,,,,,,,,,,,,,,,,,,,,,,,,,,,,,,,
CF2,"GRAYTON, MICHAEL R", 2014 CF2 1153,01/18/2014,Unlawful Possession of Liquid PCP,Possession of Drug Paraphernalia,Possession of Open Container of Alcohol - Vehicle,,,,,,,,,,,,,,,,,,,,,,,,,,,,,,,,
CF2,"PORTER, MARTIN", 2014 CF2 1158,01/18/2014,Distribution Of a Controlled Substance,,,,,,,,,,,,,,,,,,,,,,,,,,,,,,,,,,
CF2,"SMITH, GEORGE K", 2014 CF2 1159,01/18/2014,Poss W/I to Dist a Controlled Substance,Possession of Open Container of Alcohol - Vehicle,No Permit,Possession of Drug Paraphernalia,,,,,,,,,,,,,,,,,,,,,,,,,,,,,,,
CF2,"CHANDLER, TROY", 2014 CF2 1164,01/18/2014,Distribution Of a Controlled Substance,,,,,,,,,,,,,,,,,,,,,,,,,,,,,,,,,,
CF2,"MEYERS, SCOTT A", 2014 CF2 1166,01/18/2014,Distribution Of a Controlled Substance,,,,,,,,,,,,,,,,,,,,,,,,,,,,,,,,,,
CF2,"ABELMAN, ZACHARY", 2014 CF2 1168,01/20/2014,Poss W/I to Dist a Controlled Substance,,,,,,,,,,,,,,,,,,,,,,,,,,,,,,,,,,
CF2,"HEDRICK, DAYMOND M", 2014 CF2 1186,01/20/2014,Poss W/I to Dist a Controlled Substance,Poss W/I to Dist a Controlled Substance,,,,,,,,,,,,,,,,,,,,,,,,,,,,,,,,,
CF2,"JOHN, PETER ALAFIA", 2014 CF2 1191,01/20/2014,Robbery,,,,,,,,,,,,,,,,,,,,,,,,,,,,,,,,,,
CF2,"AVILA, INGRY", 2014 CF2 1195,01/20/2014,Poss W/I to Dist a Controlled Substance,Possession of Drug Paraphernalia,,,,,,,,,,,,,,,,,,,,,,,,,,,,,,,,,
CF2,"LINDSAY, LEON D", 2014 CF2 1196,01/20/2014,Poss W/I to Dist a Controlled Substance while Armed,Poss Firearm During Crime of Violence,Unlawful Possession of a Firearm (Crime of Violence),Unlawful Possession of a Firearm (Intrafamily Offense),Carry Pistol Outside Home/Business,Possession of Unregistered Firearm/Unlawful Possession of a Firearm or Destructive Device,Unlawful Poss Ammunition,Possession of Unregistered Firearm/Unlawful Possession of a Firearm or Destructive Device,,,,,,,,,,,,,,,,,,,,,,,,,,,
CF2,"EDMONDS, WILLIAM M", 2014 CF2 1199,01/20/2014,UNLAWFUL POSSESSION OF COCAINE,,,,,,,,,,,,,,,,,,,,,,,,,,,,,,,,,,
CF2,"BARNES, DELMOND C", 2014 CF2 1203,01/20/2014,Carry Pistol W/O Lic -Outside Home/Business,Possession of Unregistered Firearm/Unlawful Possession of a Firearm or Destructive Device,Unlawful Poss Ammunition,,,,,,,,,,,,,,,,,,,,,,,,,,,,,,,,
CF2,"ADAMS, DELANTE", 2014 CF2 1256,01/22/2014,Assault (Felony),,,,,,,,,,,,,,,,,,,,,,,,,,,,,,,,,,
CF2,"STROMAN, DAVON M", 2014 CF2 1261,01/22/2014,Poss W/I to Dist a Controlled Substance,Unlawful Possession of Liquid PCP,,,,,,,,,,,,,,,,,,,,,,,,,,,,,,,,,
CF2,"CARTER, JERMAINE R", 2014 CF2 1264,01/22/2014,Unlawful Possession of Liquid PCP,Assault On A Police Officer,Assault On A Police Officer,Poss of Open Container of Alcohol/Public Intoxication,Tampering With Physical Evidence,,,,,,,,,,,,,,,,,,,,,,,,,,,,,,
CF2,"GRAY, GLEN G", 2014 CF2 1268,01/22/2014,Prison Breach,,,,,,,,,,,,,,,,,,,,,,,,,,,,,,,,,,
CF2,"GLASCO, WARREN", 2014 CF2 1290,01/22/2014,Poss W/I to Dist a Controlled Substance,Poss of a Controlled Substance -Misd,Possession of Drug Paraphernalia,,,,,,,,,,,,,,,,,,,,,,,,,,,,,,,,
CF2,"TUCKER, NATHALIE LAVERNE", 2014 CF2 1292,01/23/2014,Theft Second Degree - Felony,,,,,,,,,,,,,,,,,,,,,,,,,,,,,,,,,,
CF2,"TUCKER, NATHALIE LAVERNE", 2014 CF2 1293,01/23/2014,Theft Second Degree - Felony,,,,,,,,,,,,,,,,,,,,,,,,,,,,,,,,,,
CF2,"MICKENS, PAUL", 2014 CF2 1305,01/23/2014,Unlawful Possession of Liquid PCP,Poss of a Controlled Substance -Misd,No Permit,,,,,,,,,,,,,,,,,,,,,,,,,,,,,,,,
CF2,"SNOWDEN, ELIJAH", 2014 CF2 1306,01/23/2014,Robbery,,,,,,,,,,,,,,,,,,,,,,,,,,,,,,,,,,
CF2,"CHAPMAN, GREGORY M", 2014 CF2 1308,01/23/2014,Carry Pistol Outside Home/Business,Unlawful Possession of a Firearm (Prior Conviction),Unlawful Poss Ammunition,Assault On A Police Officer,,,,,,,,,,,,,,,,,,,,,,,,,,,,,,,
CF2,"JOHNSON, NATHAN T", 2014 CF2 1310,01/23/2014,Theft First Degree,Receiving Stolen Property $1000 or More,Unauthorized Use of A Vehicle,Destruction of Property less than $1000,Destruction of Property $1000 or More,Theft Second Degree,Receiving Stolen Property-Misd,,,,,,,,,,,,,,,,,,,,,,,,,,,,
CF2,"ALSTON, TERRANCE J", 2014 CF2 1320,01/23/2014,Poss W/I to Dist a Controlled Substance While Armed,,,,,,,,,,,,,,,,,,,,,,,,,,,,,,,,,,
CF2,"KINGSBURY, ANTONIO D", 2014 CF2 1325,01/23/2014,Carry Pistol Outside Home/Business,Unlawful Possession of a Firearm (Intrafamily Offense),Possession of Unregistered Firearm/Unlawful Possession of a Firearm or Destructive Device,Unlawful Poss Ammunition,,,,,,,,,,,,,,,,,,,,,,,,,,,,,,,
CF2,"GILLIS, DAVID", 2014 CF2 1371,01/24/2014,Prison Breach,,,,,,,,,,,,,,,,,,,,,,,,,,,,,,,,,,
CF2,"HAGOOD, TYRIK", 2014 CF2 1379,01/24/2014,Carry Pistol Outside Home/Business,Possession of Unregistered Firearm/Unlawful Possession of a Firearm or Destructive Device,Unlawful Poss Ammunition,,Reckless Driving,No Permit,,,,,,,,,,,,,,,,,,,,,,,,,,,,,
CF2,"WILLIAMS, HOWARD L", 2014 CF2 1383,01/24/2014,Poss W/I to Dist a Controlled Substance,Possession of Drug Paraphernalia,Unlawful Poss Ammunition,,,,,,,,,,,,,,,,,,,,,,,,,,,,,,,,
CF2,"CALLOWAY, DONNELL J", 2014 CF2 1398,01/24/2014,Bail Reform Act - Felony,,,,,,,,,,,,,,,,,,,,,,,,,,,,,,,,,,
CF2,"CALLOWAY, DONNELL J", 2014 CF2 1399,01/24/2014,Poss W/I to Dist a Controlled Substance While Armed Offenses Committed During Release,Poss Firearm During Crime of Violence Offenses Committed During Release,Carry Pistol Outside Home/Business Offenses Committed During Release,Unlawful Possession of a Firearm (Prior Conviction) Offenses Committed During Release,Possession of Unregistered Firearm/Unlawful Possession of a Firearm or Destructive Device,Unlawful Poss Ammunition,,,,,,,,,,,,,,,,,,,,,,,,,,,,,
CF2,"PEARCE, DEONTE D", 2014 CF2 1408,01/24/2014,Unlawful Possession of a Firearm (Prior Conviction),Unlawful Possession of a Firearm (Prior Conviction),,,,,,,,,,,,,,,,,,,,,,,,,,,,,,,,,
CF2,"ALEXANDER, JAYSHAWN", 2014 CF2 1409,01/24/2014,Unlawful Possession of a Firearm (Prior Conviction),Unlawful Possession of a Firearm (Prior Conviction),,,,,,,,,,,,,,,,,,,,,,,,,,,,,,,,,
CF2,"OMARI, MARK", 2014 CF2 1435,01/25/2014,Carry Pistol Outside Home/Business,Possession of Unregistered Firearm/Unlawful Possession of a Firearm or Destructive Device,Unlawful Poss Ammunition,,Possession of Open Container of Alcohol - Vehicle,,,,,,,,,,,,,,,,,,,,,,,,,,,,,,
CF2,"BENJAMIN, CARLOS", 2014 CF2 1437,01/25/2014,Unauthorized Use of A Vehicle,,,,,,,,,,,,,,,,,,,,,,,,,,,,,,,,,,
CF2,"JACKSON, TYWAN", 2014 CF2 1439,01/25/2014,Unauthorized Use of A Vehicle,,,,,,,,,,,,,,,,,,,,,,,,,,,,,,,,,,
CF2,"SMITH, JAVON", 2014 CF2 1441,01/25/2014,Unauthorized Use of A Vehicle,,,,,,,,,,,,,,,,,,,,,,,,,,,,,,,,,,
CF2,"WHITAKER, DAVON", 2014 CF2 1442,01/25/2014,Unauthorized Use of A Vehicle,,,,,,,,,,,,,,,,,,,,,,,,,,,,,,,,,,
CF2,"WRIGHT, JESSIE L", 2014 CF2 1448,01/25/2014,Poss W/I to Dist a Controlled Substance While Armed,Poss Firearm During Crime of Violence,Carry Pistol Outside Home/Business,Possession of Unregistered Firearm/Unlawful Possession of a Firearm or Destructive Device,Unlawful Poss Ammunition,Possession of Open Container of Alcohol - Vehicle,,,,,,,,,,,,,,,,,,,,,,,,,,,,,
CF2,"MUHAMMAD, TARIQ A", 2014 CF2 1461,01/25/2014,Unlawful Possession of a Firearm (Prior Conviction),Carry Dang Weapon-Outside Home/Business (Prior Felony),Possession of Unregistered Firearm,Unlawful Poss Ammunition,Poss of a Controlled Substance -Misd,Possession of Drug Paraphernalia,,,,,,,,,,,,,,,,,,,,,,,,,,,,,
CF2,"BUTLER, VINCENT C", 2014 CF2 1462,01/25/2014,Fraud 1st Deg $1000 or More,,,,,,,,,,,,,,,,,,,,,,,,,,,,,,,,,,
CF2,"BRYANT, RENZA N", 2014 CF2 1471,01/25/2014,Unlawful Possession of a Firearm (Prior Conviction),,,,,,,,,,,,,,,,,,,,,,,,,,,,,,,,,,
CF2,"HEADSPETH, NATHAN D", 2014 CF2 1472,01/25/2014,Unlawful Possession of a Firearm (Prior Conviction),,,,,,,,,,,,,,,,,,,,,,,,,,,,,,,,,,
CF2,"SEEGARS, JOHN", 2014 CF2 1522,01/27/2014,Unlawful Possession of a Firearm (Crime of Violence),Carry Pistol Outside Home/Business,Possession of Unregistered Firearm/Unlawful Possession of a Firearm or Destructive Device,Unlawful Poss Ammunition,,,,,,,,,,,,,,,,,,,,,,,,,,,,,,,
CF2,"BOOMER, CHRISTIAN", 2014 CF2 1523,01/27/2014,Carry Pistol W/O Lic -Outside Home/Business,Possession of Unregistered Firearm/Unlawful Possession of a Firearm or Destructive Device,Unlawful Poss Ammunition,,,,,,,,,,,,,,,,,,,,,,,,,,,,,,,,
CF2,"MICKENS, PAUL", 2014 CF2 1537,01/27/2014,Assault On A Police Officer,Poss of a Controlled Substance -Misd,,,,,,,,,,,,,,,,,,,,,,,,,,,,,,,,,
CF2,"GRAPES, HAROLD", 2014 CF2 1540,01/27/2014,Bail Reform Act -Misd,,,,,,,,,,,,,,,,,,,,,,,,,,,,,,,,,,
CF2,"WASHINGTON, CALVIN L", 2014 CF2 1548,01/27/2014,Poss W/I to Dist a Controlled Substance,,,,,,,,,,,,,,,,,,,,,,,,,,,,,,,,,,
CF2,"ARAVALO, RONALD JAVIER", 2014 CF2 1552,01/27/2014,Robbery,,,,,,,,,,,,,,,,,,,,,,,,,,,,,,,,,,
CF2,"FUENTES, FIDEL ANTONIO", 2014 CF2 1556,01/27/2014,Extortion,Attempt to Commit Robbery,,,,,,,,,,,,,,,,,,,,,,,,,,,,,,,,,
CF2,"ROMERO-LOBO, MOISES", 2014 CF2 1557,01/27/2014,Extortion,Attempt to Commit Robbery,,,,,,,,,,,,,,,,,,,,,,,,,,,,,,,,,
CF2,"MEJIA, GERBER L", 2014 CF2 1558,01/27/2014,Extortion,Attempt to Commit Robbery,,,,,,,,,,,,,,,,,,,,,,,,,,,,,,,,,
CF2,"RIVERA, ROSA", 2014 CF2 1559,01/27/2014,Extortion,Attempt to Commit Robbery,,,,,,,,,,,,,,,,,,,,,,,,,,,,,,,,,
CF2,"HINTON, KIANA M", 2014 CF2 1601,01/28/2014,Assault With A Dangerous Weapon,,,,,,,,,,,,,,,,,,,,,,,,,,,,,,,,,,
CF2,"HINTON, DEAGO D", 2014 CF2 1602,01/28/2014,Poss of a Controlled Substance -Misd,,,,,,,,,,,,,,,,,,,,,,,,,,,,,,,,,,
CF2,"CARPENTER, PATRICK", 2014 CF2 1603,01/28/2014,Assault With A Dangerous Weapon,,,,,,,,,,,,,,,,,,,,,,,,,,,,,,,,,,
CF2,"BROWN, DAVID J", 2014 CF2 1604,01/28/2014,Poss W/I to Dist a Controlled Substance While Armed,Poss Firearm During Crime of Violence,Carry Pistol Outside Home/Business,Possession of Unregistered Firearm/Unlawful Possession of a Firearm or Destructive Device,Unlawful Poss Ammunition,,,,,,,,,,,,,,,,,,,,,,,,,,,,,,
CF2,"BROWN, RYAN", 2014 CF2 1605,01/28/2014,Unlawful Possession of a Firearm (Prior Conviction),Carry Pistol Outside Home/Business,Possession of Unregistered Firearm/Unlawful Possession of a Firearm or Destructive Device,Unlawful Poss Ammunition,Tampering With Physical Evidence,,,,,,,,,,,,,,,,,,,,,,,,,,,,,,
CF2,"SHOWALTER, JUSTIN W", 2014 CF2 1608,01/28/2014,Carry Pistol Outside Home/Business,Failure To Register Firearm,Possession of Unregistered Firearm/Unlawful Possession of a Firearm or Destructive Device,Failure To Register Firearm,Unlawful Poss Ammunition,Unlawful Poss Ammunition,Unlawful Poss Ammunition,,,,,,,,,,,,,,,,,,,,,,,,,,,,
CF2,"BEST, JOHN", 2014 CF2 1646,01/28/2014,Poss W/I to Dist a Controlled Substance,Poss Firearm During Crime of Violence,Possession of Unregistered Firearm/Unlawful Possession of a Firearm or Destructive Device,Unlawful Poss Ammunition,Unlawful Poss Ammunition,Unlawful Poss Ammunition,Unlawful Poss Ammunition,Possession of Drug Paraphernalia,,,,,,,,,,,,,,,,,,,,,,,,,,,
CF2,"THORTON, MARCUS", 2014 CF2 1650,01/28/2014,Receiving Stolen Property $1000 or More,Unauthorized Use of A Vehicle,Flee Law Enforcement Officer,Reckless Driving,Destruction of Property less than $1000,,,,,,,,,,,,,,,,,,,,,,,,,,,,,,
CF2,"WALLER, EDDIE", 2014 CF2 1651,01/28/2014,Receiving Stolen Property $1000 or More,Unauthorized Use of A Vehicle,Theft Second Degree,,,,,,,,,,,,,,,,,,,,,,,,,,,,,,,,
CF2,"GOODWIN, VINCENT", 2014 CF2 1675,01/29/2014,Unlawful Possession of a Firearm (Prior Conviction),Carry Pistol-Prior Fel/CP,Possession of Unregistered Firearm/Unlawful Possession of a Firearm or Destructive Device,Unlawful Poss Ammunition,,,,,,,,,,,,,,,,,,,,,,,,,,,,,,,
CF2,"ANDERSON, PHILLIP", 2014 CF2 1688,01/29/2014,Poss W/I to Dist a Controlled Substance,,,,,,,,,,,,,,,,,,,,,,,,,,,,,,,,,,
CF2,"SIMMONS, DECHRISTIAN", 2014 CF2 1691,01/29/2014,Poss W/I to Dist a Controlled Substance,,,,,,,,,,,,,,,,,,,,,,,,,,,,,,,,,,
CF2,"AWANNA, NDUKA A", 2014 CF2 1693,01/29/2014,Fraud 1st Deg $1000 or More,,,,,,,,,,,,,,,,,,,,,,,,,,,,,,,,,,
CF2,"ALEXANDER, MALCOLM DEVONTA", 2014 CF2 1695,01/29/2014,Carry Pistol W/O Lic -Outside Home/Business,,,,,,,,,,,,,,,,,,,,,,,,,,,,,,,,,,
CF2,"ATKINSON, CARL V", 2014 CF2 1702,01/29/2014,Carry Pistol Outside Home/Business,,,,,,,,,,,,,,,,,,,,,,,,,,,,,,,,,,
CF2,"WILLIAMS, RASHAUD", 2014 CF2 1703,01/29/2014,Carry Pistol Outside Home/Business,,,,,,,,,,,,,,,,,,,,,,,,,,,,,,,,,,
CF2,"SELLERS, DEWAYNE ANTONIO", 2014 CF2 1704,01/29/2014,Fraud 1st Deg $1000 or More,,,,,,,,,,,,,,,,,,,,,,,,,,,,,,,,,,
CF2,"LUCK, NEAL J", 2014 CF2 1711,01/29/2014,Poss W/I to Dist a Controlled Substance,,,,,,,,,,,,,,,,,,,,,,,,,,,,,,,,,,
CF2,"BUTLER, ERIC D", 2014 CF2 1739,01/30/2014,Poss W/I to Dist a Controlled Substance,,,,,,,,,,,,,,,,,,,,,,,,,,,,,,,,,,
CF2,"BLOUNT, CHARLES", 2014 CF2 1748,01/30/2014,Burglary Two,,,,,,,,,,,,,,,,,,,,,,,,,,,,,,,,,,
CF2,"SIMMS, WILBERT C", 2014 CF2 1749,01/30/2014,Burglary Two,,,,,,,,,,,,,,,,,,,,,,,,,,,,,,,,,,
CF2,"GOODE, TWON", 2014 CF2 1752,01/30/2014,Prison Breach,,,,,,,,,,,,,,,,,,,,,,,,,,,,,,,,,,
CF2,"SHANNON, VALARIE", 2014 CF2 1758,01/30/2014,Poss W/I to Dist a Controlled Substance,Possession of Drug Paraphernalia,,,,,,,,,,,,,,,,,,,,,,,,,,,,,,,,,
CF2,"WADE, EUGENE", 2014 CF2 1759,01/30/2014,Poss W/I to Dist a Controlled Substance,Possession of Drug Paraphernalia,,,,,,,,,,,,,,,,,,,,,,,,,,,,,,,,,
CF2,"REDRICK, TYRONE A", 2014 CF2 1762,01/30/2014,Unlawful Possession of a Firearm (Prior Conviction),,,,,,,,,,,,,,,,,,,,,,,,,,,,,,,,,,
CF2,"CANARTIE, MICHAEL E", 2014 CF2 1777,01/30/2014,Receiving Stolen Property $1000 or More,Unauthorized Use of A Vehicle,Flee Law Enforcement Officer,Destruction of Property $1000 or More,Reckless Driving,No Permit,,,,,,,,,,,,,,,,,,,,,,,,,,,,,
CF2,"RAGLAND, AARON J", 2014 CF2 1783,01/30/2014,Poss W/I to Dist a Controlled Substance,Poss W/I to Dist Marijuana-Misd,Manufacture or Possessing W/Intent to Manufacture a Controlled Substance,,,,,,,,,,,,,,,,,,,,,,,,,,,,,,,,
CF2,"LEE, DARRON K", 2014 CF2 1819,01/31/2014,Distribution Of a Controlled Substance,,,,,,,,,,,,,,,,,,,,,,,,,,,,,,,,,,
CF2,"SMITH, PAUL", 2014 CF2 1822,01/31/2014,Distribution Of a Controlled Substance,Poss W/I to Dist a Controlled Substance,,,,,,,,,,,,,,,,,,,,,,,,,,,,,,,,,
CF2,"DUNGEE, CLARKE", 2014 CF2 1827,01/31/2014,Carry Pistol Outside Home/Business,Possession of Unregistered Firearm/Unlawful Possession of a Firearm or Destructive Device,Unlawful Poss Ammunition,,,,,,,,,,,,,,,,,,,,,,,,,,,,,,,,
CF2,"HENRY, MARTIQUE A", 2014 CF2 1833,01/31/2014,Poss W/I to Dist a Controlled Substance,Poss W/I to Dist a Controlled Substance,Possession of Drug Paraphernalia,,,,,,,,,,,,,,,,,,,,,,,,,,,,,,,,
CF2,"HENRY, DELMARIO M", 2014 CF2 1856,01/31/2014,Poss W/I to Dist Marijuana-Fel,,,,,,,,,,,,,,,,,,,,,,,,,,,,,,,,,,
CF2,"JACKSON, ANDRE E", 2014 CF2 1857,01/31/2014,Poss W/I to Dist a Controlled Substance,,,,,,,,,,,,,,,,,,,,,,,,,,,,,,,,,,
CF2,"HARRISON, WALTER D", 2014 CF2 1858,01/31/2014,Carry Pistol Outside Home/Business,Unlawful Possession of a Firearm (Prior Conviction),Possession of Unregistered Firearm/Unlawful Possession of a Firearm or Destructive Device,Unlawful Poss Ammunition,Poss of a Controlled Substance -Misd,,,,,,,,,,,,,,,,,,,,,,,,,,,,,,
CF2,"SMITH, RICHARD F", 2014 CF2 1860,01/31/2014,Poss W/I to Dist a Controlled Substance,Poss W/I to Dist a Controlled Substance,Possession of Drug Paraphernalia,,,,,,,,,,,,,,,,,,,,,,,,,,,,,,,,
CF2,"SETTLES, TARICK", 2014 CF2 1861,01/31/2014,Poss W/I to Dist a Controlled Substance,Poss W/I to Dist a Controlled Substance,Possession of Drug Paraphernalia,,,,,,,,,,,,,,,,,,,,,,,,,,,,,,,,
CF2,"HARRISON, WILLIAM D", 2014 CF2 1862,01/31/2014,Poss W/I to Dist a Controlled Substance,,,,,,,,,,,,,,,,,,,,,,,,,,,,,,,,,,
CF2,"FIRST, JEROME", 2014 CF2 1864,01/31/2014,Assault With A Dangerous Weapon,,,,,,,,,,,,,,,,,,,,,,,,,,,,,,,,,,
CF2,"EVANS, MAURICE G", 2014 CF2 1868,01/31/2014,Assault With A Dangerous Weapon,,,,,,,,,,,,,,,,,,,,,,,,,,,,,,,,,,
CF2,"DAVON, THOMAS", 2014 CF2 1869,01/31/2014,Assault With A Dangerous Weapon,,,,,,,,,,,,,,,,,,,,,,,,,,,,,,,,,,
CF2,"CRUZ, JASON D", 2014 CF2 1873,01/31/2014,Poss W/I to Dist a Controlled Substance,,,,,,,,,,,,,,,,,,,,,,,,,,,,,,,,,,
CF2,"LILLER, DANIEL B", 2014 CF2 1904,02/01/2014,Poss W/I to Dist a Controlled Substance,Possession of Drug Paraphernalia,,,,,,,,,,,,,,,,,,,,,,,,,,,,,,,,,
CF2,"MOBLEY, ISHMIL M", 2014 CF2 1907,02/01/2014,Flee Law Enforcement Officer,Reckless Driving,Assault With A Dangerous Weapon,Assault On A Police Officer,,,,,,,,,,,,,,,,,,,,,,,,,,,,,,,
CF2,"FONVILLE, DAVONTE", 2014 CF2 1914,02/01/2014,Carry Pistol Outside Home/Business,Unlawful Possession of a Firearm (Crime of Violence),Possession of Unregistered Firearm/Unlawful Possession of a Firearm or Destructive Device,Unlawful Poss Ammunition,No Permit,,,,,,,,,,,,,,,,,,,,,,,,,,,,,,
CF2,"DAVIS, RICARDO", 2014 CF2 1917,02/01/2014,Poss W/I to Dist a Controlled Substance,,,,,,,,,,,,,,,,,,,,,,,,,,,,,,,,,,
CF2,"MATTHEWS, JOSE", 2014 CF2 1923,02/01/2014,Robbery While Armed,,,,,,,,,,,,,,,,,,,,,,,,,,,,,,,,,,
CF2,"MENDEZ, JOSE A", 2014 CF2 1925,02/01/2014,Distribution Of a Controlled Substance,Poss W/I to Dist a Controlled Substance,Possession of Drug Paraphernalia,,,,,,,,,,,,,,,,,,,,,,,,,,,,,,,,
CF2,"LISCOMB, LONNIE R", 2014 CF2 1926,02/01/2014,Poss W/I to Dist a Controlled Substance,,,,,,,,,,,,,,,,,,,,,,,,,,,,,,,,,,
CF2,"WATSON, ANTONIO", 2014 CF2 1942,02/01/2014,Poss W/I to Dist a Controlled Substance,,,,,,,,,,,,,,,,,,,,,,,,,,,,,,,,,,
CF2,"HENRY, MARIA", 2014 CF2 1943,02/01/2014,Poss W/I to Dist a Controlled Substance,,,,,,,,,,,,,,,,,,,,,,,,,,,,,,,,,,
CF2,"MCCORMICK, DONALD K", 2014 CF2 1967,02/03/2014,Unlawful Possession of Liquid PCP,Poss of a Controlled Substance -Misd,,,,,,,,,,,,,,,,,,,,,,,,,,,,,,,,,
CF2,"FOSTER, KATHERINE K", 2014 CF2 1975,02/03/2014,Flee Law Enforcement Officer,Reckless Driving,,,,,,,,,,,,,,,,,,,,,,,,,,,,,,,,,
CF2,"VINES, PETE L", 2014 CF2 1983,02/03/2014,Receiving Stolen Property $1000 or More,Unauthorized Use of A Vehicle,Flee Law Enforcement Officer,Reckless Driving,Destruction of Property $1000 or More,Destruction of Property less than $1000,LV After Collid Damage,Possession of Open Container of Alcohol - Vehicle,,,,,,,,,,,,,,,,,,,,,,,,,,,
CF2,"DRAYTON, MIKE D", 2014 CF2 1992,02/03/2014,Carry Pistol Outside Home/Business,Unlawful Possession of a Firearm (Crime of Violence),Possession of Unregistered Firearm/Unlawful Possession of a Firearm or Destructive Device,Unlawful Poss Ammunition,,,,,,,,,,,,,,,,,,,,,,,,,,,,,,,
CF2,"MURRAY, LEROY", 2014 CF2 2002,02/03/2014,Poss W/I to Dist a Controlled Substance,Poss of a Controlled Substance -Misd,,,,,,,,,,,,,,,,,,,,,,,,,,,,,,,,,
CF2,"GRIFFIN, CHRISTOPHER", 2014 CF2 2005,02/03/2014,Bail Reform Act -Felony,,,,,,,,,,,,,,,,,,,,,,,,,,,,,,,,,,
CF2,"BAILEY, STEPHANIE M", 2014 CF2 2006,02/03/2014,Bail Reform Act -Felony,,,,,,,,,,,,,,,,,,,,,,,,,,,,,,,,,,
CF2,"PATRIZ-ABALOS, JHONATHAN E", 2014 CF2 2022,02/03/2014,Receiving Stolen Property $1000 or More,Unauthorized Use of A Vehicle,Destruction of Property $1000 or More,Destruction of Property $1000 or More,,,,,,,,,,,,,,,,,,,,,,,,,,,,,,,
CF2,"JONES, JOHN E", 2014 CF2 2028,02/04/2014,Assault with Significant Bodily Injury,Bail Reform Act -Misd,,,,,,,,,,,,,,,,,,,,,,,,,,,,,,,,,
CF2,"ROGERS, DEANTE", 2014 CF2 2099,02/05/2014,Robbery,,,,,,,,,,,,,,,,,,,,,,,,,,,,,,,,,,
CF2,"MEREDITH, LARRY", 2014 CF2 2101,02/05/2014,Poss W/I to Dist a Controlled Substance,,,,,,,,,,,,,,,,,,,,,,,,,,,,,,,,,,
CF2,"JOHNSON, HAROLD L", 2014 CF2 2102,02/05/2014,Poss W/I to Dist a Controlled Substance,,,,,,,,,,,,,,,,,,,,,,,,,,,,,,,,,,
CF2,"WILLIAMS, KEYANA C", 2014 CF2 2111,02/05/2014,Flee Law Enforcement Officer,Reckless Driving,Second Degree Cruelty to Children,,,,,,,,,,,,,,,,,,,,,,,,,,,,,,,,
CF2,"SULLIVAN, LEROY F", 2014 CF2 2117,02/05/2014,Contempt - Felony,,,,,,,,,,,,,,,,,,,,,,,,,,,,,,,,,,
CF2,"ANDERSON, WILLIAM G", 2014 CF2 2138,02/06/2014,Carry Pistol Outside Home/Business,Possession of Unregistered Firearm/Unlawful Possession of a Firearm or Destructive Device,Unlawful Poss Ammunition,,,,,,,,,,,,,,,,,,,,,,,,,,,,,,,,
CF2,"THOMAS, ELIZABETH ROXINE", 2014 CF2 2146,02/06/2014,Fraud 1st Deg $1000 or More,,,,,,,,,,,,,,,,,,,,,,,,,,,,,,,,,,
CF2,"COOPER, MICHAEL R", 2014 CF2 2158,02/06/2014,Poss W/I to Dist a Controlled Substance,Unlawful Possession of Liquid PCP,,,,,,,,,,,,,,,,,,,,,,,,,,,,,,,,,
CF2,"GILYARD, ROGER N", 2014 CF2 2159,02/06/2014,Unlawful Possession of a Firearm (Prior Conviction),Possession of Unregistered Firearm/Unlawful Possession of a Firearm or Destructive Device,Possession of Unregistered Firearm/Unlawful Possession of a Firearm or Destructive Device,Unlawful Poss Ammunition,,,,,,,,,,,,,,,,,,,,,,,,,,,,,,,
CF2,"HARGROVE, MALACH H", 2014 CF2 2206,02/07/2014,Carry Pistol Outside Home/Business,Possession of Unregistered Firearm/Unlawful Possession of a Firearm or Destructive Device,Unlawful Poss Ammunition,,,,,,,,,,,,,,,,,,,,,,,,,,,,,,,,
CF2,"CELESTINE, IMANI LANEE", 2014 CF2 2215,02/07/2014,Robbery,,,,,,,,,,,,,,,,,,,,,,,,,,,,,,,,,,
CF2,"CRAIG, DARRELL", 2014 CF2 2220,02/07/2014,Theft First Degree,Unauthorized Use of A Vehicle,,,,,,,,,,,,,,,,,,,,,,,,,,,,,,,,,
CF2,"BARNES, TERRELL DWAYNE", 2014 CF2 2227,02/07/2014,Cruelty to Children,,,,,,,,,,,,,,,,,,,,,,,,,,,,,,,,,,
CF2,"ANDERSON, KEVIN D", 2014 CF2 2229,02/07/2014,Poss W/I to Dist a Controlled Substance,Poss of a Controlled Substance -Misd,,,,,,,,,,,,,,,,,,,,,,,,,,,,,,,,,
CF2,"MEHARY, TARIK S", 2014 CF2 2240,02/07/2014,Poss W/I to Dist Marijuana-Fel,,,,,,,,,,,,,,,,,,,,,,,,,,,,,,,,,,
CF2,"GREEN, JAMES C", 2014 CF2 2285,02/08/2014,Distribution Of a Controlled Substance,,,,,,,,,,,,,,,,,,,,,,,,,,,,,,,,,,
CF2,"TYCE, DONNA", 2014 CF2 2290,02/08/2014,Assault (Felony),,,,,,,,,,,,,,,,,,,,,,,,,,,,,,,,,,
CF2,"DOBSON, GREGORY N", 2014 CF2 2294,02/08/2014,Poss W/I to Dist a Controlled Substance While Armed,Poss Firearm During Crime of Violence,Unlawful Possession of a Firearm (Prior Conviction),Possession of Unregistered Firearm/Unlawful Possession of a Firearm or Destructive Device,Possession of Unregistered Firearm/Unlawful Possession of a Firearm or Destructive Device,Unlawful Poss Ammunition,Possession of Drug Paraphernalia,Poss of a Controlled Substance -Misd,,,,,,,,,,,,,,,,,,,,,,,,,,,
CF2,"JHINGORY, JOSEPH A", 2014 CF2 2295,02/08/2014,Poss W/I to Dist a Controlled Substance,Poss Firearm During Crime of Violence,Unlawful Possession of a Firearm (Prior Conviction),Possession of Unregistered Firearm/Unlawful Possession of a Firearm or Destructive Device,Possession of Unregistered Firearm/Unlawful Possession of a Firearm or Destructive Device,Unlawful Poss Ammunition,Possession of Drug Paraphernalia,,,,,,,,,,,,,,,,,,,,,,,,,,,,
CF2,"ALEXANDER, JEROME C", 2014 CF2 2297,02/08/2014,Prisoner Escape,Tampering with a Detection Device,,,,,,,,,,,,,,,,,,,,,,,,,,,,,,,,,
CF2,"MCCANTS, CLEOPATRA", 2014 CF2 2300,02/08/2014,Assault With A Dangerous Weapon,,,,,,,,,,,,,,,,,,,,,,,,,,,,,,,,,,
CF2,"OLOMO, EBENEZER", 2014 CF2 2303,02/08/2014,Bail Reform Act -Felony,,,,,,,,,,,,,,,,,,,,,,,,,,,,,,,,,,
CF2,"BROWN, ALLEN", 2014 CF2 2304,02/08/2014,Unauthorized Use of A Vehicle,,,,,,,,,,,,,,,,,,,,,,,,,,,,,,,,,,
CF2,"ROBINSON, CHRISTOPHER D", 2014 CF2 2306,02/08/2014,Assault with Significant Bodily Injury,,,,,,,,,,,,,,,,,,,,,,,,,,,,,,,,,,
CF2,"DOUGLAS, KRITRINA", 2014 CF2 2307,02/08/2014,Poss W/I to Dist a Controlled Substance,Unlawful Possession of Liquid PCP,Possession of Drug Paraphernalia,Second Degree Cruelty to Children,Second Degree Cruelty to Children,,,,,,,,,,,,,,,,,,,,,,,,,,,,,,
CF2,"KADAAR, SIMO", 2014 CF2 2320,02/10/2014,Robbery,,,,,,,,,,,,,,,,,,,,,,,,,,,,,,,,,,
CF2,"GANT, KEITH", 2014 CF2 2342,02/10/2014,Carry Pistol Outside Home/Business,Possession of Unregistered Firearm/Unlawful Possession of a Firearm or Destructive Device,Unlawful Poss Ammunition,Poss of a Controlled Substance -Misd,,,,,,,,,,,,,,,,,,,,,,,,,,,,,,,
CF2,"MARTIN, DAMIEN", 2014 CF2 2375,02/10/2014,Poss W/I to Dist a Controlled Substance,Poss W/I to Dist a Controlled Substance,Possession of Drug Paraphernalia,Possession of Open Container of Alcohol - Vehicle,,,,,,,,,,,,,,,,,,,,,,,,,,,,,,,
CF2,"FORD, ANTHONY D", 2014 CF2 2384,02/10/2014,Carry Pistol Outside Home/Business,,,,,,,,,,,,,,,,,,,,,,,,,,,,,,,,,,
CF2,"ATCHISON, TERRENCE", 2014 CF2 2385,02/10/2014,Carry Pistol Outside Home/Business,Possession of Unregistered Firearm,Unlawful Poss Ammunition,Poss of a Controlled Substance -Misd,,,,,,,,,,,,,,,,,,,,,,,,,,,,,,,
CF2,"ROSENBLATT, RICHARD", 2014 CF2 2386,02/10/2014,Carry Dang Weapon-Outside Home/Business,,,,,,,,,,,,,,,,,,,,,,,,,,,,,,,,,,
CF2,"CHARKAS, JONATHAN", 2014 CF2 2392,02/10/2014,Poss W/I to Dist a Controlled Substance,,,,,,,,,,,,,,,,,,,,,,,,,,,,,,,,,,
CF2,"WASHINGTON, DARIUS", 2014 CF2 2393,02/10/2014,Poss W/I to Dist a Controlled Substance While Armed,Poss W/I to Dist a Controlled Substance While Armed,Poss Firearm During Crime of Violence,Carry Pistol W/O Lic -Outside Home/Business,Possession of Unregistered Firearm/Unlawful Possession of a Firearm or Destructive Device,Unlawful Poss Ammunition,Possession of Drug Paraphernalia,,,,,,,,,,,,,,,,,,,,,,,,,,,,
CF2,"DUDLEY, STEVEN HENDERSON", 2014 CF2 2402,02/10/2014,Unlawful Possession of a Firearm (Prior Conviction),,,,,,,,,,,,,,,,,,,,,,,,,,,,,,,,,,
CF2,"FITZGERALD, JEFFERY L", 2014 CF2 2412,02/10/2014,Assault With A Dangerous Weapon,Assault With A Dangerous Weapon,,,,,,,,,,,,,,,,,,,,,,,,,,,,,,,,,
CF2,"ANDERSON, LEROY", 2014 CF2 2547,02/12/2014,Poss W/I to Dist a Controlled Substance,Unlawful Possession of Liquid PCP,Possession of Drug Paraphernalia,,,,,,,,,,,,,,,,,,,,,,,,,,,,,,,,
CF2,"SMITH, ERNEST H", 2014 CF2 2553,02/12/2014,Distribution Of a Controlled Substance,Poss W/I to Dist a Controlled Substance,,,,,,,,,,,,,,,,,,,,,,,,,,,,,,,,,
CF2,"MOORE, JOYETTA Y", 2014 CF2 2555,02/12/2014,Distribution Of a Controlled Substance,,,,,,,,,,,,,,,,,,,,,,,,,,,,,,,,,,
CF2,"WILLIAMS, ALASIA", 2014 CF2 2560,02/12/2014,Bail Reform Act -Felony,,,,,,,,,,,,,,,,,,,,,,,,,,,,,,,,,,
CF2,"GILBERT, DWIGHT A", 2014 CF2 2562,02/12/2014,Unlawful Possession of a Firearm (Prior Conviction),Carry Pistol W/O Lic -Outside Home/Business,Possession of Unregistered Firearm/Unlawful Possession of a Firearm or Destructive Device,Failure To Register Firearm,,,,,,,,,,,,,,,,,,,,,,,,,,,,,,,
CF2,"BLAKELY, CAMERON", 2014 CF2 2564,02/12/2014,"Escape, (From Officer)",Assault On A Police Officer,,,,,,,,,,,,,,,,,,,,,,,,,,,,,,,,,
CF2,"GRAY, DEWAYNE C", 2014 CF2 2567,02/12/2014,Bail Reform Act -Felony,,,,,,,,,,,,,,,,,,,,,,,,,,,,,,,,,,
CF2,"TORRES, MANUEL DEJESUS", 2014 CF2 2611,02/14/2014,Distribution Of a Controlled Substance,,,,,,,,,,,,,,,,,,,,,,,,,,,,,,,,,,
CF2,"DAVIS, DAVON A", 2014 CF2 2618,02/14/2014,Poss W/I to Dist a Controlled Substance,Poss Firearm During Crime of Violence,Carry Pistol W/O Lic -Outside Home/Business,Possession of Unregistered Firearm/Unlawful Possession of a Firearm or Destructive Device,Unlawful Poss Ammunition,,,,,,,,,,,,,,,,,,,,,,,,,,,,,,
CF2,"SORTO, DEYSI", 2014 CF2 2626,02/14/2014,Insurance Fraud in the First Degree,,,,,,,,,,,,,,,,,,,,,,,,,,,,,,,,,,
CF2,"BIBBS, WARREN W", 2014 CF2 2630,02/14/2014,Unlawful Possession of Liquid PCP,Poss of a Controlled Substance -Misd,Possession of Drug Paraphernalia,,,,,,,,,,,,,,,,,,,,,,,,,,,,,,,,
CF2,"CHENEY, TIMOTHY", 2014 CF2 2632,02/14/2014,Poss W/I to Dist a Controlled Substance,Poss W/I to Dist a Controlled Substance,Poss W/I to Dist a Controlled Substance,Poss of a Controlled Substance -Misd,Possession of Drug Paraphernalia,,,,,,,,,,,,,,,,,,,,,,,,,,,,,,
CF2,"BRANCH, JACOB A", 2014 CF2 2646,02/14/2014,Theft First Degree Offenses Committed During Release,Receiving Stolen Property $1000 or More Offenses Committed During Release,Unauthorized Use of A Vehicle Offenses Committed During Release,No Permit,,,,,,,,,,,,,,,,,,,,,,,,,,,,,,,
CF2,"BOYKINS, MONICA M", 2014 CF2 2653,02/14/2014,Unlawful Possession of a Firearm (Prior Conviction),Possession of Unregistered Firearm/Unlawful Possession of a Firearm or Destructive Device,Unlawful Poss Ammunition,,,,,,,,,,,,,,,,,,,,,,,,,,,,,,,,
CF2,"BELCHER, LYNWOOD", 2014 CF2 2675,02/14/2014,Credit Card Fraud-Misd,,,,,,,,,,,,,,,,,,,,,,,,,,,,,,,,,,
CF2,"AMARIA, ABDEL", 2014 CF2 2676,02/14/2014,Assault With A Dangerous Weapon,,,,,,,,,,,,,,,,,,,,,,,,,,,,,,,,,,
CF2,"DESCHENES, ROGER F", 2014 CF2 2690,02/15/2014,Carry Pistol Outside Home/Business,Possession of Unregistered Firearm,Unlawful Poss Ammunition,,,,,,,,,,,,,,,,,,,,,,,,,,,,,,,,
CF2,"FLUELLYN, JAMES", 2014 CF2 2697,02/15/2014,Poss W/I to Dist a Controlled Substance,,,,,,,,,,,,,,,,,,,,,,,,,,,,,,,,,,
CF2,"WARD, WILLIAM M", 2014 CF2 2718,02/15/2014,Poss W/I to Dist a Controlled Substance,Poss of a Controlled Substance -Misd,Possession of Drug Paraphernalia,,,,,,,,,,,,,,,,,,,,,,,,,,,,,,,,
CF2,"MCCOLLUM, MASTON T", 2014 CF2 2724,02/17/2014,Carry Pistol Outside Home/Business,Possession of Unregistered Firearm/Unlawful Possession of a Firearm or Destructive Device,Unlawful Poss Ammunition,Poss of a Controlled Substance -Misd,Possession of Open Container of Alcohol - Vehicle,,,,,,,,,,,,,,,,,,,,,,,,,,,,,,
CF2,"EPPS, DELANY C", 2014 CF2 2727,02/17/2014,Carry Pistol Outside Home/Business,Possession of Unregistered Firearm/Unlawful Possession of a Firearm or Destructive Device,Unlawful Poss Ammunition,,,,,,,,,,,,,,,,,,,,,,,,,,,,,,,,
CF2,"YOUNG, MICHAEL A", 2014 CF2 2730,02/17/2014,Assault With A Dangerous Weapon,Poss of a Controlled Substance -Misd,Second Degree Cruelty to Children,,,,,,,,,,,,,,,,,,,,,,,,,,,,,,,,
CF2,"SAINTIL, LEVEY", 2014 CF2 2731,02/17/2014,Assault (Felony),,,,,,,,,,,,,,,,,,,,,,,,,,,,,,,,,,
CF2,"WARD, DASEAN", 2014 CF2 2745,02/17/2014,Robbery,,,,,,,,,,,,,,,,,,,,,,,,,,,,,,,,,,
CF2,"KERFAL, AMINE", 2014 CF2 2747,02/17/2014,Assault with Significant Bodily Injury,,,,,,,,,,,,,,,,,,,,,,,,,,,,,,,,,,
CF2,"KNIGHT, DARRYL", 2014 CF2 2748,02/17/2014,Unlawful Possession of Liquid PCP Offenses Committed During Release,,,,,,,,,,,,,,,,,,,,,,,,,,,,,,,,,,
CF2,"MARSH, GREGORY L", 2014 CF2 2785,02/18/2014,Poss W/I to Dist a Controlled Substance,,,,,,,,,,,,,,,,,,,,,,,,,,,,,,,,,,
CF2,"FOSU, EDWARD", 2014 CF2 2796,02/18/2014,Unauthorized Use of A Vehicle,,,,,,,,,,,,,,,,,,,,,,,,,,,,,,,,,,
CF2,"COBB, ANTHONY T", 2014 CF2 2797,02/18/2014,Theft First Degree,Receiving Stolen Property $1000 or More,Unauthorized Use of A Vehicle,,,,,,,,,,,,,,,,,,,,,,,,,,,,,,,,
CF2,"COX, FRANCES M", 2014 CF2 2802,02/18/2014,Poss W/I to Dist a Controlled Substance,Possession of Drug Paraphernalia,,,,,,,,,,,,,,,,,,,,,,,,,,,,,,,,,
CF2,"HARRIS, RANDOLPH", 2014 CF2 2825,02/18/2014,Distribution Of a Controlled Substance,Poss W/I to Dist a Controlled Substance,,,,,,,,,,,,,,,,,,,,,,,,,,,,,,,,,
CF2,"HERRING, MARVIN K", 2014 CF2 2826,02/18/2014,Distribution Of a Controlled Substance,,,,,,,,,,,,,,,,,,,,,,,,,,,,,,,,,,
CF2,"WARD, JACQUELINE", 2014 CF2 2828,02/18/2014,Distribution Of a Controlled Substance,,,,,,,,,,,,,,,,,,,,,,,,,,,,,,,,,,
CF2,"WILSON, JEROME", 2014 CF2 2836,02/18/2014,Carry Pistol Outside Home/Business,Possession of Unregistered Firearm/Unlawful Possession of a Firearm or Destructive Device,Unlawful Poss Ammunition,,,,,,,,,,,,,,,,,,,,,,,,,,,,,,,,
CF2,"NOWLIN, DONNIKA", 2014 CF2 2843,02/18/2014,Cruelty to Animals,,,,,,,,,,,,,,,,,,,,,,,,,,,,,,,,,,
CF2,"GLOVER, ELLIOTT", 2014 CF2 2883,02/19/2014,Unlawful Possession of Liquid PCP,,,,,,,,,,,,,,,,,,,,,,,,,,,,,,,,,,
CF2,"HUTCHINS, KEVIN T", 2014 CF2 2918,02/20/2014,Poss W/I to Dist a Controlled Substance,Poss Firearm During Crime of Violence,Unlawful Possession of a Firearm (Prior Conviction),Possession of Unregistered Firearm/Unlawful Possession of a Firearm or Destructive Device,Unlawful Poss Ammunition,Possession of Drug Paraphernalia,,,,,,,,,,,,,,,,,,,,,,,,,,,,,
CF2,"CHENG, KAM", 2014 CF2 2919,02/20/2014,Theft First Degree,Theft Second Degree,,,,,,,,,,,,,,,,,,,,,,,,,,,,,,,,,
CF2,"JACKSON, MICHAEL A", 2014 CF2 2941,02/20/2014,Distribution Of a Controlled Substance,Poss of a Controlled Substance -Misd,,,,,,,,,,,,,,,,,,,,,,,,,,,,,,,,,
CF2,"LAKAM-POUNGOUM, ELAINE BLAISE", 2014 CF2 2944,02/20/2014,Fraud 1st Deg $1000 or More,,,,,,,,,,,,,,,,,,,,,,,,,,,,,,,,,,
CF2,"MUKALA, ERIC SUH", 2014 CF2 2945,02/20/2014,Fraud 1st Deg $1000 or More,,,,,,,,,,,,,,,,,,,,,,,,,,,,,,,,,,
CF2,"ALEMNJI, CEDONNE NGWILEFEM", 2014 CF2 2950,02/20/2014,Fraud 1st Deg $1000 or More,,,,,,,,,,,,,,,,,,,,,,,,,,,,,,,,,,
CF2,"ROBINSON, CALVIN T", 2014 CF2 2955,02/20/2014,Poss W/I to Dist a Controlled Substance,,,,,,,,,,,,,,,,,,,,,,,,,,,,,,,,,,
CF2,"JEFFERSON, DAVID L", 2014 CF2 2957,02/20/2014,Poss W/I to Dist a Controlled Substance,,,,,,,,,,,,,,,,,,,,,,,,,,,,,,,,,,
CF2,"GERMANY, FREDERICK", 2014 CF2 2971,02/21/2014,Poss W/I to Dist a Controlled Substance,,,,,,,,,,,,,,,,,,,,,,,,,,,,,,,,,,
CF2,"BELL, ANTONIO C", 2014 CF2 2998,02/21/2014,Unlawful Possession of Liquid PCP,Poss of a Controlled Substance -Misd,Unlawful Poss Ammunition,No Permit,Poss of a Controlled Substance -Misd,,,,,,,,,,,,,,,,,,,,,,,,,,,,,,
CF2,"HILL, MARK", 2014 CF2 2999,02/21/2014,Carry Pistol Outside Home/Business,Possession of Unregistered Firearm/Unlawful Possession of a Firearm or Destructive Device,Unlawful Poss Ammunition,,,,,,,,,,,,,,,,,,,,,,,,,,,,,,,,
CF2,"BRICE, STEVE", 2014 CF2 3006,02/21/2014,Poss W/I to Dist a Controlled Substance,Possession of Drug Paraphernalia,,,,,,,,,,,,,,,,,,,,,,,,,,,,,,,,,
CF2,"WATSON, KIMBERLY", 2014 CF2 3007,02/21/2014,Poss W/I to Dist Marijuana-Fel,,,,,,,,,,,,,,,,,,,,,,,,,,,,,,,,,,
CF2,"NYANTAKYI, MICHAEL", 2014 CF2 3008,02/21/2014,Fraud 1st Deg $1000 or More,,,,,,,,,,,,,,,,,,,,,,,,,,,,,,,,,,
CF2,"FOBETEH, BRANDON CHENWI SHU", 2014 CF2 3011,02/21/2014,Fraud 1st Deg $1000 or More,,,,,,,,,,,,,,,,,,,,,,,,,,,,,,,,,,
CF2,"MCFADDEN, SHELDON", 2014 CF2 3012,02/21/2014,Burglary Two,,,,,,,,,,,,,,,,,,,,,,,,,,,,,,,,,,
CF2,"BOYLE, ULRIC", 2014 CF2 3014,02/21/2014,Fraud 1st Deg $1000 or More,,,,,,,,,,,,,,,,,,,,,,,,,,,,,,,,,,
CF2,"FOMUNDAM, MICHAEL", 2014 CF2 3015,02/21/2014,Fraud 1st Deg $1000 or More,,,,,,,,,,,,,,,,,,,,,,,,,,,,,,,,,,
CF2,"EPSE-ACHA, ROSE", 2014 CF2 3016,02/21/2014,Fraud 1st Deg $1000 or More,,,,,,,,,,,,,,,,,,,,,,,,,,,,,,,,,,
CF2,"GARDNER, WILLIAM R", 2014 CF2 3025,02/21/2014,Poss W/I to Dist a Controlled Substance While Armed,Poss Firearm During Crime of Violence,Carry Pistol Outside Home/Business,Unlawful Possession of a Firearm (Prior Conviction),Possession of Unregistered Firearm/Unlawful Possession of a Firearm or Destructive Device,Unlawful Poss Ammunition,Poss of a Controlled Substance -Misd,Possession of Drug Paraphernalia,,,,,,,,,,,,,,,,,,,,,,,,,,,
CF2,"TARKEH, VICTOR", 2014 CF2 3029,02/21/2014,Fraud 1st Deg $1000 or More,,,,,,,,,,,,,,,,,,,,,,,,,,,,,,,,,,
CF2,"AYINWINGGONG, NIBA FORBI", 2014 CF2 3032,02/21/2014,Fraud 1st Deg $1000 or More,,,,,,,,,,,,,,,,,,,,,,,,,,,,,,,,,,
CF2,"FOSTER, LAVON A", 2014 CF2 3036,02/21/2014,Burning One's Own Property with Intent to Defraud,,,,,,,,,,,,,,,,,,,,,,,,,,,,,,,,,,
CF2,"FOSTER, JAVERLYN", 2014 CF2 3039,02/21/2014,Burning One's Own Property with Intent to Defraud,,,,,,,,,,,,,,,,,,,,,,,,,,,,,,,,,,
CF2,"AUSTIN, JAMAL", 2014 CF2 3046,02/21/2014,Carry Pistol Outside Home/Business,Possession of Unregistered Firearm/Unlawful Possession of a Firearm or Destructive Device,Unlawful Poss Ammunition,,,,,,,,,,,,,,,,,,,,,,,,,,,,,,,,
CF2,"BOUSSOUGOU, ETIENNE", 2014 CF2 3051,02/21/2014,Fraud 1st Deg $1000 or More,,,,,,,,,,,,,,,,,,,,,,,,,,,,,,,,,,
CF2,"GIRDLEY, DALLAS F", 2014 CF2 3099,02/22/2014,Unauthorized Use of A Vehicle,,,,,,,,,,,,,,,,,,,,,,,,,,,,,,,,,,
CF2,"BATTLE, JOHN D", 2014 CF2 3104,02/22/2014,Poss W/I to Dist a Controlled Substance,Poss of a Controlled Substance -Misd,,,,,,,,,,,,,,,,,,,,,,,,,,,,,,,,,
CF2,"GARCIA, WILLIAM P", 2014 CF2 3114,02/22/2014,Assault (Felony),,,,,,,,,,,,,,,,,,,,,,,,,,,,,,,,,,
CF2,"PURPORA, JAMES D", 2014 CF2 3115,02/22/2014,Distribution Of a Controlled Substance,Poss W/I to Dist a Controlled Substance,,,,,,,,,,,,,,,,,,,,,,,,,,,,,,,,,
CF2,"QUICK, SEAN L", 2014 CF2 3127,02/22/2014,Theft First Degree,Receiving Stolen Property $1000 or More,Unauthorized Use of A Vehicle,Reckless Driving,,,,,,,,,,,,,,,,,,,,,,,,,,,,,,,
CF2,"BORUM, JUSTIN", 2014 CF2 3128,02/22/2014,Burglary Two,Theft First Degree,Destruction of Property less than $1000,,,,,,,,,,,,,,,,,,,,,,,,,,,,,,,,
CF2,"WILKINS, CHARLES E", 2014 CF2 3132,02/22/2014,Bail Reform Act -Felony,,,,,,,,,,,,,,,,,,,,,,,,,,,,,,,,,,
CF2,"JOHNSON, JAJUAN", 2014 CF2 3138,02/22/2014,Assault with Significant Bodily Injury,,,,,,,,,,,,,,,,,,,,,,,,,,,,,,,,,,
CF2,"HOWERTON, DANA", 2014 CF2 3146,02/22/2014,Assault With A Dangerous Weapon,,,,,,,,,,,,,,,,,,,,,,,,,,,,,,,,,,
CF2,"MURILLO-RIZERA, RAMON E", 2014 CF2 3149,02/22/2014,Simple Assault,,,,,,,,,,,,,,,,,,,,,,,,,,,,,,,,,,
CF2,"MIRA, OSCAR A", 2014 CF2 3150,02/22/2014,Simple Assault,,,,,,,,,,,,,,,,,,,,,,,,,,,,,,,,,,
CF2,"PRATT, TYRONE", 2014 CF2 3178,02/24/2014,Poss W/I to Dist a Controlled Substance,,,,,,,,,,,,,,,,,,,,,,,,,,,,,,,,,,
CF2,, 2014 CF2 3179,02/24/2014,Assault On A Police Officer-Felony,,,,,,,,,,,,,,,,,,,,,,,,,,,,,,,,,,
CF2,"RAMOS, MAURICIO", 2014 CF2 3190,02/24/2014,Distribution Of a Controlled Substance,,,,,,,,,,,,,,,,,,,,,,,,,,,,,,,,,,
CF2,, 2014 CF2 3193,02/24/2014,Unlawful Possession of a Firearm (Prior Conviction),Carry Pistol Outside Home/Business,Possession of Unregistered Firearm/Unlawful Possession of a Firearm or Destructive Device,Unlawful Poss Ammunition,,,,,,,,,,,,,,,,,,,,,,,,,,,,,,,
CF2,"MESSINEO, LOUIS E", 2014 CF2 3205,02/24/2014,Unauthorized Use of A Vehicle,,,,,,,,,,,,,,,,,,,,,,,,,,,,,,,,,,
CF2,, 2014 CF2 3206,02/24/2014,Unauthorized Use of A Vehicle,,,,,,,,,,,,,,,,,,,,,,,,,,,,,,,,,,
CF2,"MOORE, JOYETTA Y", 2014 CF2 3232,02/25/2014,Contempt - Felony,,,,,,,,,,,,,,,,,,,,,,,,,,,,,,,,,,
CF2,"JEFFERSON, MARK", 2014 CF2 3238,02/25/2014,Assault with Significant Bodily Injury,,,,,,,,,,,,,,,,,,,,,,,,,,,,,,,,,,
CF2,"HOLLOWAY, JEROME N", 2014 CF2 3239,02/25/2014,Fraud 1st Deg $1000 or More,,,,,,,,,,,,,,,,,,,,,,,,,,,,,,,,,,
CF2,"GRIFFIN, MARCUS QUINTON", 2014 CF2 3262,02/25/2014,Poss W/I to Dist a Controlled Substance Offenses Committed During Release,Unlawful Possession of Liquid PCP Offenses Committed During Release,,,,,,,,,,,,,,,,,,,,,,,,,,,,,,,,,
CF2,"SPENCER Seaman Recruit, RAY K", 2014 CF2 3270,02/25/2014,Burglary Two,Theft First Degree,Destruction of Property less than $1000,,,,,,,,,,,,,,,,,,,,,,,,,,,,,,,,
CF2,"WARREN, ALONZO", 2014 CF2 3331,02/26/2014,Assault With A Dangerous Weapon,Attempted Threats to Do Bodily Harm -Misd,Attempted Poss Prohibited Weapon,,,,,,,,,,,,,,,,,,,,,,,,,,,,,,,,
CF2,"JONES, DEANDRE", 2014 CF2 3336,02/26/2014,Theft First Degree,Receiving Stolen Property $1000 or More,Unauthorized Use of A Vehicle,Flee Law Enforcement Officer,Destruction of Property $1000 or More,Reckless Driving,No Permit,,,,,,,,,,,,,,,,,,,,,,,,,,,,
CF2,"THOMAS, JAMES D", 2014 CF2 3337,02/26/2014,Robbery,,,,,,,,,,,,,,,,,,,,,,,,,,,,,,,,,,
CF2,, 2014 CF2 3338,02/26/2014,Distribution Of a Controlled Substance,Poss of Open Container of Alcohol/Public Intoxication,,,,,,,,,,,,,,,,,,,,,,,,,,,,,,,,,
CF2,"ALLEN, DENNIS", 2014 CF2 3342,02/26/2014,Fraud 1st Deg $1000 or More,,,,,,,,,,,,,,,,,,,,,,,,,,,,,,,,,,
CF2,"FRANKLIN, JEFFERY", 2014 CF2 3343,02/26/2014,Credit Card Fraud-Fel,,,,,,,,,,,,,,,,,,,,,,,,,,,,,,,,,,
CF2,"HUNT, HERBERT L", 2014 CF2 3379,02/27/2014,Attempted Robbery,,,,,,,,,,,,,,,,,,,,,,,,,,,,,,,,,,
CF2,"ZUNIGA, WILSON", 2014 CF2 3403,02/27/2014,Poss W/I to Dist a Controlled Substance,,,,,,,,,,,,,,,,,,,,,,,,,,,,,,,,,,
CF2,"MCJUNKINS, GREVIN R", 2014 CF2 3409,02/27/2014,Distribution Of a Controlled Substance,Poss W/I to Dist a Controlled Substance,Poss of a Controlled Substance -Misd,,,,,,,,,,,,,,,,,,,,,,,,,,,,,,,,
CF2,, 2014 CF2 3432,02/27/2014,Poss W/I to Dist a Controlled Substance,,,,,,,,,,,,,,,,,,,,,,,,,,,,,,,,,,
CF2,"MURPHY, MATTHEW", 2014 CF2 3436,02/27/2014,Burglary Two,,,,,,,,,,,,,,,,,,,,,,,,,,,,,,,,,,
CF2,"MURPHY, MATTHEW", 2014 CF2 3437,02/27/2014,Burglary Two,Theft First Degree,Destruction of Property less than $1000,,,,,,,,,,,,,,,,,,,,,,,,,,,,,,,,
CF2,"MARK, BRANDON", 2014 CF2 3462,02/28/2014,Robbery,,,,,,,,,,,,,,,,,,,,,,,,,,,,,,,,,,
CF2,"PRESLEY, SAMUEL", 2014 CF2 3482,02/28/2014,Threat to Kidnap or Injure a Person,,,,,,,,,,,,,,,,,,,,,,,,,,,,,,,,,,
CF2,"NELSON, GERMAINE REGINALD", 2014 CF2 3487,02/28/2014,Theft First Degree,,,,,,,,,,,,,,,,,,,,,,,,,,,,,,,,,,
CF2,"MINNICK, DESEAN", 2014 CF2 3493,02/28/2014,Carry Pistol Outside Home/Business,,,,,,,,,,,,,,,,,,,,,,,,,,,,,,,,,,
CF2,"HOFFMAN, KELVIN", 2014 CF2 3495,02/28/2014,Unlawful Possession of a Firearm (Prior Conviction),,,,,,,,,,,,,,,,,,,,,,,,,,,,,,,,,,
CF2,"HOFFMAN, KEITH A", 2014 CF2 3496,02/28/2014,Poss W/I to Dist a Controlled Substance,Possession of Drug Paraphernalia,,,,,,,,,,,,,,,,,,,,,,,,,,,,,,,,,
CF2,"BECKFORD, JOMOKEN", 2014 CF2 3505,02/28/2014,Assault With A Dangerous Weapon,Assault With A Dangerous Weapon,,,,,,,,,,,,,,,,,,,,,,,,,,,,,,,,,
CF2,"VINCENT, GARY BRYANT", 2014 CF2 3513,02/28/2014,Assault with Significant Bodily Injury,Simple Assault,,,,,,,,,,,,,,,,,,,,,,,,,,,,,,,,,
CF2,"MAYBIN, ALLAN T", 2014 CF2 3516,02/28/2014,Threat to Kidnap or Injure a Person,,,,,,,,,,,,,,,,,,,,,,,,,,,,,,,,,,
CF2,"ADAMS, JOHNNY", 2014 CF2 3526,03/01/2014,Poss W/I to Dist a Controlled Substance While Armed,Poss Firearm During Crime of Violence,Unlawful Possession of a Firearm (Prior Conviction),Possession of Unregistered Firearm/Unlawful Possession of a Firearm or Destructive Device,Unlawful Poss Ammunition,Possession of Drug Paraphernalia,,,,,,,,,,,,,,,,,,,,,,,,,,,,,
CF2,"CARR, CEDRIC", 2014 CF2 3532,03/01/2014,Bail Reform Act -Felony,,,,,,,,,,,,,,,,,,,,,,,,,,,,,,,,,,
CF2,"LEWIS, TERRANCE", 2014 CF2 3533,03/01/2014,Bail Reform Act -Misd,,,,,,,,,,,,,,,,,,,,,,,,,,,,,,,,,,
CF2,"THOMPKINS, PHILLIP L", 2014 CF2 3545,03/01/2014,Carry Pistol Outside Home/Business,Unlawful Possession of a Firearm (Prior Conviction),Possession of Unregistered Firearm/Unlawful Possession of a Firearm or Destructive Device,Unlawful Poss Ammunition,,,,,,,,,,,,,,,,,,,,,,,,,,,,,,,
CF2,"BROADNAX, AMANDA C", 2014 CF2 3555,03/01/2014,Threat to Kidnap or Injure a Person,Threat to Kidnap or Injure a Person,Threat to Kidnap or Injure a Person,Threat to Kidnap or Injure a Person,Stalking - Intent to Harm Victim,,,,,,,,,,,,,,,,,,,,,,,,,,,,,,
CF2,"POWELL, RAKEEM", 2014 CF2 3564,03/01/2014,Unauthorized Use of A Vehicle Offenses Committed During Release,Receiving Stolen Property $1000 or More Offenses Committed During Release,,,,,,,,,,,,,,,,,,,,,,,,,,,,,,,,,
CF2,"POWELL, FREDERICK", 2014 CF2 3565,03/01/2014,Unauthorized Use of A Vehicle,,,,,,,,,,,,,,,,,,,,,,,,,,,,,,,,,,
CF2,"PARKER, LONZELL", 2014 CF2 3567,03/01/2014,Unauthorized Use of A Vehicle Offenses Committed During Release,Receiving Stolen Property $1000 or More Offenses Committed During Release,,,,,,,,,,,,,,,,,,,,,,,,,,,,,,,,,
CF2,"ANDERSON, THOMAS W", 2014 CF2 3587,03/04/2014,Poss W/I to Dist a Controlled Substance,Possession of Drug Paraphernalia (Syringes),Possession of Drug Paraphernalia,,,,,,,,,,,,,,,,,,,,,,,,,,,,,,,,
CF2,"CRUZ, JOBANI A", 2014 CF2 3592,03/04/2014,Assault W/I to Commit Robbery,Simple Assault,,,,,,,,,,,,,,,,,,,,,,,,,,,,,,,,,
CF2,"TRICE, RAPHAEL S", 2014 CF2 3598,03/04/2014,Unlawful Possession of a Firearm (Crime of Violence),Carry Pistol Outside Home/Business,Possession of Unregistered Firearm/Unlawful Possession of a Firearm or Destructive Device,Unlawful Poss Ammunition,,,,,,,,,,,,,,,,,,,,,,,,,,,,,,,
CF2,"JACKSON, ALAN", 2014 CF2 3611,03/04/2014,Poss W/I to Dist a Controlled Substance,Unlawful Possession of Liquid PCP,Possession of Drug Paraphernalia,Possession of Open Container of Alcohol - Vehicle,,,,,,,,,,,,,,,,,,,,,,,,,,,,,,,
CF2,"KHODOV, RUSIAN", 2014 CF2 3654,03/04/2014,Assault With A Dangerous Weapon,,,,,,,,,,,,,,,,,,,,,,,,,,,,,,,,,,
CF2,"ARAVALO, RONALD", 2014 CF2 3657,03/04/2014,Bail Reform Act -Felony,,,,,,,,,,,,,,,,,,,,,,,,,,,,,,,,,,
CF2,"DAVIS, LAWRENCE", 2014 CF2 3658,03/04/2014,Poss of a Controlled Substance -Misd,,,,,,,,,,,,,,,,,,,,,,,,,,,,,,,,,,
CF2,"SMITH, RONALD C", 2014 CF2 3661,03/04/2014,Distribution Of a Controlled Substance,Poss W/I to Dist a Controlled Substance,,,,,,,,,,,,,,,,,,,,,,,,,,,,,,,,,
CF2,"HARRISTON, FATIMA", 2014 CF2 3662,03/04/2014,Robbery While Armed,Poss Prohibited Weapon -Other,,,,,,,,,,,,,,,,,,,,,,,,,,,,,,,,,
CF2,"MARKS, ROBERT J", 2014 CF2 3663,03/04/2014,Assault On A Police Officer,,,,,,,,,,,,,,,,,,,,,,,,,,,,,,,,,,
CF2,"SIMMS, LEJONTE", 2014 CF2 3666,03/04/2014,Unauthorized Use of A Vehicle,Receiving Stolen Property $1000 or More,Destruction of Property $1000 or More,Destruction of Property $1000 or More,LV After Collid Damage,,,,,,,,,,,,,,,,,,,,,,,,,,,,,,
CF2,"JACKSON, JOY", 2014 CF2 3671,03/04/2014,Bail Reform Act -Felony,,,,,,,,,,,,,,,,,,,,,,,,,,,,,,,,,,
CF2,"EDWARDS, FRAZIER SCOTTIE", 2014 CF2 3678,03/04/2014,Kidnapping,,,,,,,,,,,,,,,,,,,,,,,,,,,,,,,,,,
CF2,"GWALTNEY, COLONIOUS J", 2014 CF2 3681,03/04/2014,Unlawful Possession of Liquid PCP,"Escape, (From Officer)",,,,,,,,,,,,,,,,,,,,,,,,,,,,,,,,,
CF2,"COLLINS, MICHAEL D", 2014 CF2 3682,03/04/2014,Poss W/I to Dist a Controlled Substance,,,,,,,,,,,,,,,,,,,,,,,,,,,,,,,,,,
CF2,"DORSEY, ARDIE", 2014 CF2 3688,03/04/2014,Unauthorized Use of A Vehicle,Receiving Stolen Property $1000 or More,,,,,,,,,,,,,,,,,,,,,,,,,,,,,,,,,
CF2,"CRAIG, DARRELL", 2014 CF2 3690,03/04/2014,Bail Reform Act -Felony,,,,,,,,,,,,,,,,,,,,,,,,,,,,,,,,,,
CF2,"MIDDLETON, GEORGE O", 2014 CF2 3693,03/04/2014,Unlawful Possession of Liquid PCP,,,,,,,,,,,,,,,,,,,,,,,,,,,,,,,,,,
CF2,"HILL, MARK", 2014 CF2 3700,03/05/2014,Contempt - Felony,,,,,,,,,,,,,,,,,,,,,,,,,,,,,,,,,,
CF2,"BROWN, TONY", 2014 CF2 3725,03/05/2014,Prison Breach,,,,,,,,,,,,,,,,,,,,,,,,,,,,,,,,,,
CF2,"CRISTWOOD, DAVID", 2014 CF2 3728,03/05/2014,Assault With A Dangerous Weapon,,,,,,,,,,,,,,,,,,,,,,,,,,,,,,,,,,
CF2,"PROCTOR, JERMAINE A", 2014 CF2 3736,03/05/2014,Poss W/I to Dist a Controlled Substance,Unlawful Possession of Liquid PCP,Possession of Drug Paraphernalia,,,,,,,,,,,,,,,,,,,,,,,,,,,,,,,,
CF2,"REED, DARYL M", 2014 CF2 3740,03/05/2014,Assault (Felony),Unlawful Entry,,,,,,,,,,,,,,,,,,,,,,,,,,,,,,,,,
CF2,"DUPREE, ANTWAIN", 2014 CF2 3744,03/05/2014,Distribution Of a Controlled Substance,Distribution Of a Controlled Substance,Poss W/I to Dist a Controlled Substance,Poss W/I to Dist a Controlled Substance,Poss of a Controlled Substance -Misd,Possession of Drug Paraphernalia,,,,,,,,,,,,,,,,,,,,,,,,,,,,,
CF2,"HERDER, TAKEIA", 2014 CF2 3745,03/05/2014,Maintaining a Crack House,Poss W/I to Dist a Controlled Substance,Poss Firearm During Crime of Violence,Unlawful Possession of a Firearm (Prior Conviction),Possession of Unregistered Firearm,Unlawful Poss Ammunition,Possession of Drug Paraphernalia,,,,,,,,,,,,,,,,,,,,,,,,,,,,
CF2,"POWELL, DUPREE R", 2014 CF2 3767,03/06/2014,Poss W/I to Dist a Controlled Substance,,,,,,,,,,,,,,,,,,,,,,,,,,,,,,,,,,
CF2,"QUIROGA, CARLOS", 2014 CF2 3768,03/06/2014,Carry Pistol Outside Home/Business,Possession of Unregistered Firearm/Unlawful Possession of a Firearm or Destructive Device,Unlawful Poss Ammunition,,,,,,,,,,,,,,,,,,,,,,,,,,,,,,,,
CF2,"SMITH, KIM E", 2014 CF2 3797,03/06/2014,Distribution of Marijuana-Misd Offenses Committed During Release,,,,,,,,,,,,,,,,,,,,,,,,,,,,,,,,,,
CF2,"ROBINSON, MICHAEL V", 2014 CF2 3798,03/06/2014,Bail Reform Act -Misd,,,,,,,,,,,,,,,,,,,,,,,,,,,,,,,,,,
CF2,"ROBINSON, MICHAEL VINCENT", 2014 CF2 3805,03/06/2014,Prison Breach,,,,,,,,,,,,,,,,,,,,,,,,,,,,,,,,,,
CF2,"DENNIS, THOMAS C", 2014 CF2 3807,03/06/2014,Distribution Of a Controlled Substance,,,,,,,,,,,,,,,,,,,,,,,,,,,,,,,,,,
CF2,"DAVIES, JAMAL", 2014 CF2 3810,03/06/2014,Theft First Degree,,,,,,,,,,,,,,,,,,,,,,,,,,,,,,,,,,
CF2,"BRISCO, CHASE", 2014 CF2 3832,03/07/2014,Distribution Of a Controlled Substance,Distribution Of a Controlled Substance,,,,,,,,,,,,,,,,,,,,,,,,,,,,,,,,,
CF2,"SMALL, DELONTE", 2014 CF2 3833,03/07/2014,Receiving Stolen Property $1000 or More,Unauthorized Use of A Vehicle,Destruction of Property $1000 or More,Destruction of Property less than $1000,Flee Law Enforcement Officer,Reckless Driving,LV After Collid Damage,No Permit,Unlawful Entry,,,,,,,,,,,,,,,,,,,,,,,,,,
CF2,"GARRIS, OMAR I", 2014 CF2 3836,03/07/2014,Flee Law Enforcement Officer,Assault On A Police Officer,Assault On A Police Officer,Reckless Driving,,,,,,,,,,,,,,,,,,,,,,,,,,,,,,,
CF2,"JACKSON, JOHN A", 2014 CF2 3845,03/07/2014,Assault With A Dangerous Weapon,,,,,,,,,,,,,,,,,,,,,,,,,,,,,,,,,,
CF2,"WILLIAMS, ANTOINIO E", 2014 CF2 3935,03/08/2014,Poss W/I to Dist a Controlled Substance,,,,,,,,,,,,,,,,,,,,,,,,,,,,,,,,,,
CF2,"CANNON, DEON L", 2014 CF2 3939,03/08/2014,Carry Pistol Outside Home/Business,Possession of Unregistered Firearm/Unlawful Possession of a Firearm or Destructive Device,,,,,,,,,,,,,,,,,,,,,,,,,,,,,,,,,
CF2,"MCDUFFIE, GARY D", 2014 CF2 3956,03/08/2014,Carry Pistol Outside Home/Business,Unlawful Possession of a Firearm (Prior Conviction),Possession of Unregistered Firearm/Unlawful Possession of a Firearm or Destructive Device,Unlawful Poss Ammunition,,,,,,,,,,,,,,,,,,,,,,,,,,,,,,,
CF2,"MCMILLAN, CORNELIUS D", 2014 CF2 3958,03/08/2014,Poss W/I to Dist a Controlled Substance,Possession of Drug Paraphernalia,No Permit,,,,,,,,,,,,,,,,,,,,,,,,,,,,,,,,
CF2,"RUSSELL, BRIAN K", 2014 CF2 3963,03/08/2014,Bail Reform Act -Felony,,,,,,,,,,,,,,,,,,,,,,,,,,,,,,,,,,
CF2,"STOUTAMIRE, Mr AARON T.", 2014 CF2 3978,03/08/2014,Poss W/I to Dist a Controlled Substance,Unlawful Possession of Liquid PCP,Poss of a Controlled Substance -Misd,Possession of Drug Paraphernalia,Threats to Do Bodily Harm -Misd,Threats to Do Bodily Harm -Misd,,,,,,,,,,,,,,,,,,,,,,,,,,,,,
CF2,"JOHNSON, ALPHONSO T", 2014 CF2 3979,03/08/2014,Poss W/I to Dist a Controlled Substance,,,,,,,,,,,,,,,,,,,,,,,,,,,,,,,,,,
CF2,"BODDIE, SHARON D", 2014 CF2 3980,03/08/2014,Poss W/I to Dist a Controlled Substance,,,,,,,,,,,,,,,,,,,,,,,,,,,,,,,,,,
CF2,"RAWLES, WILLIAM", 2014 CF2 3981,03/08/2014,Poss of a Controlled Substance -Misd,,,,,,,,,,,,,,,,,,,,,,,,,,,,,,,,,,
CF2,"CHAMBERS, VALENTINA S", 2014 CF2 3982,03/08/2014,Poss W/I to Dist a Controlled Substance,Poss of a Controlled Substance -Misd,Poss of a Controlled Substance -Misd,Poss of a Controlled Substance -Misd,,,,,,,,,,,,,,,,,,,,,,,,,,,,,,,
CF2,"MILLER, REGINALD L", 2014 CF2 4004,03/10/2014,Carry Pistol Outside Home/Business,,,,,,,,,,,,,,,,,,,,,,,,,,,,,,,,,,
CF2,"FORD, TANESHA", 2014 CF2 4029,03/10/2014,Bail Reform Act -Felony,,,,,,,,,,,,,,,,,,,,,,,,,,,,,,,,,,
CF2,"GREEN, WILLIAM L", 2014 CF2 4035,03/10/2014,Poss W/I to Dist a Controlled Substance,,,,,,,,,,,,,,,,,,,,,,,,,,,,,,,,,,
CF2,"TABRON, MARTIN DARNELL", 2014 CF2 4047,03/10/2014,Prison Breach,,,,,,,,,,,,,,,,,,,,,,,,,,,,,,,,,,
CF2,"REDD, CHAUNCY", 2014 CF2 4101,03/11/2014,Carry Pistol Outside Home/Business,Possession of Unregistered Firearm,Unlawful Poss Ammunition,,,,,,,,,,,,,,,,,,,,,,,,,,,,,,,,
CF2,"MOBLEY, ISHMIL M", 2014 CF2 4108,03/11/2014,Flee Law Enforcement Officer Offenses Committed During Release,Reckless Driving,,,,,,,,,,,,,,,,,,,,,,,,,,,,,,,,,
CF2,"KOON, MICHAEL C", 2014 CF2 4113,03/11/2014,Carry Pistol Outside Home/Business,,,,,,,,,,,,,,,,,,,,,,,,,,,,,,,,,,
CF2,"LITTLE, ORLANDO", 2014 CF2 4121,03/11/2014,Unlawful Possession of a Firearm (Prior Conviction),Unlawful Possession of a Firearm (Intrafamily Offense),Possession of Unregistered Firearm,Unlawful Poss Ammunition,,,,,,,,,,,,,,,,,,,,,,,,,,,,,,,
CF2,"FRANCIS, DEVANTA", 2014 CF2 4132,03/11/2014,Unauthorized Use of A Vehicle,Receiving Stolen Property-Misd,Assault On A Police Officer,,,,,,,,,,,,,,,,,,,,,,,,,,,,,,,,
CF2,"HARRIGAN, STEPHON", 2014 CF2 4133,03/11/2014,Unauthorized Use of A Vehicle Offenses Committed During Release,Receiving Stolen Property-Misd Offenses Committed During Release,Flee Law Enforcement Officer Offenses Committed During Release,Assault On A Police Officer Offenses Committed During Release,,,,,,,,,,,,,,,,,,,,,,,,,,,,,,,
CF2,"PARKER, MARQUIS", 2014 CF2 4197,03/12/2014,Poss W/I to Dist a Controlled Substance,Poss W/I to Dist a Controlled Substance,Poss W/I to Dist a Controlled Substance,,,,,,,,,,,,,,,,,,,,,,,,,,,,,,,,
CF2,"BURROWS, JOHN W", 2014 CF2 4213,03/12/2014,Prison Breach,,,,,,,,,,,,,,,,,,,,,,,,,,,,,,,,,,
CF2,"ANDRADE, KEVIN", 2014 CF2 4219,03/12/2014,Unlawful Possession of a Firearm (Prior Conviction),,,,,,,,,,,,,,,,,,,,,,,,,,,,,,,,,,
CF2,"RICHARDSON, TEYOINE", 2014 CF2 4224,03/12/2014,Possession of Unregistered Firearm/Unlawful Possession of a Firearm or Destructive Device,Unlawful Poss Ammunition,Possession of Unregistered Firearm/Unlawful Possession of a Firearm or Destructive Device,Unlawful Poss Ammunition,,,,,,,,,,,,,,,,,,,,,,,,,,,,,,,
CF2,"CAMERON, ERIC D", 2014 CF2 4246,03/13/2014,Arrest Charge,See Indictment Phase,Poss W/I to Dist a Controlled Substance,Poss of a Controlled Substance -Misd,,,,,,,,,,,,,,,,,,,,,,,,,,,,,,,
CF2,"HILTON, DWAYNE", 2014 CF2 4255,03/13/2014,Assault With A Dangerous Weapon,,,,,,,,,,,,,,,,,,,,,,,,,,,,,,,,,,
CF2,"RANDOLPH, DANNY T", 2014 CF2 4286,03/13/2014,Prisoner Escape,,,,,,,,,,,,,,,,,,,,,,,,,,,,,,,,,,
CF2,"SMITH, MICHAEL W", 2014 CF2 4300,03/13/2014,Poss W/I to Dist a Controlled Substance,Possession of Drug Paraphernalia,,,,,,,,,,,,,,,,,,,,,,,,,,,,,,,,,
CF2,"WILLIAMS, OSWALD", 2014 CF2 4354,03/14/2014,Poss W/I to Dist a Controlled Substance,Possession of Drug Paraphernalia,,,,,,,,,,,,,,,,,,,,,,,,,,,,,,,,,
CF2,"CZAJKOWSKI, ALEXANDER", 2014 CF2 4355,03/14/2014,Theft First Degree,,,,,,,,,,,,,,,,,,,,,,,,,,,,,,,,,,
CF2,"JOHNSON, ERNEST", 2014 CF2 4367,03/14/2014,Receiving Stolen Property $1000 or More Offenses Committed During Release,Unauthorized Use of A Vehicle Offenses Committed During Release,Assault With A Dangerous Weapon Offenses Committed During Release,Assault On A Police Officer Offenses Committed During Release,Destruction of Property $1000 or More Offenses Committed During Release,Destruction of Property $1000 or More Offenses Committed During Release,Reckless Driving,LV After Collid Damage,No Permit,,,,,,,,,,,,,,,,,,,,,,,,,,
CF2,"BUTTS, LESTER D", 2014 CF2 4373,03/14/2014,Poss W/I to Dist a Controlled Substance,Possession of Drug Paraphernalia,,,,,,,,,,,,,,,,,,,,,,,,,,,,,,,,,
CF2,"ROBINSON, JEFFREY D", 2014 CF2 4387,03/14/2014,Poss W/I to Dist a Controlled Substance,,,,,,,,,,,,,,,,,,,,,,,,,,,,,,,,,,
CF2,"CLARKE, ANDRE R", 2014 CF2 4389,03/14/2014,Poss W/I to Dist a Controlled Substance,Poss Firearm During Crime of Violence,Possession of Unregistered Firearm/Unlawful Possession of a Firearm or Destructive Device,Unlawful Poss Ammunition,,Possession of Drug Paraphernalia,Poss W/I to Dist a Controlled Substance,Possession of Drug Paraphernalia,Tampering With Physical Evidence,,,,,,,,,,,,,,,,,,,,,,,,,,
CF2,"BOYD, LEMAL J", 2014 CF2 4395,03/14/2014,Flee Law Enforcement Officer,Reckless Driving,Poss of a Controlled Substance -Misd,,,,,,,,,,,,,,,,,,,,,,,,,,,,,,,,
CF2,"SAMPSON, MARVIN", 2014 CF2 4408,03/14/2014,Receiving Stolen Property $1000 or More,Unauthorized Use of A Vehicle,,,,,,,,,,,,,,,,,,,,,,,,,,,,,,,,,
CF2,"COOPER, BERNARD", 2014 CF2 4410,03/14/2014,Poss W/I to Dist a Controlled Substance,Poss W/I to Dist a Controlled Substance,Possession of Drug Paraphernalia,,,,,,,,,,,,,,,,,,,,,,,,,,,,,,,,
CF2,"WASHINGTON, GILBERT ROLAND", 2014 CF2 4411,03/14/2014,Poss W/I to Dist a Controlled Substance,Poss W/I to Dist a Controlled Substance,Possession of Drug Paraphernalia,Possession of Drug Paraphernalia,,,,,,,,,,,,,,,,,,,,,,,,,,,,,,,
CF2,"TENGWEI, PAUL", 2014 CF2 4423,03/14/2014,Fraud 1st Deg $1000 or More,,,,,,,,,,,,,,,,,,,,,,,,,,,,,,,,,,
CF2,"DAY, TARIQUE J", 2014 CF2 4438,03/15/2014,Tampering With Physical Evidence Offenses Committed During Release,Poss of a Controlled Substance -Misd,,,,,,,,,,,,,,,,,,,,,,,,,,,,,,,,,
CF2,"BROWN II, KEVIN D", 2014 CF2 4439,03/15/2014,Distribution Of a Controlled Substance,Poss W/I to Dist a Controlled Substance,Unlawful Possession of Liquid PCP,,,,,,,,,,,,,,,,,,,,,,,,,,,,,,,,
CF2,"GRAY, ANDRE", 2014 CF2 4448,03/15/2014,Theft First Degree,,,,,,,,,,,,,,,,,,,,,,,,,,,,,,,,,,
CF2,, 2014 CF2 4449,03/15/2014,Burglary Two,,,,,,,,,,,,,,,,,,,,,,,,,,,,,,,,,,
CF2,"JEFFERSON, LARRY M", 2014 CF2 4495,03/15/2014,Distribution Of a Controlled Substance,,,,,,,,,,,,,,,,,,,,,,,,,,,,,,,,,,
CF2,"WOOD, KEITH L", 2014 CF2 4504,03/15/2014,Unlawful Possession of a Firearm (Crime of Violence),,,,,,,,,,,,,,,,,,,,,,,,,,,,,,,,,,
CF2,"PINKETT, INETT D", 2014 CF2 4508,03/15/2014,Distribution Of a Controlled Substance Offenses Committed During Release,Poss of a Controlled Substance -Misd,,,,,,,,,,,,,,,,,,,,,,,,,,,,,,,,,
CF2,"CHEADLE, RAYDON L", 2014 CF2 4510,03/15/2014,Poss W/I to Dist a Controlled Substance,Unlawful Possession of Liquid PCP,,,,,,,,,,,,,,,,,,,,,,,,,,,,,,,,,
CF2,"WHITE, DAVID", 2014 CF2 4515,03/15/2014,Burglary Two,,,,,,,,,,,,,,,,,,,,,,,,,,,,,,,,,,
CF2,"CAMPBELL, KWABENA M", 2014 CF2 4521,03/15/2014,Poss W/I to Dist a Controlled Substance,Poss W/I to Dist a Controlled Substance,Possession of Drug Paraphernalia,Unlawful Entry,Assault On A Police Officer,,,,,,,,,,,,,,,,,,,,,,,,,,,,,,
CF2,"WILLIAMS, LACY", 2014 CF2 4540,03/18/2014,Poss W/I to Dist a Controlled Substance,Poss of a Controlled Substance -Misd,Possession of Drug Paraphernalia,Unlawful Poss Ammunition,,,,,,,,,,,,,,,,,,,,,,,,,,,,,,,
CF2,"ELLIOTT, JEROME T", 2014 CF2 4579,03/18/2014,Carry Pistol W/O Lic -Outside Home/Business,Possession of Unregistered Firearm/Unlawful Possession of a Firearm or Destructive Device,Unlawful Poss Ammunition,Poss of a Controlled Substance -Misd,,,,,,,,,,,,,,,,,,,,,,,,,,,,,,,
CF2,"RANDOLPH, RAYMAH", 2014 CF2 4580,03/18/2014,Poss W/I to Dist a Controlled Substance Offenses Committed During Release,Poss W/I to Dist a Controlled Substance Offenses Committed During Release,Unlawful Possession of Liquid PCP Offenses Committed During Release,Possession of Drug Paraphernalia,Assault On A Police Officer,Assault On A Police Officer,Assault On A Police Officer,Assault On A Police Officer,,,,,,,,,,,,,,,,,,,,,,,,,,,
CF2,"SIMMONS, ALLGENIO H", 2014 CF2 4581,03/18/2014,Distribution Of a Controlled Substance,Poss W/I to Dist a Controlled Substance,Poss of a Controlled Substance -Misd,,,,,,,,,,,,,,,,,,,,,,,,,,,,,,,,
CF2,"HALL, MARTELL A", 2014 CF2 4582,03/18/2014,Distribution Of a Controlled Substance,Poss W/I to Dist a Controlled Substance,,,,,,,,,,,,,,,,,,,,,,,,,,,,,,,,,
CF2,"SUTTON, DAVID J", 2014 CF2 4620,03/18/2014,Assault With A Dangerous Weapon,,,,,,,,,,,,,,,,,,,,,,,,,,,,,,,,,,
CF2,"WILKERSON, ROBERT", 2014 CF2 4623,03/18/2014,Fraud 1st Deg $1000 or More,,,,,,,,,,,,,,,,,,,,,,,,,,,,,,,,,,
CF2,"GREEN, TONYA", 2014 CF2 4626,03/18/2014,Fraud 1st Deg $1000 or More,,,,,,,,,,,,,,,,,,,,,,,,,,,,,,,,,,
CF2,"COURTNEY, CARL", 2014 CF2 4628,03/18/2014,Unauthorized Use of A Vehicle,,,,,,,,,,,,,,,,,,,,,,,,,,,,,,,,,,
CF2,"SPRATTLEY, JAHMEL", 2014 CF2 4633,03/18/2014,Assault With A Dangerous Weapon,,,,,,,,,,,,,,,,,,,,,,,,,,,,,,,,,,
CF2,"CRAWFORD, MICKEY", 2014 CF2 4634,03/18/2014,Prison Breach,,,,,,,,,,,,,,,,,,,,,,,,,,,,,,,,,,
CF2,"GREEN, DAMAINE", 2014 CF2 4635,03/18/2014,Unauthorized Use of A Vehicle,Receiving Stolen Property $1000 or More,,,,,,,,,,,,,,,,,,,,,,,,,,,,,,,,,
CF2,"HAWKINS, TYRONE", 2014 CF2 4636,03/18/2014,Unauthorized Use of A Vehicle,Receiving Stolen Property $1000 or More,,,,,,,,,,,,,,,,,,,,,,,,,,,,,,,,,
CF2,, 2014 CF2 4637,03/18/2014,Unauthorized Use of A Vehicle,Receiving Stolen Property $1000 or More,Destruction of Property $1000 or More,Destruction of Property less than $1000,Destruction of Property less than $1000,Flee Law Enforcement Officer,Reckless Driving,,,,,,,,,,,,,,,,,,,,,,,,,,,,
CF2,"JACKSON, D  ANDRE", 2014 CF2 4638,03/18/2014,Escape from DYRS,,,,,,,,,,,,,,,,,,,,,,,,,,,,,,,,,,
CF2,"GILMORE, BRUCE WAYNE", 2014 CF2 4639,03/18/2014,Assault With A Dangerous Weapon,,,,,,,,,,,,,,,,,,,,,,,,,,,,,,,,,,
CF2,"LEWIS, DERRICK L", 2014 CF2 4640,03/18/2014,Unauthorized Use of A Vehicle,,,,,,,,,,,,,,,,,,,,,,,,,,,,,,,,,,
CF2,"MALATY, RYAN B", 2014 CF2 4641,03/18/2014,Theft First Degree,Unauthorized Use of A Vehicle,,,,,,,,,,,,,,,,,,,,,,,,,,,,,,,,,
CF2,"TUCKER, ANTOINE", 2014 CF2 4645,03/19/2014,Threat to Kidnap or Injure a Person,,,,,,,,,,,,,,,,,,,,,,,,,,,,,,,,,,
CF2,"SUTTON, GEORGE S", 2014 CF2 4666,03/19/2014,Poss W/I to Dist a Controlled Substance,Poss of a Controlled Substance -Misd,,,,,,,,,,,,,,,,,,,,,,,,,,,,,,,,,
CF2,"CRUZ, JOBANI A", 2014 CF2 4668,03/19/2014,Contempt - Felony,Tampering with a Detection Device,,,,,,,,,,,,,,,,,,,,,,,,,,,,,,,,,
CF2,"BERRY, JAMES", 2014 CF2 4678,03/19/2014,Assault With A Dangerous Weapon,,,,,,,,,,,,,,,,,,,,,,,,,,,,,,,,,,
CF2,"WALLICE, BRANDI C", 2014 CF2 4702,03/19/2014,Prisoner Escape,,,,,,,,,,,,,,,,,,,,,,,,,,,,,,,,,,
CF2,"HOWARD, JOSEPH B", 2014 CF2 4707,03/19/2014,Burglary One,,,,,,,,,,,,,,,,,,,,,,,,,,,,,,,,,,
CF2,"JOHNSON, LORENZO", 2014 CF2 4708,03/19/2014,Kidnapping While Armed,,,,,,,,,,,,,,,,,,,,,,,,,,,,,,,,,,
CF2,"PERKINS, RALPHIEL", 2014 CF2 4710,03/19/2014,Poss W/I to Dist a Controlled Substance While Armed,,,,,,,,,,,,,,,,,,,,,,,,,,,,,,,,,,
CF2,"BOLDEN, MARK", 2014 CF2 4720,03/20/2014,Distribution Of a Controlled Substance,Distribution Of a Controlled Substance,Distribution Of a Controlled Substance,Distribution Of a Controlled Substance,Distribution Of a Controlled Substance,Distribution Of a Controlled Substance,,,,,,,,,,,,,,,,,,,,,,,,,,,,,
CF2,"MAYBIN, ALLAN T", 2014 CF2 4722,03/20/2014,Distribution Of a Controlled Substance,Distribution Of a Controlled Substance,Distribution Of a Controlled Substance,Distribution Of a Controlled Substance,,,,,,,,,,,,,,,,,,,,,,,,,,,,,,,
CF2,"BRAXTON, KENAN", 2014 CF2 4731,03/20/2014,Distribution Of a Controlled Substance,Distribution Of a Controlled Substance,Distribution Of a Controlled Substance,Distribution Of a Controlled Substance,,,,,,,,,,,,,,,,,,,,,,,,,,,,,,,
CF2,"WHITE, ANTHONY", 2014 CF2 4739,03/20/2014,,Distribution Of a Controlled Substance,Distribution Of a Controlled Substance,Distribution Of a Controlled Substance,,,,,,,,,,,,,,,,,,,,,,,,,,,,,,,
CF2,"WHITLEY, MARQUETTE", 2014 CF2 4742,03/20/2014,Distribution Of a Controlled Substance,Distribution Of a Controlled Substance,Distribution Of a Controlled Substance,Distribution Of a Controlled Substance,Distribution Of a Controlled Substance,Distribution Of a Controlled Substance,Distribution Of a Controlled Substance,Distribution Of a Controlled Substance,,,,,,,,,,,,,,,,,,,,,,,,,,,
CF2,"PROCTOR, WILLIAM P", 2014 CF2 4752,03/20/2014,Poss W/I to Dist a Controlled Substance,Poss of a Controlled Substance -Misd,Possession of Drug Paraphernalia,,,,,,,,,,,,,,,,,,,,,,,,,,,,,,,,
CF2,"TOLIVER, NHYRE A", 2014 CF2 4753,03/20/2014,Distribution Of a Controlled Substance,Distribution Of a Controlled Substance,Distribution Of a Controlled Substance,Distribution Of a Controlled Substance,Distribution Of a Controlled Substance,Distribution Of a Controlled Substance,Distribution Of a Controlled Substance,Distribution Of a Controlled Substance,Distribution Of a Controlled Substance,Distribution Of a Controlled Substance,,,,,,,,,,,,,,,,,,,,,,,,,
CF2,"ROBERTS, CALVIN TIMOTHY", 2014 CF2 4755,03/20/2014,Distribution Of a Controlled Substance,Distribution Of a Controlled Substance,Distribution Of a Controlled Substance,,,,,,,,,,,,,,,,,,,,,,,,,,,,,,,,
CF2,"CARSON, DELONTE D", 2014 CF2 4759,03/20/2014,Distribution Of a Controlled Substance,Distribution Of a Controlled Substance,Distribution Of a Controlled Substance,,,,,,,,,,,,,,,,,,,,,,,,,,,,,,,,
CF2,"PRAILOW, LORENZO P", 2014 CF2 4762,03/20/2014,Distribution Of a Controlled Substance,Distribution Of a Controlled Substance,Distribution Of a Controlled Substance,Distribution Of a Controlled Substance,Distribution Of a Controlled Substance,Distribution Of a Controlled Substance,Distribution Of a Controlled Substance,Distribution Of a Controlled Substance,Distribution Of a Controlled Substance,Distribution Of a Controlled Substance,Distribution Of a Controlled Substance,,,,,,,,,,,,,,,,,,,,,,,,
CF2,"BRATTON, CURTIS", 2014 CF2 4767,03/20/2014,Assault W/I to Commit Robbery,,,,,,,,,,,,,,,,,,,,,,,,,,,,,,,,,,
CF2,"GREEN, WILLIAM L", 2014 CF2 4768,03/20/2014,Poss W/I to Dist a Controlled Substance,,,,,,,,,,,,,,,,,,,,,,,,,,,,,,,,,,
CF2,"HANSFORD, MONIQUE L", 2014 CF2 4769,03/20/2014,Poss W/I to Dist a Controlled Substance,Possession of Drug Paraphernalia,,,,,,,,,,,,,,,,,,,,,,,,,,,,,,,,,
CF2,"GREEN, JAMAL", 2014 CF2 4770,03/20/2014,Carry Dang Weapon-Outside Home/Business (Prior Felony) Offenses Committed During Release,Unlawful Possession of a Firearm (Prior Conviction) Offenses Committed During Release,Possession of Unregistered Firearm,Unlawful Poss Ammunition,Poss of a Controlled Substance -Misd,,,,,,,,,,,,,,,,,,,,,,,,,,,,,,
CF2,"CEPHUS, EARL R", 2014 CF2 4774,03/20/2014,Distribution Of a Controlled Substance,Distribution Of a Controlled Substance,Distribution Of a Controlled Substance,Poss W/I to Dist a Controlled Substance,Distribution Of a Controlled Substance,Distribution Of a Controlled Substance,Distribution Of a Controlled Substance,Distribution Of a Controlled Substance,Distribution Of a Controlled Substance,,,,,,,,,,,,,,,,,,,,,,,,,,
CF2,"RUSSELL, VERNON L", 2014 CF2 4783,03/20/2014,Bail Reform Act -Felony,,,,,,,,,,,,,,,,,,,,,,,,,,,,,,,,,,
CF2,"THOMAS, TERRY DONNELL", 2014 CF2 4788,03/20/2014,Distribution Of a Controlled Substance,Distribution Of a Controlled Substance,Distribution Of a Controlled Substance,Distribution Of a Controlled Substance,Distribution Of a Controlled Substance,Distribution Of a Controlled Substance,,,,,,,,,,,,,,,,,,,,,,,,,,,,,
CF2,"DAVIES, SAIDU", 2014 CF2 4790,03/20/2014,Distribution Of a Controlled Substance,Distribution Of a Controlled Substance,Distribution Of a Controlled Substance,Distribution Of a Controlled Substance,,,,,,,,,,,,,,,,,,,,,,,,,,,,,,,
CF2,"CREWS, ERIC", 2014 CF2 4792,03/20/2014,Theft First Degree,Receiving Stolen Property $1000 or More,Unauthorized Use of A Vehicle,Flee Law Enforcement Officer,Destruction of Property less than $1000,LV After Collid Damage,,,,,,,,,,,,,,,,,,,,,,,,,,,,,
CF2,"HUNT, CYNTHIA", 2014 CF2 4799,03/21/2014,Carry Pistol Outside Home/Business,Possession of Unregistered Firearm/Unlawful Possession of a Firearm or Destructive Device,Unlawful Poss Ammunition,,,,,,,,,,,,,,,,,,,,,,,,,,,,,,,,
CF2,"WILSON, THOMAS", 2014 CF2 4834,03/21/2014,Second Degree Insurance Fraud,,,,,,,,,,,,,,,,,,,,,,,,,,,,,,,,,,
CF2,"MATTHEWS, ISAAC", 2014 CF2 4835,03/21/2014,Second Degree Insurance Fraud,,,,,,,,,,,,,,,,,,,,,,,,,,,,,,,,,,
CF2,"WASHINGTON, KEVAUGHN", 2014 CF2 4846,03/21/2014,Carry Pistol Outside Home/Business,,,,,,,,,,,,,,,,,,,,,,,,,,,,,,,,,,
CF2,"JONES, MICHAEL A", 2014 CF2 4863,03/21/2014,Robbery While Armed,,,,,,,,,,,,,,,,,,,,,,,,,,,,,,,,,,
CF2,"MAYO, DECONDI D", 2014 CF2 4867,03/21/2014,Poss W/I to Dist a Controlled Substance While Armed,Poss Firearm During Crime of Violence,Unlawful Possession of a Firearm (Prior Conviction),Carry Pistol Outside Home/Business,Possession of Unregistered Firearm/Unlawful Possession of a Firearm or Destructive Device,Unlawful Poss Ammunition,Poss of Open Container of Alcohol/Public Intoxication,Poss of a Controlled Substance -Misd,,,,,,,,,,,,,,,,,,,,,,,,,,,
CF2,"BARKLEY, TYRELL", 2014 CF2 4891,03/21/2014,Theft First Degree,Receiving Stolen Property $1000 or More,Unauthorized Use of A Vehicle,Fleeing - Misdemeanor,,,,,,,,,,,,,,,,,,,,,,,,,,,,,,,
CF2,"WALKER, DELONTE", 2014 CF2 4909,03/21/2014,Distribution Of a Controlled Substance,,,,,,,,,,,,,,,,,,,,,,,,,,,,,,,,,,
CF2,"THOMPSON, LARRY", 2014 CF2 4913,03/21/2014,Carry Pistol Outside Home/Business Offenses Committed During Release,Possession of Unregistered Firearm/Unlawful Possession of a Firearm or Destructive Device,Unlawful Poss Ammunition,,,,,,,,,,,,,,,,,,,,,,,,,,,,,,,,
CF2,"VENTURA, TRINIDAD", 2014 CF2 4914,03/21/2014,Unlawful Possession of a Firearm (Prior Conviction),,,,,,,,,,,,,,,,,,,,,,,,,,,,,,,,,,
CF2,"SHOCKLEY, JUSTIN", 2014 CF2 4920,03/21/2014,Bail Reform Act -Misd,,,,,,,,,,,,,,,,,,,,,,,,,,,,,,,,,,
CF2,"MANES, MAX", 2014 CF2 4921,03/21/2014,Burglary Two,Theft Second Degree,,,,,,,,,,,,,,,,,,,,,,,,,,,,,,,,,
CF2,"KINARD, RODNEY", 2014 CF2 4928,03/22/2014,Carry Pistol Outside Home/Business,Possession of Unregistered Firearm/Unlawful Possession of a Firearm or Destructive Device,Unlawful Poss Ammunition,,,,,,,,,,,,,,,,,,,,,,,,,,,,,,,,
CF2,"OWENS, JOSEPH MATTHEW", 2014 CF2 4955,03/22/2014,Unlawful Possession of Liquid PCP,Poss of Open Container of Alcohol/Public Intoxication,,,,,,,,,,,,,,,,,,,,,,,,,,,,,,,,,
CF2,"INGRAM, CHRISTOPHER", 2014 CF2 4963,03/22/2014,Poss W/I to Dist a Controlled Substance,Flee Law Enforcement Officer,Reckless Driving,No Permit,,,,,,,,,,,,,,,,,,,,,,,,,,,,,,,
CF2,"MOORE, DIRIK", 2014 CF2 4978,03/22/2014,Prison Breach,,,,,,,,,,,,,,,,,,,,,,,,,,,,,,,,,,
CF2,"OWENS, ANTWUAN J", 2014 CF2 4991,03/24/2014,Carry Pistol Outside Home/Business,Possession of Unregistered Firearm,Unlawful Poss Ammunition,Poss of a Controlled Substance -Misd,Poss of a Controlled Substance -Misd,Possession of Open Container of Alcohol - Vehicle,,,,,,,,,,,,,,,,,,,,,,,,,,,,,
CF2,"POWELL, VERNELL C", 2014 CF2 5007,03/24/2014,Poss W/I to Dist a Controlled Substance,,,,,,,,,,,,,,,,,,,,,,,,,,,,,,,,,,
CF2,"KELLEY, KENNETH", 2014 CF2 5010,03/24/2014,Poss W/I to Dist a Controlled Substance,Poss of a Controlled Substance -Misd,,,,,,,,,,,,,,,,,,,,,,,,,,,,,,,,,
CF2,"FARUQ, YUSUF", 2014 CF2 5023,03/24/2014,Poss of a Controlled Substance -Misd,,,,,,,,,,,,,,,,,,,,,,,,,,,,,,,,,,
CF2,"FERGUSON, ANTWAN", 2014 CF2 5024,03/24/2014,Carry Pistol Outside Home/Business,,,,,,,,,,,,,,,,,,,,,,,,,,,,,,,,,,
